Institutions , DEA , Average Publications Per Faculty , Average Citations Per Publication, Average Awards per Faculty
AMERICAN UNIVERSITY , 0.89875648263517 , 0.3071 , 0.39 , 0
ARIZONA STATE UNIVERSITY , 0.681900936520088 , 0.898 , 1.6815 , 0.8571
AUBURN UNIVERSITY , 0.627107082722181 , 0.7853 , 0.6834 , 0.0745
BOSTON COLLEGE , 0.518942495692981 , 0.5102 , 1.2815 , 0.449
BOSTON UNIVERSITY , 0.613796360815363 , 0.4871 , 2.6757 , 0.3787
BRANDEIS UNIVERSITY , 0.369539461435353 , 0.2993 , 2.9962 , 0
BROWN UNIVERSITY , 0.670056917439813 , 0.8391 , 2.2716 , 0.7596
CALIFORNIA INSTITUTE OF TECHNOLOGY , 0.752981207718953 , 0.9905 , 2.3886 , 1.7306
CARNEGIE MELLON UNIVERSITY , 0.347336445679786 , 0.4314 , 1.8765 , 0.5841
CITY UNIVERSITY OF NEW YORK GRAD. CENTER , 0.391070914458715 , 0.352 , 1.1706 , 0.1778
CLAREMONT GRADUATE UNIVERSITY , 0.735827826922613 , 0.4733 , 0.6812 , 0.0668
CLARK UNIVERSITY , 0.657867994826728 , 0.1755 , 1.6486 , 0
COLUMBIA UNIVERSITY IN THE CITY OF NEW YORK , 0.869781264152186 , 0.618 , 1.4212 , 2.9348
CORNELL UNIVERSITY , 0.613535983688333 , 0.7099 , 1.632 , 0.4905
DREXEL UNIVERSITY , 0.193881302411474 , 0.2406 , 0.8595 , 0.0263
DUKE UNIVERSITY , 0.662003319473711 , 0.6777 , 2.0697 , 0.3464
EMORY UNIVERSITY , 0.441333184921483 , 0.5714 , 0.6909 , 0
FLORIDA INTERNATIONAL UNIVERSITY , 0.340032150681153 , 0.4387 , 0.6305 , 0
FLORIDA STATE UNIVERSITY , 0.361876353972786 , 0.4592 , 0.7554 , 0
FORDHAM UNIVERSITY , 0.713523011111899 , 0.2667 , 0.266 , 0
GEORGE WASHINGTON UNIVERSITY , 0.494780838139195 , 0.3853 , 0.7021 , 0.0756
GEORGETOWN UNIVERSITY , 0.496781419401702 , 0.6115 , 0.9209 , 0
GEORGIA STATE UNIVERSITY , 0.497250096451788 , 0.6364 , 0.7866 , 0
HARVARD UNIVERSITY , 0.801789919629462 , 1.0053 , 2.0353 , 7.2683
HARVARD UNIVERSITY , 1 , 1.1743 , 4.2074 , 9.896
HARVARD UNIVERSITY , 0.319585130738559 , 0.3844 , 5.0674 , 2.4402
INDIANA UNIVERSITY AT BLOOMINGTON , 0.625374540622392 , 0.4049 , 1.0173 , 0
IOWA STATE UNIVERSITY , 0.75721071026303 , 0.9433 , 0.8652 , 0.2417
JOHNS HOPKINS UNIVERSITY , 1 , 0.8254 , 1.0953 , 0
KANSAS STATE UNIVERSITY , 0.515559498511822 , 0.4593 , 0.5159 , 0
LEHIGH UNIVERSITY , 0.158453664319411 , 0.1631 , 0.4086 , 0
LOUISIANA STATE UNIVERSITY AND AGRICULTURAL AND MECHANICAL COLLEGE , 0.406242998525417 , 0.5088 , 0.3353 , 0.1564
MASSACHUSETTS INSTITUTE OF TECHNOLOGY , 1 , 1.2308 , 3.245 , 2.1319
MICHIGAN STATE UNIVERSITY , 0.464588607282324 , 0.4816 , 1.3902 , 0.0566
NEW YORK UNIVERSITY , 0.673594160612502 , 0.7578 , 2.2371 , 0.5407
NORTH CAROLINA STATE UNIVERSITY , 0.522876896899165 , 0.5561 , 0.9027 , 0.3197
NORTHERN ILLINOIS UNIVERSITY , 0.210388226143667 , 0.1833 , 0.2242 , 0.0755
NORTHWESTERN UNIVERSITY , 0.591171464465957 , 0.5274 , 2.3174 , 1.2727
OHIO STATE UNIVERSITY MAIN CAMPUS , 0.50474957221225 , 0.5125 , 1.1302 , 0.0364
OKLAHOMA STATE UNIVERSITY MAIN CAMPUS , 0.455075614613788 , 0.2953 , 0.4691 , 0.3247
OREGON STATE UNIVERSITY , 0.705871054508626 , 0.9386 , 1.2495 , 0.0508
PENN STATE UNIVERSITY , 0.568276728595697 , 0.5874 , 1.5347 , 1.1382
PRINCETON UNIVERSITY , 0.820555777465289 , 1.0149 , 3.0427 , 2.9853
PURDUE UNIVERSITY MAIN CAMPUS , 0.580715026876418 , 0.7174 , 0.9163 , 0.127
RENSSELAER POLYTECHNIC INSTITUTE , 0.576120590671924 , 0.5251 , 0.771 , 1.531
RICE UNIVERSITY , 0.27054555758761 , 0.1923 , 1.18 , 0
RUTGERS THE STATE UNIVERSITY OF NEW JERSEY NEW BRUNSWICK CAMPUS , 0.436203527943536 , 0.5429 , 0.687 , 0.28
SOUTHERN ILLINOIS UNIVERSITY CARBONDALE , 0.626431542860747 , 0.5486 , 0.3878 , 0.4
SOUTHERN METHODIST UNIVERSITY , 0.63624737122309 , 0.8403 , 0.6885 , 0
STANFORD UNIVERSITY , 0.412741458685468 , 0.514 , 4.3815 , 3.1329
STANFORD UNIVERSITY , 0.731230713887617 , 0.5158 , 2.808 , 3.1645
STATE UNIVERSITY OF NEW YORK AT ALBANY , 0.282221896839539 , 0.2757 , 0.3762 , 0
STATE UNIVERSITY OF NEW YORK AT BINGHAMTON , 0.364180430766916 , 0.4416 , 0.862 , 0.122
STATE UNIVERSITY OF NEW YORK AT BUFFALO , 0.178857673557851 , 0.1805 , 1.0797 , 0
STATE UNIVERSITY OF NEW YORK AT STONY BROOK , 0.596264600068314 , 0.6057 , 0.9711 , 0
SYRACUSE UNIVERSITY MAIN CAMPUS , 0.843350489899145 , 1.0674 , 1.0196 , 0
TEMPLE UNIVERSITY , 0.129745107213142 , 0.1463 , 0.4608 , 0
TEXAS A & M UNIVERSITY , 0.5667725274137 , 0.4637 , 0.7092 , 0.1053
UNIVERSITY OF ARIZONA , 0.535694445836406 , 0.6423 , 1.1424 , 0.0975
UNIVERSITY OF CALIFORNIA-BERKELEY , 0.910272526763417 , 0.7927 , 2.8301 , 3.1534
UNIVERSITY OF CALIFORNIA-DAVIS , 0.634637123346224 , 0.7946 , 1.1875 , 0.3742
UNIVERSITY OF CALIFORNIA-IRVINE , 0.475713218729468 , 0.5884 , 1.2522 , 0.7765
UNIVERSITY OF CALIFORNIA-LOS ANGELES , 0.840396869017425 , 0.3448 , 1.6645 , 0.8575
UNIVERSITY OF CALIFORNIA-RIVERSIDE , 0.426833228838878 , 0.4264 , 0.6577 , 0.2505
UNIVERSITY OF CALIFORNIA-SAN DIEGO , 0.522386900192252 , 0.6316 , 2.5837 , 1.5117
UNIVERSITY OF CALIFORNIA-SANTA BARBARA , 0.429766041310218 , 0.5408 , 1.0222 , 0.2298
UNIVERSITY OF CALIFORNIA-SANTA CRUZ , 0.448811295504016 , 0.5485 , 0.8725 , 0.0457
UNIVERSITY OF CHICAGO , 1 , 0.6121 , 3.3354 , 5.5744
UNIVERSITY OF COLORADO AT BOULDER , 0.536666817591903 , 0.6429 , 1.1494 , 0
UNIVERSITY OF CONNECTICUT , 0.452794741820023 , 0.5446 , 0.6648 , 0.2551
UNIVERSITY OF CONNECTICUT , 0.551553038173433 , 0.7164 , 0.5299 , 0.6361
UNIVERSITY OF DELAWARE , 0.324045351287792 , 0.2461 , 0.6106 , 0.4622
UNIVERSITY OF FLORIDA , 0.35830817105173 , 0.3782 , 0.8942 , 0
UNIVERSITY OF GEORGIA , 0.54275558885262 , 0.6829 , 0.6214 , 0.065
UNIVERSITY OF GEORGIA , 0.0864738661272369 , 0.048 , 0.4606 , 0.0371
UNIVERSITY OF HAWAII AT MANOA , 0.360093290556897 , 0.2 , 0.3037 , 0.04
UNIVERSITY OF HOUSTON , 0.455770223476991 , 0.2078 , 1.2102 , 0
UNIVERSITY OF ILLINOIS AT CHICAGO , 0.561465351649782 , 0.7224 , 1.258 , 0.2883
UNIVERSITY OF ILLINOIS AT URBANA-CHAMPAIGN , 0.155568235268259 , 0.1272 , 2.1915 , 0.0346
UNIVERSITY OF ILLINOIS AT URBANA-CHAMPAIGN , 0.62223758738986 , 0.4626 , 0.9341 , 0.1712
UNIVERSITY OF IOWA , 0.41037732197381 , 0.5221 , 1.1719 , 0.0872
UNIVERSITY OF KANSAS , 0.371477121644046 , 0.4188 , 0.5469 , 0
UNIVERSITY OF KENTUCKY , 0.309800748610382 , 0.3692 , 0.9296 , 0
UNIVERSITY OF MARYLAND COLLEGE PARK , 0.946645408268513 , 0.6067 , 1.947 , 0.5241
UNIVERSITY OF MASSACHUSETTS AMHERST , 0.575882231309039 , 0.3337 , 0.5288 , 0.5146
UNIVERSITY OF MICHIGAN-ANN ARBOR , 0.773129670820795 , 0.7215 , 1.8609 , 0.4128
UNIVERSITY OF MINNESOTA-TWIN CITIES , 0.938510923966891 , 0.6509 , 1.409 , 1.0152
UNIVERSITY OF MISSISSIPPI , 0.279205761297151 , 0.3095 , 0.4465 , 0
UNIVERSITY OF MISSOURI - COLUMBIA , 0.793297160493818 , 0.521 , 0.5636 , 0.2941
UNIVERSITY OF MISSOURI - KANSAS CITY , 0.308571428571429 , 0.2449 , 0.1529 , 0
UNIVERSITY OF NEBRASKA - LINCOLN , 0.217630997758232 , 0.2777 , 0.2599 , 0.1075
UNIVERSITY OF NEW HAMPSHIRE , 0.21662465518003 , 0.2681 , 0.3705 , 0
UNIVERSITY OF NEW MEXICO MAIN CAMPUS , 0.474018159590454 , 0.602 , 0.7994 , 0
UNIVERSITY OF NORTH CAROLINA AT CHAPEL HILL , 0.417811114030504 , 0.2776 , 1.0492 , 0.2925
UNIVERSITY OF OKLAHOMA NORMAN CAMPUS , 0.351756357214686 , 0.3187 , 0.5747 , 0
UNIVERSITY OF OREGON , 0.564705143471674 , 0.7208 , 0.6506 , 0.3182
UNIVERSITY OF PENNSYLVANIA , 0.722956185695092 , 0.8649 , 2.2064 , 0.8145
UNIVERSITY OF PITTSBURGH PITTSBURGH CAMPUS , 0.462090759421647 , 0.5875 , 1.3292 , 0.4142
UNIVERSITY OF ROCHESTER , 0.870846030511472 , 0.3932 , 1.4384 , 2.0067
UNIVERSITY OF SOUTH CAROLINA COLUMBIA , 0.41102029417268 , 0.4699 , 0.8199 , 0
UNIVERSITY OF SOUTHERN CALIFORNIA , 0.463871636744214 , 0.5886 , 2.3886 , 0
UNIVERSITY OF SOUTHERN CALIFORNIA , 0.521052251886314 , 0.6616 , 1.2291 , 0.2013
UNIVERSITY OF TENNESSEE , 0.384739409265086 , 0.4825 , 0.3799 , 0.0086
UNIVERSITY OF TEXAS AT AUSTIN , 0.700087371091569 , 0.4441 , 1.1557 , 0.0559
UNIVERSITY OF UTAH , 0.465712490553314 , 0.1464 , 0.296 , 0.125
UNIVERSITY OF VIRGINIA , 0.534034830340886 , 0.5394 , 1.2295 , 0
UNIVERSITY OF WASHINGTON , 0.502465915419224 , 0.4479 , 1.451 , 0.0063
UNIVERSITY OF WISCONSIN-MADISON , 0.868645992510465 , 0.7431 , 2.0706 , 0.5495
UNIVERSITY OF WISCONSIN-MILWAUKEE , 0.483620756511743 , 0.5065 , 0.3246 , 0.2273
UNIVERSITY OF WYOMING , 1 , 1.3571 , 0.9577 , 0.1875
UTAH STATE UNIVERSITY , 0.274450150405162 , 0.3025 , 0.5002 , 0.0588
VANDERBILT UNIVERSITY , 0.520360705428458 , 0.655 , 0.6649 , 0.2837
WASHINGTON STATE UNIVERSITY , 0.386687101335818 , 0.4313 , 0.4556 , 0
WASHINGTON UNIVERSITY IN ST. LOUIS , 0.591423684821361 , 0.738 , 1.9022 , 1.424
WAYNE STATE UNIVERSITY , 0.54 , 0.4143 , 0.7424 , 0
WESTERN MICHIGAN UNIVERSITY , 0.313565833152088 , 0.2537 , 0.392 , 0.6285
YALE UNIVERSITY , 0.887143738182206 , 0.6067 , 1.6762 , 3.0819
