Institutions , DEA , Average Publications Per Faculty , Average Citations Per Publication, Average Awards per Faculty
ARIZONA STATE UNIVERSITY , 1 , 2.2433 , 0.976 , 0.6095
AUBURN UNIVERSITY , 0.526315789473684 , 0.7209 , 0.9412 , 0.1077
BOSTON UNIVERSITY , 0.833333333333333 , 1.6672 , 1.5788 , 0.7526
BROWN UNIVERSITY , 1 , 0.9656 , 2.0487 , 0.5463
CALIFORNIA INSTITUTE OF TECHNOLOGY , 1 , 2.8793 , 2.0635 , 4.0579
CARNEGIE MELLON UNIVERSITY , 1 , 1.3562 , 0.9256 , 0.9709
CASE WESTERN RESERVE UNIVERSITY , 1 , 1.8197 , 2.6091 , 0.1232
CATHOLIC UNIVERSITY OF AMERICA , 0.55 , 0.1607 , 2.5813 , 0
CITY UNIVERSITY OF NEW YORK GRAD. CENTER , 1 , 0.9666 , 1.8826 , 0.1014
CLARKSON UNIVERSITY , 1 , 0.7366 , 0.8099 , 0
CLEMSON UNIVERSITY , 0.6875 , 1.1629 , 0.5739 , 0.0088
CLEVELAND STATE UNIVERSITY , 1 , 0.2355 , 0.4021 , 0
COLORADO STATE UNIVERSITY , 1 , 0.9624 , 1.5212 , 0.1579
COLUMBIA UNIVERSITY IN THE CITY OF NEW YORK , 1 , 1.9106 , 1.2389 , 0.7755
CORNELL UNIVERSITY , 1 , 1.5633 , 1.624 , 0.6076
DREXEL UNIVERSITY , 0.508617165644752 , 0.736 , 0.9207 , 0.5058
DUKE UNIVERSITY , 1 , 1.811 , 1.7233 , 0.194
FLORIDA ATLANTIC UNIVERSITY , 1 , 0.1502 , 0.6828 , 0
FLORIDA INTERNATIONAL UNIVERSITY , 0.926183383349931 , 0.5084 , 0.3167 , 0
GEORGE WASHINGTON UNIVERSITY , 0.474690138025845 , 0.7059 , 1.4073 , 0
GEORGIA INSTITUTE OF TECHNOLOGY , 1 , 1.9987 , 1.2817 , 0.6022
HARVARD UNIVERSITY , 1 , 2.2598 , 4.1788 , 4.6871
HOWARD UNIVERSITY , 0.462507470768851 , 0.3429 , 0.5412 , 0
ILLINOIS INSTITUTE OF TECHNOLOGY , 0.761194029850746 , 0.7755 , 1.0595 , 0
IOWA STATE UNIVERSITY , 0.985915492957746 , 1.7321 , 1.4743 , 0
JOHNS HOPKINS UNIVERSITY , 1 , 2.5022 , 1.2232 , 1.7053
KANSAS STATE UNIVERSITY , 0.363636363636364 , 0.5658 , 0.5916 , 0
LEHIGH UNIVERSITY , 0.5 , 0.7666 , 0.9206 , 0.5401
LOUISIANA STATE UNIVERSITY AND AGRICULTURAL AND MECHANICAL COLLEGE , 0.333333333333333 , 0.8192 , 0.6766 , 0.0239
MARQUETTE UNIVERSITY , 1 , 1.022 , 1.0671 , 0.4615
MASSACHUSETTS INSTITUTE OF TECHNOLOGY , 1 , 1.9806 , 2.2968 , 2.1388
MICHIGAN STATE UNIVERSITY , 0.873814040865186 , 1.17 , 1.1412 , 0.0763
MICHIGAN TECHNOLOGICAL UNIVERSITY , 0.282608695652174 , 0.4525 , 0.6449 , 0.0742
MISSISSIPPI STATE UNIVERSITY , 0.270833333333333 , 0.5846 , 0.3785 , 0.0105
NEW JERSEY INSTITUTE OF TECHNOLOGY , 1 , 1.4968 , 0.8817 , 0.0545
NEW MEXICO STATE UNIVERSITY MAIN CAMPUS , 1 , 0.7313 , 1.0677 , 0.0584
NORTH CAROLINA STATE UNIVERSITY , 1 , 1.117 , 1.0503 , 0.6756
NORTHEASTERN UNIVERSITY , 0.940429107925132 , 0.8546 , 0.8434 , 0
NORTHWESTERN UNIVERSITY , 1 , 2.2326 , 1.721 , 0.2427
OHIO STATE UNIVERSITY MAIN CAMPUS , 0.811188811188811 , 1.8145 , 0.807 , 0.0284
OHIO UNIVERSITY MAIN CAMPUS , 0.342105263157895 , 0.2524 , 0.7804 , 0
OKLAHOMA STATE UNIVERSITY MAIN CAMPUS , 0.914285714285714 , 0.3388 , 1.2041 , 0.1263
OLD DOMINION UNIVERSITY , 1 , 0.5677 , 0.9359 , 0.399
OREGON HEALTH AND SCIENCE UNIVERSITY , 1 , 0.4672 , 0.2404 , 0
OREGON STATE UNIVERSITY , 0.75 , 1.0759 , 0.7583 , 0.0435
PENN STATE UNIVERSITY , 0.713286713286713 , 2.3472 , 1.4114 , 0.3582
PRINCETON UNIVERSITY , 1 , 4.0936 , 1.9491 , 4.7179
PURDUE UNIVERSITY MAIN CAMPUS , 0.767067262240278 , 2.0153 , 1.4265 , 0.5198
RENSSELAER POLYTECHNIC INSTITUTE , 1 , 2.207 , 1.2478 , 0.3114
RENSSELAER POLYTECHNIC INSTITUTE , 1 , 1.0389 , 0.4881 , 1.1352
RICE UNIVERSITY , 1 , 1.3738 , 1.7336 , 0.1558
RUTGERS THE STATE UNIVERSITY OF NEW JERSEY NEW BRUNSWICK CAMPUS , 0.9375 , 1.1882 , 1.0975 , 0.4964
SOUTHERN ILLINOIS UNIVERSITY CARBONDALE , 1 , 0.7185 , 0.4118 , 0
SOUTHERN METHODIST UNIVERSITY , 0.609599420721041 , 0.8644 , 1.2821 , 0.0516
STANFORD UNIVERSITY , 1 , 3.1715 , 2.5705 , 4.3213
STATE UNIVERSITY OF NEW YORK AT BINGHAMTON , 0.8125 , 0.3641 , 0.5612 , 0
STATE UNIVERSITY OF NEW YORK AT BUFFALO , 0.604166666666667 , 1.5312 , 0.6543 , 0.1209
STATE UNIVERSITY OF NEW YORK AT STONY BROOK , 1 , 1.3068 , 1.3868 , 0
SYRACUSE UNIVERSITY MAIN CAMPUS , 1 , 1.084 , 0.8236 , 0.0551
TEXAS A & M UNIVERSITY , 1 , 1.7287 , 1.253 , 0.2346
TEXAS A & M UNIVERSITY , 0.636363636363636 , 1.2509 , 1.4338 , 0
TEXAS TECH UNIVERSITY , 1 , 1.1492 , 1.5118 , 0
TUFTS UNIVERSITY , 1 , 0.6644 , 1.5818 , 0
UNIVERSITY OF AKRON , 1 , 0.8986 , 0.5289 , 0
UNIVERSITY OF ALABAMA , 1 , 0.5997 , 0.2331 , 0
UNIVERSITY OF ALABAMA IN HUNTSVILLE , 1 , 0.5508 , 0.6257 , 0
UNIVERSITY OF ARIZONA , 0.974588163530175 , 1.4785 , 1.0963 , 0.0067
UNIVERSITY OF ARKANSAS MAIN CAMPUS , 1 , 1.9693 , 1.2442 , 0.2248
UNIVERSITY OF ARKANSAS MAIN CAMPUS , 1 , 0.5552 , 0.5223 , 0.3358
UNIVERSITY OF CALIFORNIA-BERKELEY , 1 , 1.8052 , 1.4826 , 3.5908
UNIVERSITY OF CALIFORNIA-DAVIS , 0.815789473684211 , 1.0356 , 1.1973 , 0.0376
UNIVERSITY OF CALIFORNIA-IRVINE , 0.828947368421053 , 1.1082 , 1.573 , 0
UNIVERSITY OF CALIFORNIA-LOS ANGELES , 1 , 2.5481 , 1.9709 , 0.7009
UNIVERSITY OF CALIFORNIA-RIVERSIDE , 0.636363636363636 , 1.9704 , 1.8047 , 0
UNIVERSITY OF CALIFORNIA-SAN DIEGO , 0.916083916083916 , 2.3455 , 1.2958 , 0.61
UNIVERSITY OF CALIFORNIA-SANTA BARBARA , 1 , 4.219 , 1.7721 , 2.0404
UNIVERSITY OF CALIFORNIA-SANTA CRUZ , 1 , 1.9849 , 1.6523 , 0.2269
UNIVERSITY OF CENTRAL FLORIDA , 1 , 1.2579 , 0.773 , 0.3661
UNIVERSITY OF CENTRAL FLORIDA , 1 , 3.3122 , 2.3726 , 0.1356
UNIVERSITY OF CENTRAL FLORIDA , 1 , 0.4389 , 0.2827 , 0.1128
UNIVERSITY OF CINCINNATI MAIN CAMPUS , 0.815789473684211 , 1.2357 , 0.8535 , 0.2152
UNIVERSITY OF COLORADO AT BOULDER , 1 , 1.0123 , 0.9508 , 0.2357
UNIVERSITY OF CONNECTICUT , 0.729166666666667 , 2.0016 , 0.9598 , 0.6754
UNIVERSITY OF DAYTON , 1 , 1.9598 , 1.6341 , 0
UNIVERSITY OF DAYTON , 0.96 , 0.6125 , 0.7272 , 0
UNIVERSITY OF DELAWARE , 0.677044418514141 , 1.3597 , 0.8949 , 0
UNIVERSITY OF FLORIDA , 0.875 , 1.2601 , 0.8871 , 0.2348
UNIVERSITY OF HAWAII AT MANOA , 0.488121401564712 , 0.4021 , 0.9311 , 0.0741
UNIVERSITY OF HOUSTON , 0.849056603773585 , 0.9592 , 1.7457 , 0.0202
UNIVERSITY OF IDAHO , 0.152173913043478 , 0.3254 , 0.6167 , 0.0672
UNIVERSITY OF ILLINOIS AT CHICAGO , 0.6875 , 1.3578 , 1.0582 , 0
UNIVERSITY OF ILLINOIS AT URBANA-CHAMPAIGN , 1 , 2.5343 , 1.3341 , 1.6181
UNIVERSITY OF IOWA , 1 , 1.9119 , 1.3453 , 0.1528
UNIVERSITY OF KANSAS , 0.446073900316715 , 0.4641 , 0.978 , 0
UNIVERSITY OF KENTUCKY , 0.479166666666667 , 1.0084 , 1.3708 , 0.2692
UNIVERSITY OF LOUISVILLE , 0.620317799609046 , 0.546 , 0.9485 , 0.0354
UNIVERSITY OF MARYLAND BALTIMORE COUNTY , 1 , 1.5459 , 1.3873 , 0
UNIVERSITY OF MARYLAND COLLEGE PARK , 1 , 1.7678 , 1.0001 , 0.5621
UNIVERSITY OF MASSACHUSETTS AMHERST , 0.552631578947368 , 0.8718 , 1.1493 , 0.0403
UNIVERSITY OF MIAMI , 0.424242424242424 , 0.6544 , 0.7839 , 0
UNIVERSITY OF MICHIGAN-ANN ARBOR , 1 , 2.751 , 1.3984 , 1.4704
UNIVERSITY OF MINNESOTA-TWIN CITIES , 1 , 1.9154 , 1.4248 , 0.1803
UNIVERSITY OF MISSISSIPPI , 1 , 0.8214 , 1.5328 , 0.4167
UNIVERSITY OF MISSOURI - COLUMBIA , 0.367647058823529 , 0.4074 , 0.7342 , 0
UNIVERSITY OF MISSOURI - ROLLA , 0.652144832557968 , 0.8066 , 0.6637 , 0
UNIVERSITY OF NEBRASKA - LINCOLN , 0.391304347826087 , 0.541 , 0.8687 , 0
UNIVERSITY OF NEVADA RENO , 1 , 0.3968 , 0.5037 , 1.1111
UNIVERSITY OF NEW HAMPSHIRE , 0.151515151515152 , 0.1212 , 1.0622 , 0.0693
UNIVERSITY OF NEW MEXICO MAIN CAMPUS , 1 , 1.3084 , 1.2054 , 0
UNIVERSITY OF NORTH CAROLINA AT CHARLOTTE , 0.784274982700686 , 0.7461 , 0.9162 , 0.0368
UNIVERSITY OF NOTRE DAME , 0.41958041958042 , 1.3667 , 1.1638 , 0.2713
UNIVERSITY OF OKLAHOMA NORMAN CAMPUS , 0.4375 , 0.7595 , 0.8226 , 0.0821
UNIVERSITY OF PENNSYLVANIA , 0.5 , 1.095 , 1.366 , 0.3152
UNIVERSITY OF PITTSBURGH PITTSBURGH CAMPUS , 0.529574230311225 , 0.6775 , 0.9695 , 0.8616
UNIVERSITY OF ROCHESTER , 1 , 1.4724 , 1.1657 , 0.2365
UNIVERSITY OF SOUTH CAROLINA COLUMBIA , 1 , 4.449 , 2.2119 , 0
UNIVERSITY OF SOUTH FLORIDA , 0.509681741299887 , 0.6369 , 0.837 , 0.0892
UNIVERSITY OF SOUTHERN CALIFORNIA , 1 , 1.2985 , 1.4745 , 0.4138
UNIVERSITY OF TENNESSEE , 0.328947368421053 , 0.6194 , 1.1585 , 0.0019
UNIVERSITY OF TEXAS AT AUSTIN , 1 , 1.8812 , 1.3539 , 0.7322
UNIVERSITY OF TEXAS AT DALLAS , 0.986842105263158 , 0.78 , 1.108 , 0.1748
UNIVERSITY OF TOLEDO , 1 , 0.742 , 0.4095 , 0
UNIVERSITY OF UTAH , 0.440416825217389 , 0.9247 , 1.8473 , 0.3512
UNIVERSITY OF VIRGINIA , 1 , 1.6825 , 1.1313 , 0.3858
UNIVERSITY OF WASHINGTON , 0.62200956937799 , 0.9296 , 1.7023 , 0.1477
UNIVERSITY OF WISCONSIN-MADISON , 1 , 1.6251 , 1.0379 , 0.2414
UNIVERSITY OF WYOMING , 0.6 , 0.2902 , 0.6148 , 0
UTAH STATE UNIVERSITY , 0.134328358208955 , 0.1653 , 0.7978 , 0
VANDERBILT UNIVERSITY , 0.854166666666667 , 2.1344 , 1.1488 , 0.1012
VIRGINIA COMMONWEALTH UNIVERSITY , 0.904441569078014 , 1.5826 , 1.1558 , 0
VIRGINIA POLYTECHNIC INSTITUTE AND STATE UNIVERSITY , 0.737373737373737 , 0.8893 , 0.8389 , 0.2416
WASHINGTON STATE UNIVERSITY , 0.68259960873289 , 0.9159 , 0.8607 , 0.6116
WASHINGTON UNIVERSITY IN ST. LOUIS , 0.739130434782609 , 1.2005 , 1.2276 , 0.2095
WAYNE STATE UNIVERSITY , 1 , 1.0102 , 1.06 , 0.0378
WAYNE STATE UNIVERSITY , 0.764763339764872 , 0.8679 , 0.8738 , 0
YALE UNIVERSITY , 1 , 1.8977 , 2.2748 , 0.8784
