Institutions , DEA , Average Publications Per Faculty , Average Citations Per Publication, Average Awards per Faculty
AMERICAN UNIVERSITY , 0.9375 , 7.5556 , NA , 0.0769
ARIZONA STATE UNIVERSITY , 1 , 18.1007 , NA , 2.2676
AUBURN UNIVERSITY , 0.889741197067829 , 8.4286 , NA , 0.16
BOSTON COLLEGE , 0.747674055401681 , 8.5253 , NA , 1.3808
BOSTON UNIVERSITY , 1 , 8.6852 , NA , 2.3542
BOWLING GREEN STATE UNIVERSITY , 1 , 7.258 , NA , 0.6205
BRANDEIS UNIVERSITY , 1 , 8.8206 , NA , 4.9841
BRANDEIS UNIVERSITY , 1 , 15.7602 , NA , 6.2929
BROWN UNIVERSITY , 1 , 15.8636 , NA , 3.5609
CARNEGIE MELLON UNIVERSITY , 0.909090909090909 , 13.3153 , NA , 2.1288
CASE WESTERN RESERVE UNIVERSITY , 1 , 10.25 , NA , 1.7231
CATHOLIC UNIVERSITY OF AMERICA , 0.6875 , 7.7802 , NA , 1.0914
CITY UNIVERSITY OF NEW YORK GRAD. CENTER , 1 , 15.0648 , NA , 2.8807
CLAREMONT GRADUATE UNIVERSITY , 1 , 5.3107 , NA , 0.8904
CLARK UNIVERSITY , 1 , 10.7778 , NA , 0.6087
COLLEGE OF WILLIAM AND MARY , 0.759533652681088 , 8.1116 , NA , 1.8023
COLUMBIA UNIVERSITY IN THE CITY OF NEW YORK , 1 , 14.6386 , NA , 8.0123
CORNELL UNIVERSITY , 0.596153846153846 , 7.4282 , NA , 3.9213
DUKE UNIVERSITY , 0.807692307692308 , 10.4306 , NA , 5.4158
EMORY UNIVERSITY , 1 , 11.3853 , NA , 1.9939
FLORIDA INTERNATIONAL UNIVERSITY , 1 , 10.4444 , NA , 0.8108
FLORIDA STATE UNIVERSITY , 1 , 7.9091 , NA , 0.4643
FORDHAM UNIVERSITY , 0.679875083374758 , 9.0151 , NA , 0.8644
GEORGE WASHINGTON UNIVERSITY , 1 , 11.5714 , NA , 2.0713
GEORGETOWN UNIVERSITY , 0.942307692307692 , 12.2305 , NA , 2.0064
GEORGIA INSTITUTE OF TECHNOLOGY , 1 , 10.3333 , NA , 0.2162
GEORGIA STATE UNIVERSITY , 0.864697505668934 , 7.3333 , NA , 0.3846
HARVARD UNIVERSITY , 1 , 19.6207 , NA , 6.577
HARVARD UNIVERSITY , 1 , 13.4306 , NA , 5.4405
HARVARD UNIVERSITY , 1 , 20.1119 , NA , 11.3555
HOWARD UNIVERSITY , 1 , 9 , NA , 2.3125
INDIANA UNIVERSITY AT BLOOMINGTON , 1 , 8.1916 , NA , 2.7564
INDIANA UNIVERSITY AT BLOOMINGTON , 1 , 12.7521 , NA , 1.6143
IOWA STATE UNIVERSITY , 1 , 6.8983 , NA , 0.1697
IOWA STATE UNIVERSITY , 1 , 7.753 , NA , 0.1305
JOHNS HOPKINS UNIVERSITY , 1 , 16.0882 , NA , 9.7283
JOHNS HOPKINS UNIVERSITY , 1 , 12.1591 , NA , 1.8248
KANSAS STATE UNIVERSITY , 0.6875 , 6.3636 , NA , 0.65
LEHIGH UNIVERSITY , 0.80690180092333 , 5.7143 , NA , 0.4615
LOUISIANA STATE UNIVERSITY AND AGRICULTURAL AND MECHANICAL COLLEGE , 0.91304347826087 , 6.2197 , NA , 1.5151
LOYOLA UNIVERSITY CHICAGO , 0.927151111103457 , 11.5882 , NA , 3.1852
MARQUETTE UNIVERSITY , 1 , 12.4615 , NA , 0.125
MIAMI UNIVERSITY , 1 , 23.3333 , NA , 0.9142
MICHIGAN STATE UNIVERSITY , 1 , 7.1426 , NA , 1.1092
MISSISSIPPI STATE UNIVERSITY , 0.865539901874739 , 11.4545 , NA , 0
NEW YORK UNIVERSITY , 1 , 16.6958 , NA , 4.4987
NORTHEASTERN UNIVERSITY , 0.825609466326459 , 11.4545 , NA , 0.6123
NORTHERN ILLINOIS UNIVERSITY , 1 , 7.6667 , NA , 1.1154
NORTHWESTERN UNIVERSITY , 0.769230769230769 , 7.2718 , NA , 7.4659
OHIO STATE UNIVERSITY MAIN CAMPUS , 0.995381580643736 , 9.3429 , NA , 3.8187
OHIO UNIVERSITY MAIN CAMPUS , 0.575757575757576 , 5.9846 , NA , 0.0371
OKLAHOMA STATE UNIVERSITY MAIN CAMPUS , 1 , 8.4 , NA , 0.0488
PENN STATE UNIVERSITY , 0.697536539193367 , 12.0391 , NA , 3.8013
PRINCETON UNIVERSITY , 1 , 21.4631 , NA , 12.3119
PRINCETON UNIVERSITY , 1 , 13.0727 , NA , 12.6165
PURDUE UNIVERSITY MAIN CAMPUS , 0.689655172413793 , 8.6302 , NA , 1.357
RICE UNIVERSITY , 1 , 20.2404 , NA , 2.2267
RUTGERS THE STATE UNIVERSITY OF NEW JERSEY NEW BRUNSWICK CAMPUS , 1 , 16.1738 , NA , 2.651
SOUTHERN ILLINOIS UNIVERSITY CARBONDALE , 1 , 15.4436 , NA , 0.4577
SOUTHERN METHODIST UNIVERSITY , 0.815760803716673 , 11.4615 , NA , 0.9767
STANFORD UNIVERSITY , 1 , 12.837 , NA , 7.84
STATE UNIVERSITY OF NEW YORK AT ALBANY , 0.956521739130435 , 5.6658 , NA , 1.3504
STATE UNIVERSITY OF NEW YORK AT BINGHAMTON , 1 , 12.5951 , NA , 2.9939
STATE UNIVERSITY OF NEW YORK AT BUFFALO , 0.848484848484849 , 8.1519 , NA , 1.6042
STATE UNIVERSITY OF NEW YORK AT STONY BROOK , 0.918918918918919 , 4.7172 , NA , 1.9805
SYRACUSE UNIVERSITY MAIN CAMPUS , 0.65 , 9.3445 , NA , 2.4499
TEMPLE UNIVERSITY , 0.876463704943867 , 8.5862 , NA , 0.7143
TEXAS A & M UNIVERSITY , 0.948956867561521 , 9.9706 , NA , 0.6737
TEXAS CHRISTIAN UNIVERSITY , 0.555555555555556 , 0 , NA , 0
TUFTS UNIVERSITY , 0.941115369860045 , 14.6667 , NA , 1.0873
TULANE UNIVERSITY , 1 , 10.2143 , NA , 0.3333
UNIVERSITY OF ALABAMA , 1 , 9.0625 , NA , 0.65
UNIVERSITY OF ARIZONA , 0.869565217391304 , 9.4549 , NA , 2.6356
UNIVERSITY OF ARKANSAS MAIN CAMPUS , 1 , 15.6297 , NA , 0.8749
UNIVERSITY OF CALIFORNIA-BERKELEY , 1 , 9.6837 , NA , 6.0446
UNIVERSITY OF CALIFORNIA-DAVIS , 0.716236639044544 , 8.0511 , NA , 2.8152
UNIVERSITY OF CALIFORNIA-IRVINE , 0.791038808713955 , 13.8622 , NA , 2.9212
UNIVERSITY OF CALIFORNIA-LOS ANGELES , 1 , 12.2798 , NA , 3.8904
UNIVERSITY OF CALIFORNIA-RIVERSIDE , 1 , 9.6154 , NA , 1.9951
UNIVERSITY OF CALIFORNIA-SAN DIEGO , 0.95 , 9.0287 , NA , 1.7326
UNIVERSITY OF CALIFORNIA-SANTA BARBARA , 1 , 22.7232 , NA , 2.2174
UNIVERSITY OF CALIFORNIA-SANTA CRUZ , 1 , 15.4937 , NA , 1.134
UNIVERSITY OF CHICAGO , 1 , 19.831 , NA , 10.7097
UNIVERSITY OF CINCINNATI MAIN CAMPUS , 1 , 13.5 , NA , 0.4
UNIVERSITY OF COLORADO AT BOULDER , 0.894268422260124 , 9.7495 , NA , 2.2862
UNIVERSITY OF CONNECTICUT , 0.735319440618574 , 7.5477 , NA , 3.4597
UNIVERSITY OF DELAWARE , 0.575757575757576 , 6.7043 , NA , 2.1026
UNIVERSITY OF FLORIDA , 0.854068718608483 , 13.6393 , NA , 1.8588
UNIVERSITY OF GEORGIA , 1 , 18.9573 , NA , 1.6638
UNIVERSITY OF HAWAII AT MANOA , 1 , 12.1 , NA , 0.4
UNIVERSITY OF IDAHO , 1 , 8.3333 , NA , 0.1951
UNIVERSITY OF ILLINOIS AT CHICAGO , 0.8 , 8.0873 , NA , 2.0259
UNIVERSITY OF ILLINOIS AT URBANA-CHAMPAIGN , 1 , 10.515 , NA , 3.0123
UNIVERSITY OF IOWA , 0.8 , 5.6176 , NA , 4.9389
UNIVERSITY OF KANSAS , 1 , 12.4591 , NA , 1.806
UNIVERSITY OF KENTUCKY , 1 , 15.2364 , NA , 2.9465
UNIVERSITY OF MARYLAND COLLEGE PARK , 0.711538461538462 , 7.833 , NA , 2.8836
UNIVERSITY OF MASSACHUSETTS AMHERST , 0.472222222222222 , 6.7692 , NA , 1.9378
UNIVERSITY OF MEMPHIS , 1 , 13.5714 , NA , 0.1887
UNIVERSITY OF MIAMI , 1 , 6.1579 , NA , 2.9276
UNIVERSITY OF MICHIGAN-ANN ARBOR , 1 , 11.2543 , NA , 7.908
UNIVERSITY OF MINNESOTA-TWIN CITIES , 0.827567633016683 , 10.0109 , NA , 1.9865
UNIVERSITY OF MINNESOTA-TWIN CITIES , 1 , 9.9576 , NA , 0.7568
UNIVERSITY OF MISSISSIPPI , 1 , 9 , NA , 0.2041
UNIVERSITY OF MISSOURI - COLUMBIA , 1 , 6.9048 , NA , 1
UNIVERSITY OF NEBRASKA - LINCOLN , 1 , 10.6639 , NA , 0.6501
UNIVERSITY OF NEW HAMPSHIRE , 1 , 11.456 , NA , 1.8849
UNIVERSITY OF NEW MEXICO MAIN CAMPUS , 1 , 15.125 , NA , 0.2989
UNIVERSITY OF NORTH CAROLINA AT CHAPEL HILL , 1 , 14.0068 , NA , 6.9575
UNIVERSITY OF NORTH TEXAS , 0.934730635190137 , 6.625 , NA , 0.25
UNIVERSITY OF NOTRE DAME , 1 , 15.514 , NA , 3.3524
UNIVERSITY OF OKLAHOMA NORMAN CAMPUS , 1 , 7.6055 , NA , 2.261
UNIVERSITY OF OKLAHOMA NORMAN CAMPUS , 0.773053461498492 , 9.2752 , NA , 0.857
UNIVERSITY OF OREGON , 1 , 8.9375 , NA , 2.2
UNIVERSITY OF PENNSYLVANIA , 1 , 20.0722 , NA , 4.6061
UNIVERSITY OF PITTSBURGH PITTSBURGH CAMPUS , 1 , 12.3629 , NA , 1.8408
UNIVERSITY OF ROCHESTER , 1 , 20.3077 , NA , 3.7101
UNIVERSITY OF SOUTH CAROLINA COLUMBIA , 1 , 10.8682 , NA , 2.3659
UNIVERSITY OF SOUTHERN CALIFORNIA , 0.698148599100966 , 9.5471 , NA , 0.7246
UNIVERSITY OF SOUTHERN MISSISSIPPI , 0.982923263888889 , 6.5833 , NA , 0.2326
UNIVERSITY OF TENNESSEE , 0.714238619886846 , 8.334 , NA , 1.2078
UNIVERSITY OF TEXAS AT AUSTIN , 0.559975204615328 , 6.6684 , NA , 3.5927
UNIVERSITY OF TEXAS AT DALLAS , 1 , 16.3636 , NA , 0.5833
UNIVERSITY OF TOLEDO , 0.920833333333333 , 7.8 , NA , 0.4118
UNIVERSITY OF UTAH , 0.681818181818182 , 10.6748 , NA , 0.4795
UNIVERSITY OF VIRGINIA , 1 , 8.5556 , NA , 2.3895
UNIVERSITY OF WASHINGTON , 1 , 17.9751 , NA , 0.499
UNIVERSITY OF WISCONSIN-MADISON , 1 , 12.515 , NA , 5.1269
UNIVERSITY OF WISCONSIN-MADISON , 1 , 11.0794 , NA , 2.2647
VANDERBILT UNIVERSITY , 0.728879841460866 , 8.0957 , NA , 3.9799
WASHINGTON STATE UNIVERSITY , 1 , 7.2251 , NA , 0.2162
WASHINGTON UNIVERSITY IN ST. LOUIS , 0.595404736279315 , 8.0136 , NA , 1.3109
WAYNE STATE UNIVERSITY , 1 , 14.3846 , NA , 1.1667
WESTERN MICHIGAN UNIVERSITY , 1 , 8.251 , NA , 0.4085
YALE UNIVERSITY , 1 , 12.289 , NA , 8.4321
YALE UNIVERSITY , 1 , 15.4437 , NA , 11.2532
YALE UNIVERSITY , 0.982321577364728 , 11.6584 , NA , 6.1162
