Institutions , DEA , Average Publications Per Faculty , Average Citations Per Publication, Average Awards per Faculty
ARIZONA STATE UNIVERSITY , 0.444601331602966 , 3.3314 , 2.0147 , 0.4023
AUBURN UNIVERSITY , 0.337659102256088 , 2.9575 , 1.1872 , 0.5405
BAYLOR UNIVERSITY , 0.298968479767877 , 2.6837 , 2.4473 , 0.0714
BOSTON COLLEGE , 0.377931652337651 , 3.3418 , 4.3471 , 0.0663
BOSTON UNIVERSITY , 0.595783743164473 , 4.2108 , 3.9398 , 1.7256
BRANDEIS UNIVERSITY , 0.582173515946707 , 5.1829 , 2.9886 , 2.4221
BRIGHAM YOUNG UNIVERSITY , 0.109762274303725 , 0.7932 , 1.2009 , 1.169
BROWN UNIVERSITY , 0.436062200369919 , 3.5902 , 3.0434 , 0.6781
CALIFORNIA INSTITUTE OF TECHNOLOGY , 0.887896528972101 , 5.0505 , 3.1973 , 8.6896
CALIFORNIA INSTITUTE OF TECHNOLOGY , 0.79606461833839 , 4.5842 , 2.092 , 9.8398
CARNEGIE MELLON UNIVERSITY , 0.945707165181544 , 7.5715 , 2.6407 , 0.3702
CASE WESTERN RESERVE UNIVERSITY , 0.373627289738658 , 2.2321 , 1.8328 , 1.6435
CATHOLIC UNIVERSITY OF AMERICA , 0.325433058826099 , 2.9796 , 2.8254 , 0
CITY UNIVERSITY OF NEW YORK GRAD. CENTER , 0.325801037481664 , 1.9379 , 1.7428 , 0.4078
CLARK UNIVERSITY , 0.509026129756165 , 2.0238 , 1.3751 , 0
CLEMSON UNIVERSITY , 0.363546368317042 , 2.5268 , 2.6893 , 0.4292
COLLEGE OF WILLIAM AND MARY , 0.572512108784284 , 0.9933 , 0.9148 , 0
COLLEGE OF WILLIAM AND MARY , 0.367553043828966 , 2.4833 , 2.9295 , 0.0272
COLORADO STATE UNIVERSITY , 0.486668565084318 , 3.2778 , 1.6684 , 2.0556
COLUMBIA UNIVERSITY IN THE CITY OF NEW YORK , 0.814543864237694 , 5.4808 , 2.8322 , 3.7883
CORNELL UNIVERSITY , 0.888888300421783 , 5.8458 , 2.853 , 2.9882
DARTMOUTH COLLEGE , 0.26039951669465 , 1.9468 , 2.5463 , 0.1628
DREXEL UNIVERSITY , 0.258310743591812 , 1.9129 , 4.6651 , 0
DUKE UNIVERSITY , 0.736953749641285 , 5.7296 , 3.0831 , 0.4369
FLORIDA ATLANTIC UNIVERSITY , 0.512491569310639 , 1.2107 , 1.3143 , 0
FLORIDA INTERNATIONAL UNIVERSITY , 0.267926512720243 , 2.2922 , 3.715 , 0
FLORIDA STATE UNIVERSITY , 0.694394000384824 , 4.8349 , 1.9171 , 0.1556
GEORGE WASHINGTON UNIVERSITY , 0.428747370087208 , 3.8667 , 2.256 , 0.3534
GEORGIA INSTITUTE OF TECHNOLOGY , 0.568264731194301 , 2.3671 , 3.1911 , 1.6789
GEORGIA STATE UNIVERSITY , 0.313583115762504 , 2.7743 , 2.2332 , 0.4248
HARVARD UNIVERSITY , 0.483748452054858 , 3.814 , 3.3461 , 14.9717
HARVARD UNIVERSITY , 1 , 6.0932 , 3.5156 , 10.9773
ILLINOIS INSTITUTE OF TECHNOLOGY , 0.232660816706849 , 1.4155 , 1.6877 , 0
INDIANA UNIVERSITY AT BLOOMINGTON , 0.592989173789593 , 4.3042 , 2.2155 , 0.2988
IOWA STATE UNIVERSITY , 0.921861539338224 , 6.9034 , 2.8338 , 0.3116
JOHNS HOPKINS UNIVERSITY , 0.850742331132492 , 7.0889 , 2.9435 , 1.7386
KANSAS STATE UNIVERSITY , 0.687997346720633 , 5.4698 , 1.8418 , 0
LEHIGH UNIVERSITY , 0.36223404486615 , 1.6239 , 0.9556 , 0
LOUISIANA STATE UNIVERSITY AND AGRICULTURAL AND MECHANICAL COLLEGE , 0.390238833974017 , 2.8732 , 2.1066 , 0.478
MASSACHUSETTS INSTITUTE OF TECHNOLOGY , 1 , 6.5012 , 3.1053 , 3.6433
MICHIGAN STATE UNIVERSITY , 0.869663232510681 , 5.9636 , 2.7054 , 0.2473
MICHIGAN TECHNOLOGICAL UNIVERSITY , 0.205193379776528 , 1.5576 , 1.2786 , 0.0364
MONTANA STATE UNIVERSITY - BOZEMAN , 0.28943808792645 , 2.0336 , 1.5969 , 0.3922
NEW JERSEY INSTITUTE OF TECHNOLOGY , 0.247980016037507 , 0.8554 , 1.4616 , 0
NEW MEXICO STATE UNIVERSITY MAIN CAMPUS , 0.408758682061878 , 2.9343 , 3.6501 , 0.0421
NEW YORK UNIVERSITY , 0.442852771973783 , 2.9582 , 3.6513 , 1.5019
NORTH CAROLINA STATE UNIVERSITY , 0.424771411526097 , 2.4897 , 1.9687 , 0.4458
NORTHEASTERN UNIVERSITY , 0.680785603139903 , 5.6013 , 1.7994 , 0.1142
NORTHERN ILLINOIS UNIVERSITY , 0.511085682156546 , 4.3407 , 2.6626 , 0.0385
NORTHWESTERN UNIVERSITY , 0.799678989973638 , 6.3989 , 1.9313 , 1.0638
OHIO STATE UNIVERSITY MAIN CAMPUS , 0.595818955824061 , 3.6837 , 1.787 , 0.9187
OHIO STATE UNIVERSITY MAIN CAMPUS , 0.976171598872719 , 6.7917 , 2.6088 , 1.3622
OHIO UNIVERSITY MAIN CAMPUS , 0.518058145108224 , 3.6154 , 2.2187 , 0
OKLAHOMA STATE UNIVERSITY MAIN CAMPUS , 0.28878820860212 , 1.3792 , 1.7697 , 0.0711
OKLAHOMA STATE UNIVERSITY MAIN CAMPUS , 0.264246208515708 , 0.9571 , 1.9108 , 0.2487
OLD DOMINION UNIVERSITY , 0.355035448931092 , 2.6444 , 3.4461 , 0.5439
OREGON STATE UNIVERSITY , 0.318272585393095 , 1.2252 , 1.3017 , 0
PENN STATE UNIVERSITY , 0.658579473237785 , 4.5091 , 3.3913 , 2.6841
PRINCETON UNIVERSITY , 0.666397256383931 , 6.1014 , 1.3795 , 3.3548
PRINCETON UNIVERSITY , 0.748420915096488 , 4.6829 , 4.7484 , 5.7609
PURDUE UNIVERSITY MAIN CAMPUS , 0.694367363045458 , 4.9336 , 2.4056 , 0.4473
RENSSELAER POLYTECHNIC INSTITUTE , 0.579602138703295 , 4.3947 , 2.9578 , 0.7602
RICE UNIVERSITY , 0.53339554792994 , 3.9891 , 3.4547 , 1.3529
RICE UNIVERSITY , 0.872712027179445 , 3.4279 , 3.9754 , 1.8416
RICE UNIVERSITY , 0.302311103344328 , 2.7679 , 2.4788 , 0
RUTGERS THE STATE UNIVERSITY OF NEW JERSEY NEW BRUNSWICK CAMPUS , 0.533684791662854 , 3.4325 , 2.7558 , 0.784
STANFORD UNIVERSITY , 0.885182701409839 , 5.8193 , 3.5175 , 3.626
STATE UNIVERSITY OF NEW YORK AT ALBANY , 1 , 9.1558 , 1.946 , 0
STATE UNIVERSITY OF NEW YORK AT BUFFALO , 0.453854218785621 , 3.207 , 1.6801 , 0.3087
STATE UNIVERSITY OF NEW YORK AT STONY BROOK , 0.749159914943133 , 4.0577 , 3.4921 , 0.6652
SYRACUSE UNIVERSITY MAIN CAMPUS , 0.600994088898524 , 4.8886 , 2.0286 , 0
TEMPLE UNIVERSITY , 0.185470972392365 , 1.2987 , 1.5565 , 0
TEXAS A & M UNIVERSITY , 0.734872354366569 , 5.5305 , 2.7207 , 0.871
TEXAS CHRISTIAN UNIVERSITY , 0.384584635432465 , 1.2437 , 0.8865 , 0.5882
TEXAS TECH UNIVERSITY , 0.271682917163846 , 2.1587 , 1.0039 , 0
TUFTS UNIVERSITY , 0.445170757120408 , 3.8301 , 2.1575 , 0
TULANE UNIVERSITY , 0.45024139668237 , 2.6494 , 6.4316 , 0
UNIVERSITY OF ALABAMA , 0.411005530634105 , 3.1305 , 2.4437 , 1.1515
UNIVERSITY OF ALABAMA AT BIRMINGHAM , 0.273082007124382 , 1.8986 , 1.5283 , 0.062
UNIVERSITY OF ALABAMA IN HUNTSVILLE , 0.337209224451428 , 1.7196 , 2.253 , 4.4679
UNIVERSITY OF ALABAMA IN HUNTSVILLE , 0.379077182806047 , 0.4389 , 0.5954 , 0.8444
UNIVERSITY OF ALASKA FAIRBANKS , 0.160012145743336 , 1.0869 , 1.6706 , 0
UNIVERSITY OF ARIZONA , 0.816171129218167 , 2.8851 , 1.5352 , 0.8754
UNIVERSITY OF ARIZONA , 0.52072081621376 , 3.9523 , 2.5993 , 0.5399
UNIVERSITY OF ARKANSAS MAIN CAMPUS , 0.610365606526165 , 3.1481 , 1.6806 , 0.056
UNIVERSITY OF CALIFORNIA-BERKELEY , 0.973677948730196 , 6.2119 , 3.5597 , 5.3071
UNIVERSITY OF CALIFORNIA-DAVIS , 0.643109742404023 , 2.3391 , 1.477 , 0.6435
UNIVERSITY OF CALIFORNIA-DAVIS , 0.657850719652931 , 4.7319 , 3.0135 , 0.4376
UNIVERSITY OF CALIFORNIA-IRVINE , 0.693963764806734 , 5.047 , 3.9701 , 0.5732
UNIVERSITY OF CALIFORNIA-LOS ANGELES , 0.557319123232123 , 2.942 , 3.1325 , 0.7953
UNIVERSITY OF CALIFORNIA-RIVERSIDE , 0.972783277465209 , 7.9267 , 2.2243 , 0.2559
UNIVERSITY OF CALIFORNIA-SAN DIEGO , 0.682348851751973 , 4.4577 , 2.9908 , 2.6543
UNIVERSITY OF CALIFORNIA-SANTA BARBARA , 0.878407358326923 , 5.9304 , 3.6037 , 5.0033
UNIVERSITY OF CALIFORNIA-SANTA CRUZ , 0.939855419732372 , 8.1611 , 3.5161 , 0.8996
UNIVERSITY OF CENTRAL FLORIDA , 0.30350778197587 , 2.1638 , 2.1523 , 0.0096
UNIVERSITY OF CHICAGO , 0.720472369371072 , 4.6232 , 2.7378 , 3.7528
UNIVERSITY OF CINCINNATI MAIN CAMPUS , 0.541127768959142 , 4.0624 , 2.2403 , 0.189
UNIVERSITY OF COLORADO AT BOULDER , 0.88964576603681 , 6.054 , 3.2439 , 2.6037
UNIVERSITY OF CONNECTICUT , 0.349101455923191 , 2.4764 , 1.6423 , 0.0909
UNIVERSITY OF DELAWARE , 0.507337300198264 , 3.9941 , 2.8265 , 0.0954
UNIVERSITY OF FLORIDA , 0.827972790880662 , 5.779 , 2.3287 , 0.5128
UNIVERSITY OF GEORGIA , 0.335771286664043 , 2.687 , 1.3984 , 0.2602
UNIVERSITY OF HAWAII AT MANOA , 1 , 9.0857 , 5.4099 , 0.3333
UNIVERSITY OF HOUSTON , 0.603777260051596 , 2.8974 , 1.6136 , 0.5524
UNIVERSITY OF ILLINOIS AT CHICAGO , 0.547396624953484 , 4.153 , 2.9335 , 0.2374
UNIVERSITY OF ILLINOIS AT URBANA-CHAMPAIGN , 1 , 5.3658 , 2.6094 , 2.5821
UNIVERSITY OF IOWA , 0.513301422960817 , 4.1647 , 2.0374 , 0.4239
UNIVERSITY OF KANSAS , 0.855746350607872 , 7.461 , 2.2278 , 0.0455
UNIVERSITY OF KENTUCKY , 0.30304429125446 , 2.1071 , 1.8647 , 0.0715
UNIVERSITY OF MARYLAND BALTIMORE COUNTY , 0.203167695047349 , 1.4842 , 2.9574 , 0
UNIVERSITY OF MARYLAND COLLEGE PARK , 0.416228051266288 , 3.0728 , 2.4786 , 6.8575
UNIVERSITY OF MARYLAND COLLEGE PARK , 0.844753198710784 , 5.0134 , 2.4389 , 3.5249
UNIVERSITY OF MASSACHUSETTS AMHERST , 0.773206826652396 , 6.3663 , 2.4807 , 0.2467
UNIVERSITY OF MIAMI , 0.149751109918657 , 1.1673 , 1.6609 , 0
UNIVERSITY OF MICHIGAN-ANN ARBOR , 0.762718307272367 , 5.4257 , 2.5583 , 2.0539
UNIVERSITY OF MICHIGAN-ANN ARBOR , 0.473851057908371 , 3.2411 , 2.1596 , 1.6582
UNIVERSITY OF MINNESOTA-TWIN CITIES , 0.75126522377697 , 5.0165 , 2.3702 , 0.3204
UNIVERSITY OF MISSISSIPPI , 0.739576642476264 , 6.3714 , 2.4996 , 0.04
UNIVERSITY OF MISSOURI - COLUMBIA , 0.335223403051113 , 1.9691 , 2.048 , 0.0405
UNIVERSITY OF MISSOURI - KANSAS CITY , 0.189109627732935 , 1.5397 , 1.6399 , 0
UNIVERSITY OF MISSOURI - ROLLA , 0.285070681884501 , 1.7801 , 1.1246 , 0.0879
UNIVERSITY OF MISSOURI - SAINT LOUIS , 0.230739803932367 , 0.7857 , 2.5846 , 0
UNIVERSITY OF NEBRASKA - LINCOLN , 0.618999802428954 , 4.8172 , 1.7422 , 0.1388
UNIVERSITY OF NEVADA RENO , 0.283649579376799 , 2.2087 , 0.9644 , 0.1
UNIVERSITY OF NEW HAMPSHIRE , 0.367475793771761 , 2.9838 , 2.4754 , 0
UNIVERSITY OF NEW MEXICO MAIN CAMPUS , 0.460228847721201 , 3.4933 , 3.0038 , 0.1394
UNIVERSITY OF NEW MEXICO MAIN CAMPUS , 0.700186380031973 , 2.4054 , 1.442 , 0.32
UNIVERSITY OF NEW ORLEANS , 0.307977774217364 , 0.9598 , 0.9731 , 0
UNIVERSITY OF NORTH CAROLINA AT CHAPEL HILL , 0.38930612889418 , 2.4413 , 2.7229 , 0.2586
UNIVERSITY OF NORTH TEXAS , 0.255932236475671 , 0.8571 , 0.9071 , 0.2727
UNIVERSITY OF NOTRE DAME , 0.922621075765864 , 6.9805 , 2.1736 , 0.2386
UNIVERSITY OF OKLAHOMA NORMAN CAMPUS , 0.508014011248117 , 4.0463 , 2.2294 , 0
UNIVERSITY OF OREGON , 1 , 8.5296 , 2.519 , 1.4781
UNIVERSITY OF PENNSYLVANIA , 0.764457136050176 , 5.5838 , 4.2148 , 1.0279
UNIVERSITY OF PITTSBURGH PITTSBURGH CAMPUS , 0.646979180565977 , 4.6574 , 2.522 , 0.1414
UNIVERSITY OF ROCHESTER , 0.808820485287039 , 4.3519 , 1.5559 , 2.6233
UNIVERSITY OF ROCHESTER , 0.963494424203147 , 7.1119 , 2.0634 , 1.0987
UNIVERSITY OF SOUTH CAROLINA COLUMBIA , 0.62816757019657 , 5.3869 , 2.2398 , 0.5417
UNIVERSITY OF SOUTH FLORIDA , 0.218982096732913 , 1.6917 , 1.6598 , 0.3684
UNIVERSITY OF SOUTHERN CALIFORNIA , 0.444625664806038 , 3.3245 , 1.5974 , 0.1808
UNIVERSITY OF TENNESSEE , 0.402896543498789 , 2.6773 , 2.1086 , 1.1145
UNIVERSITY OF TEXAS AT AUSTIN , 0.996036717781333 , 3.9122 , 2.5985 , 1.7426
UNIVERSITY OF TEXAS AT DALLAS , 0.60153160930226 , 4.7745 , 1.9734 , 0.3423
UNIVERSITY OF TOLEDO , 0.263592214972262 , 1.4717 , 1.4811 , 0.0189
UNIVERSITY OF UTAH , 0.512912570472873 , 3.7398 , 2.6005 , 1.015
UNIVERSITY OF VIRGINIA , 1 , 5.619 , 1.7806 , 0
UNIVERSITY OF VIRGINIA , 0.480797575861255 , 3.3655 , 2.462 , 0.5449
UNIVERSITY OF WASHINGTON , 0.581087678034231 , 2.889 , 3.331 , 0.4699
UNIVERSITY OF WISCONSIN-MADISON , 0.948805812321545 , 6.4173 , 2.4832 , 1.1221
UNIVERSITY OF WISCONSIN-MADISON , 0.485471795981669 , 1.381 , 1.7027 , 0
UNIVERSITY OF WISCONSIN-MILWAUKEE , 0.296679544407176 , 2.2041 , 1.9641 , 0.2857
UTAH STATE UNIVERSITY , 0.281655893235114 , 1.2063 , 1.6722 , 0
VANDERBILT UNIVERSITY , 0.582356698294056 , 4.3719 , 1.9044 , 0.4139
VIRGINIA POLYTECHNIC INSTITUTE AND STATE UNIVERSITY , 0.400106557066183 , 3.2001 , 2.2947 , 0.0361
WAKE FOREST UNIVERSITY , 0.382928073788114 , 1.8022 , 2.7399 , 1.4927
WASHINGTON STATE UNIVERSITY , 0.458753296804135 , 4.0839 , 1.7576 , 1.0813
WASHINGTON UNIVERSITY IN ST. LOUIS , 0.488927621112604 , 2.7647 , 1.8248 , 1.6366
WAYNE STATE UNIVERSITY , 0.648153060297396 , 5.5617 , 3.0851 , 0
WESTERN MICHIGAN UNIVERSITY , 0.294056786063148 , 2.3018 , 1.4565 , 0
YALE UNIVERSITY , 0.81089704360413 , 5.836 , 3.239 , 2.3323
YALE UNIVERSITY , 0.336895842023994 , 2.3499 , 2.4137 , 2.8499
