Institutions , DEA , Average Publications Per Faculty , Average Citations Per Publication, Average Awards per Faculty
AMERICAN UNIVERSITY , 0.948717948717949 , 0.0936 , 0.3818 , 0.4138
ARIZONA STATE UNIVERSITY , 0.517241379310345 , 0.1488 , 0.773 , 0.0346
BOSTON COLLEGE , 0.289473684210526 , 0.026 , 0.1641 , 0.8756
BOSTON UNIVERSITY , 0.679330272111115 , 0.1826 , 0.3544 , 0.5825
BRANDEIS UNIVERSITY , 1 , 0.014 , 0.3497 , 0.5263
BROWN UNIVERSITY , 0.801421546061463 , 0.3509 , 0.6362 , 0.5168
CATHOLIC UNIVERSITY OF AMERICA , 1 , 0.0614 , 0.5254 , 0
CITY UNIVERSITY OF NEW YORK GRAD. CENTER , 1 , 0.182 , 0.4015 , 0.474
CLAREMONT GRADUATE UNIVERSITY , 1 , 0.1442 , 0.3411 , 0
COLUMBIA UNIVERSITY IN THE CITY OF NEW YORK , 1 , 0.4298 , 1.242 , 2.884
CORNELL UNIVERSITY , 1 , 0.3039 , 0.763 , 1.9011
DUKE UNIVERSITY , 0.865490574020865 , 0.363 , 1.3759 , 1.7037
EMORY UNIVERSITY , 1 , 0.4348 , 1.4429 , 0.0435
FLORIDA INTERNATIONAL UNIVERSITY , 0.405662798656048 , 0.1429 , 0.3574 , 0.137
FLORIDA INTERNATIONAL UNIVERSITY , 0.411764705882353 , 0.1574 , 1.0424 , 0
FLORIDA STATE UNIVERSITY , 1 , 0.5879 , 1.3321 , 0
GEORGE WASHINGTON UNIVERSITY , 1 , 0.6457 , 0.8555 , 1.0729
GEORGETOWN UNIVERSITY , 0.93435939302415 , 0.27 , 0.4101 , 0.4144
GEORGIA STATE UNIVERSITY , 0.864390176987509 , 0.3801 , 0.4361 , 0.0489
HARVARD UNIVERSITY , 1 , 0.3572 , 1.7602 , 5.2608
HOWARD UNIVERSITY , 1 , 0.0357 , 0.3054 , 0.0417
INDIANA UNIVERSITY AT BLOOMINGTON , 1 , 0.4242 , 0.9299 , 1.0244
JOHNS HOPKINS UNIVERSITY , 1 , 0.25 , 0.4793 , 0.65
LOUISIANA STATE UNIVERSITY AND AGRICULTURAL AND MECHANICAL COLLEGE , 0.882352941176471 , 0.3065 , 0.5943 , 0.8656
LOYOLA UNIVERSITY CHICAGO , 0.631578947368421 , 0.127 , 0.435 , 0.6111
MASSACHUSETTS INSTITUTE OF TECHNOLOGY , 1 , 0.4762 , 1.4027 , 1.0667
MICHIGAN STATE UNIVERSITY , 0.911816352288635 , 0.3394 , 1.071 , 0.0582
NEW YORK UNIVERSITY , 1 , 0.565 , 1.5946 , 1.8695
NORTHERN ILLINOIS UNIVERSITY , 1 , 0.1078 , 0.2396 , 0.1451
NORTHWESTERN UNIVERSITY , 0.766666666666667 , 0.3518 , 1.2708 , 0.7243
OHIO STATE UNIVERSITY MAIN CAMPUS , 1 , 0.4313 , 1.0817 , 0.3979
OLD DOMINION UNIVERSITY , 1 , 0.1607 , 0.2143 , 0
PENN STATE UNIVERSITY , 1 , 0.5189 , 1.5742 , 0.2873
PRINCETON UNIVERSITY , 1 , 0.3675 , 1.5892 , 1.8108
PURDUE UNIVERSITY MAIN CAMPUS , 1 , 0.3379 , 0.8353 , 0.7958
RICE UNIVERSITY , 1 , 0.7043 , 1.1795 , 0.068
RUTGERS THE STATE UNIVERSITY OF NEW JERSEY NEW BRUNSWICK CAMPUS , 0.818424508416401 , 0.0986 , 1.0651 , 0.3794
SOUTHERN ILLINOIS UNIVERSITY CARBONDALE , 0.844372200099552 , 0.2857 , 0.2958 , 0.0526
STANFORD UNIVERSITY , 1 , 0.4288 , 2.5599 , 4.2383
STATE UNIVERSITY OF NEW YORK AT ALBANY , 0.8125 , 0.1463 , 0.1769 , 0.4727
STATE UNIVERSITY OF NEW YORK AT BINGHAMTON , 1 , 0.5677 , 1.1095 , 1.3666
STATE UNIVERSITY OF NEW YORK AT BUFFALO , 1 , 0.353 , 0.4294 , 1.0895
STATE UNIVERSITY OF NEW YORK AT STONY BROOK , 1 , 0.4665 , 1.3414 , 0.0842
SYRACUSE UNIVERSITY MAIN CAMPUS , 0.823529411764706 , 0.1647 , 0.564 , 0.5613
TEMPLE UNIVERSITY , 0.963875207072285 , 0.2976 , 1.6296 , 0.0278
TEXAS A & M UNIVERSITY , 1 , 0.5075 , 0.9507 , 0.5672
TEXAS TECH UNIVERSITY , 0.533334370333499 , 0.2078 , 0.3334 , 0
UNIVERSITY OF ALABAMA , 1 , 0.4018 , 1.1574 , 0.3125
UNIVERSITY OF ARIZONA , 1 , 0.3394 , 1.1526 , 1.1615
UNIVERSITY OF CALIFORNIA-BERKELEY , 1 , 0.3166 , 1.3161 , 1.7347
UNIVERSITY OF CALIFORNIA-DAVIS , 1 , 0.5758 , 1.4135 , 0.4715
UNIVERSITY OF CALIFORNIA-IRVINE , 1 , 0.3451 , 0.8324 , 0.5197
UNIVERSITY OF CALIFORNIA-LOS ANGELES , 0.732155419290884 , 0.2104 , 1.2315 , 2.1246
UNIVERSITY OF CALIFORNIA-RIVERSIDE , 1 , 0.645 , 0.6099 , 0.3587
UNIVERSITY OF CALIFORNIA-SAN DIEGO , 1 , 0.429 , 1.4429 , 1.523
UNIVERSITY OF CALIFORNIA-SANTA BARBARA , 1 , 0.3195 , 0.929 , 0.4074
UNIVERSITY OF CHICAGO , 1 , 0.1871 , 1.747 , 3.4322
UNIVERSITY OF CINCINNATI MAIN CAMPUS , 1 , 0.1868 , 0.5276 , 0
UNIVERSITY OF COLORADO AT BOULDER , 0.985459620203726 , 0.382 , 0.8111 , 0.1105
UNIVERSITY OF CONNECTICUT , 1 , 0.2317 , 0.8025 , 0.2136
UNIVERSITY OF DALLAS , 1 , 0 , 0 , 0
UNIVERSITY OF DELAWARE , 0.286929801260362 , 0.0819 , 0.4661 , 0.3529
UNIVERSITY OF FLORIDA , 1 , 0.257 , 0.5916 , 0.2351
UNIVERSITY OF GEORGIA , 1 , 0.33 , 0.5229 , 0.1972
UNIVERSITY OF HAWAII AT MANOA , 0.64 , 0.052 , 0.4679 , 0.1955
UNIVERSITY OF HOUSTON , 1 , 0.1497 , 0.8636 , 0
UNIVERSITY OF ILLINOIS AT CHICAGO , 0.368421052631579 , 0.1345 , 1.1151 , 0.1765
UNIVERSITY OF ILLINOIS AT URBANA-CHAMPAIGN , 1 , 0.4315 , 1.3519 , 0.4547
UNIVERSITY OF IOWA , 1 , 0.4118 , 1.0868 , 0.4237
UNIVERSITY OF KANSAS , 1 , 0.3365 , 0.5989 , 0.4222
UNIVERSITY OF KENTUCKY , 1 , 0.345 , 0.901 , 0.3218
UNIVERSITY OF MARYLAND COLLEGE PARK , 1 , 0.3687 , 0.7608 , 0.6502
UNIVERSITY OF MASSACHUSETTS AMHERST , 1 , 0.1504 , 0.8456 , 0.0526
UNIVERSITY OF MIAMI , 1 , 0.1084 , 0.1796 , 0.3156
UNIVERSITY OF MICHIGAN-ANN ARBOR , 0.966193671550002 , 0.3892 , 1.8702 , 4.9986
UNIVERSITY OF MINNESOTA-TWIN CITIES , 0.876929446504661 , 0.3138 , 1.2048 , 0.5598
UNIVERSITY OF MISSISSIPPI , 1 , 0.398 , 0.7008 , 0
UNIVERSITY OF MISSOURI - COLUMBIA , 1 , 0.6218 , 0.6012 , 0.0588
UNIVERSITY OF MISSOURI - SAINT LOUIS , 0.608695652173913 , 0.1667 , 0.4955 , 0.2778
UNIVERSITY OF NEBRASKA - LINCOLN , 0.647058823529412 , 0.2466 , 0.625 , 0
UNIVERSITY OF NEVADA RENO , 1 , 0.0571 , 0.246 , 0.1
UNIVERSITY OF NEW MEXICO MAIN CAMPUS , 0.603828163160807 , 0.3878 , 0.7518 , 0.3571
UNIVERSITY OF NORTH CAROLINA AT CHAPEL HILL , 1 , 0.2594 , 1.8372 , 1.4684
UNIVERSITY OF NORTH TEXAS , 0.714968935916755 , 0.2795 , 1.1304 , 0.0435
UNIVERSITY OF NOTRE DAME , 0.636553221032547 , 0.2087 , 0.5202 , 0.6677
UNIVERSITY OF OKLAHOMA NORMAN CAMPUS , 0.620689655172414 , 0.1892 , 0.3747 , 0.2075
UNIVERSITY OF OREGON , 0.596316933562019 , 0.2886 , 1.0781 , 0.3673
UNIVERSITY OF PENNSYLVANIA , 1 , 0.3217 , 0.6712 , 1.5531
UNIVERSITY OF PITTSBURGH PITTSBURGH CAMPUS , 1 , 0.442 , 0.9647 , 0.0561
UNIVERSITY OF ROCHESTER , 1 , 0.4561 , 1.2605 , 0.5046
UNIVERSITY OF SOUTH CAROLINA COLUMBIA , 0.99117539922041 , 0.2947 , 0.7225 , 0.1055
UNIVERSITY OF SOUTHERN CALIFORNIA , 1 , 0.3038 , 1.0656 , 0.1374
UNIVERSITY OF TENNESSEE , 0.730769230769231 , 0.2063 , 0.3649 , 0.1478
UNIVERSITY OF TEXAS AT AUSTIN , 0.97909652007527 , 0.2995 , 0.6138 , 0.6696
UNIVERSITY OF UTAH , 0.344827586206897 , 0.0954 , 0.4418 , 0.4373
UNIVERSITY OF VIRGINIA , 0.901960784313726 , 0.2317 , 0.4737 , 0.4865
UNIVERSITY OF WASHINGTON , 1 , 0.3989 , 1.1032 , 0.4965
UNIVERSITY OF WISCONSIN-MADISON , 1 , 0.431 , 0.7577 , 1.1735
UNIVERSITY OF WISCONSIN-MILWAUKEE , 1 , 0.4586 , 0.5583 , 0
VANDERBILT UNIVERSITY , 0.9 , 0.2959 , 1.2743 , 0.673
WASHINGTON STATE UNIVERSITY , 1 , 0.3038 , 0.4753 , 0.5027
WASHINGTON UNIVERSITY IN ST. LOUIS , 1 , 0.5629 , 1.2725 , 0.3013
WAYNE STATE UNIVERSITY , 0.75 , 0.1488 , 0.5574 , 0
WESTERN MICHIGAN UNIVERSITY , 0.526315789473684 , 0.1362 , 0.3594 , 0.2773
YALE UNIVERSITY , 1 , 0.431 , 1.3092 , 2.7095
