Institution	FICE	2000	2002	2003	2004	2005	2006	2007	2008	2009	2010	2011	2012
Arizona State University Main	1081	1809	1816	1837	1845	1958	1928	2044	2135	2392	2371	2416	2389
"Auburn University, Main Campus"	1009	1146	1115	1142	1171	1177	1176	1139	1132	1176	1184	1196	1177
Boston College	2128	663	660	639	650	662	679	676	679	708	725	737	752
Boston University	2130	1179	1233	1263	1234	1405	1461	1485	1512	1542	1549	1632	1643
Brandeis University	2133	316	326	339	336	333	343	352	351	360	358	363	364
"Brigham Young University, Main Campus"	3670	1359	1501	1525	1269	1303	1282	1283	1271	1292	1252	1214	1216
Brown University	3401	539	596	621	676	651	647	690	725	744	733	729	739
CUNY Graduate School and University Center	4063	77	135	124	133	143	141	149	160	178	189	206	195
California Institute of Technology	1131	252	308	301	310	309	311	324	320	322	312	316	317
Carnegie Mellon University	3242	546	566	747	783	797	828	850	835	875	884	901	917
Case Western Reserve University	3024	553	562	590	761	686	646	653	658	665	687	686	707
Catholic University of America	1437	349	360	359	336	354	344	344	347	352	368	385	394
Claremont Graduate School	1169	83	63	68	65	69	81	81	79	87	88	87	89
Clark Atlanta University	1559	310	307	312	290	260	247	240	230	229	178	175	171
Clark University	2139	150	164	166	167	171	167	174	178	189	202	194	207
Clarkson University	2699	149	164	154	169	169	175	174	183	186	194	201	208
Clemson University	3425	935	880	964	952	942	1014	1061	1086	1094	1052	1043	1013
College of William and Mary	3705	514	544	532	535	541	587	588	602	601	613	618	616
Colorado School of Mines	1348	193	204	211	189	193	204	205	229	250	238	230	239
Colorado State University	1350	921	934	898	1088	1099	1099	1122	1136	1184	1175	1175	1178
Columbia University in the City of New York	2707	1217	1364	1466	1508	1521	1289	1317	1388	1425	1422	1439	1480
Dartmouth College	2573	424	394	500	480	481	493	492	501	519	523	522	539
Drexel University	3256	449	485	683	656	689	719	778	826	870	928	977	1011
Duke University	2920	658	690	812	1059	1077	1119	1130	1199	1245	1284	1297	1301
Emory University	1564	579	600	613	645	666	718	697	1105	1103	1038	1041	1042
Florida Atlantic University	1481	657	681	689	731	740	767	777	797	788	779	774	763
Florida Institute of Technology	1469	171	188	202	218	216	210	213	226	232	240	238	232
Florida International University	9635	863	792	714	745	769	757	759	852	854	871	857	966
Florida State University	1489	1007	1084	1124	1116	1124	1283	1330	1367	1314	1312	1257	1259
Fordham University	2722	594	601	595	625	645	654	667	686	723	699	703	718
George Mason University	3749	765	848	915	962	974	997	1055	1104	1134	1138	1144	1171
George Washington University	1444	717	767	890	862	863	841	854	904	910	939	983	1004
Georgetown University	1445	622	646	746	780	821	836	875	915	943	980	966	973
"Georgia Institute of Technology, Main Campus"	1569	721	754	879	856	839	882	910	918	967	980	995	1039
Georgia State University	1574	943	938	1000	945	981	998	994	1046	1064	1052	1067	1088
Harvard University	2155	1272	1365	1387	1349	1352	1550	1560	1607	1644	1661	1739	1778
Howard University	1448	865	979	810	836	842	859	1177	1034	961	955	676	637
Illinois Institute of Technology	1691	280	339	296	314	284	310	359	379	370	385	391	387
Indiana University at Bloomington	1809	1396	1373	1432	1486	1562	1589	1615	1640	1682	1721	1726	1750
Indiana University-Purdue Univ at Indianapolis	1813	683	734	809	787	854	711	736	738	758	789	801	811
Iowa State University	1869	1327	1288	1376	1415	1391	1115	1118	1097	1368	1374	1305	1320
Jackson State University	2410	327	343	339	356	360	367	354	384	344	406	380	378
Johns Hopkins University	2077	998	1066	1089	1094	1144	1171	1125	1129	1206	1062	936	1088
Kansas State University	1928	876	857	882	850	893	888	921	943	986	973	949	975
Lehigh University	3289	391	393	406	423	432	434	443	440	443	464	473	482
Louisiana State Univ & Agric & Mechanical Col	2010	1528	1274	1287	1285	1281	1282	1248	1270	1324	1309	1248	1187
Loyola University of Chicago	1710	522	466	442	524	502	523	550	582	597	629	658	683
Marquette University	3863	474	472	567	579	589	592	600	609	622	627	629	631
Massachusetts Institute of Technology	2178	951	977	1044	1056	1059	1122	1203	1214	1216	1201	1190	1198
Michigan State University	2290	1838	1940	2116	2116	2117	2221	2306	2354	2397	2391	2298	2314
Michigan Technological University	2292	366	367	366	346	355	343	349	367	361	378	389	406
Mississippi State University	2423	892	883	1011	1043	1044	819	826	824	854	897	850	882
Montana State University - Bozeman	2532	464	471	510	505	484	539	545	540	541	559	579	569
New Jersey Institute Technology	2621	380	473	408	458	413	403	389	382	387	406	398	389
New York University	2785	2414	2778	1823	1922	2010	2043	2152	2231	2311	2377	2462	2534
North Carolina Agricultural & Tech State Univ	2905	369	368	367	307	339	364	425	442	472	522	519	508
North Carolina State University at Raleigh	2972	1202	1266	1285	1647	1638	1671	1652	1723	1768	1773	1755	1736
Northeastern University	2199	745	768	797	816	834	853	871	889	940	986	1010	1071
Northern Arizona University	1082	661	708	698	711	710	723	751	767	802	804	825	851
Northern Illinois University	1737	847	887	911	901	875	894	906	908	927	922	897	885
Northwestern Univ	1739	896	907	915	900	933	1170	1223	1266	1294	1310	1352	1341
"Ohio State University, Main Campus"	6883	2075	2014	2006	2181	2178	2072	2158	2173	2167	2160	2133	2078
Old Dominion University	3728	599	596	575	566	605	620	663	686	697	696	723	746
Oregon State University	3210	594	633	639	591	634	676	685	689	699	713	738	833
"Pennsylvania State U, Main Campus"	6965	1983	2085	2143	2191	2218	2277	2300	2348	2394	2439	2464	2502
Polytechnic University	2796	162	160	148	133	124	120	120	125	122	139	151	145
Princeton University	2627	717	768	798	797	801	807	826	824	848	847	844	860
"Purdue University, Main Campus"	1825	1481	1824	1831	1857	2131	2183	2255	2347	2311	2367	2393	2265
Rensselaer Polytechnic Institute	2803	343	429	406	412	405	400	393	400	394	385	380	376
Rice University	3604	463	471	503	530	545	567	567	583	598	619	627	645
Rutgers the State Univ of NJ New Brunswick	6964	1461	1506	1522	1486	1521	1592	1579	1584	1608	1678	1675	1736
Rutgers the State Univ of NJ Newark Campus	2631	424	447	382	383	405	440	422	422	435	447	479	496
SUNY College of Environmental Sci & Forestry	2851	113	115	114	111	110	110	113	119	121	120	122	121
SUNY at Albany	2835	557	590	612	598	598	608	635	650	638	630	617	583
SUNY at Binghamton	2836	481	480	478	495	503	517	535	527	569	567	556	562
SUNY at Buffalo	2837	1014	993	1021	1023	1052	1032	1048	1057	1066	1066	1058	1064
San Diego State University	1151	934	1035	1042	977	886	943	972	966	968	909	849	850
South Dakota State University	3471	355	346	367	397	408	411	423	493	478	476	479	466
Southern Illinois University-Carbondale	1758	948	1371	1306	1290	973	954	972	926	941	952	914	898
"St Louis University, Main Campus"	2506	547	572	591	629	620	616	615	614	672	639	707	742
Stanford University	1305	911	918	919	886	1654	1538	1621	1578	1622	1602	1615	1575
Stevens Institute of Technology	2639	124	171	169	161	222	217	189	206	251	226	206	220
"Syracuse University, Main Campus"	2882	822	832	859	864	879	891	906	913	947	955	982	981
"Teachers College, Columbia University"	3979	146	153	171	180	190	186	209	191	209	204	220	226
Temple University	3371	1066	1162	1196	1220	1207	1225	1245	1303	1383	1427	1462	1453
Texas A&M University Main Campus	10366	1753	1582	1775	1857	1927	1921	2139	2179	2648	2316	2625	2344
Texas Tech University	3644	934	1092	1112	1140	1235	1281	1313	1331	1346	1415	1456	1415
Tufts University	2219	529	538	564	579	584	618	626	629	625	640	666	668
Tulane University	2029	1012	1172	1179	580	663	540	562	550	574	585	613	653
University of Alabama	1051	795	779	794	810	800	813	850	904	1067	1111	1175	1217
University of Alabama at Birmingham	1052	708	421	804	833	810	824	824	852	849	832	861	852
University of Alabama in Huntsville	1055	277	277	275	277	271	280	287	289	302	303	303	306
University of Arizona	1083	1348	1380	1375	1362	1364	1538	1578	1590	1593	1546	1527	1530
"University of Arkansas, Main Campus"	1108	796	797	791	792	797	905	922	874	908	908	952	995
University of California-Berkeley	1312	1396	1442	1462	1475	1496	1434	1474	1510	1507	1608	1610	1603
University of California-Davis	1313	1351	1460	1434	1545	1483	1059	1397	1372	1378	1511	1484	1416
University of California-Irvine	1314	753	845	897	966	879	922	949	998	1009	999	984	1014
University of California-Los Angeles	1315	1715	1855	1871	1872	1610	1712	1759	1773	1835	1774	1764	1759
University of California-Riverside	1316	548	647	657	681	661	587	629	675	707	745	722	712
University of California-San Diego	1317	880	917	965	992	927	870	967	977	1010	1013	1042	1496
University of California-Santa Barbara	1320	778	835	870	903	919	891	904	922	918	905	889	881
University of California-Santa Cruz	1321	446	508	516	533	537	534	549	548	589	572	572	576
University of Central Florida	3954	874	932	1004	1068	1120	1134	1168	1158	1139	1097	1122	1158
University of Chicago	1774	907	984	1000	1015	1036	1057	1055	1084	1099	1082	1102	1123
University of Colorado at Boulder	1370	1076	1076	1127	1105	1108	1115	1166	1223	1368	1395	1385	1344
University of Colorado at Denver	6740	417	429	509	465	450	616	637	639	705	755	816	846
University of Connecticut	29013	1043	1036	1068	1017	1109	1187	1202	1233	1254	1296	1312	1336
University of Dayton	3127	386	388	407	401	439	446	458	457	462	514	545	542
University of Delaware	1431	933	1045	1124	1116	1121	1077	1117	1117	1117	1112	1126	1131
University of Denver	1371	402	425	439	440	463	488	534	574	586	612	635	654
University of Florida	1535	1536	1601	1686	1679	1622	1663	2007	2009	2314	2249	2180	2176
University of Georgia	1598	1719	1727	1705	1690	1661	1691	1735	1733	1761	1775	1749	1796
University of Hawaii at Manoa	1610	1044	989	1039	1069	1078	1083	1119	1136	1163	1138	1084	1107
University of Houston	3652	766	953	1052	1078	1176	1062	1082	1097	1142	1166	1208	1245
University of Idaho	1626	585	605	560	544	516	525	550	564	591	572	538	543
University of Illinois at Chicago	1776	1043	1295	1271	1239	1237	1182	1207	1214	1240	1199	1186	1200
University of Illinois at Urbana-Champaign	1775	1759	2280	2264	2230	2208	2124	2186	2194	2203	2204	2112	2050
University of Iowa	1892	1139	1185	1110	1134	1137	1179	1296	1312	1337	1328	1316	1332
"University of Kansas, Main Campus"	1948	946	1002	994	1004	1000	1055	1080	1228	1244	1152	1154	1175
University of Kentucky	1989	1297	1224	1261	1269	1294	1302	1341	1368	1367	1401	1436	1474
University of Louisville	1999	756	720	726	780	796	802	829	861	862	867	894	917
University of Maine	2053	361	392	393	380	369	372	398	632	635	602	589	587
University of Maryland Baltimore County	2105	410	446	469	464	456	458	482	473	483	480	481	482
University of Maryland at College Park	2103	1389	1546	1589	1539	1527	1523	1580	1597	1642	1618	1613	1668
University of Massachusetts at Amherst	2221	1161	1151	1063	1078	1100	1148	1168	1175	1180	1180	1173	1221
University of Memphis	3509	789	838	812	850	844	852	835	868	874	861	862	870
University of Miami	1536	752	867	870	901	911	930	957	973	1004	1001	1021	1044
University of Michigan at Ann Arbor	9092	2113	2608	2708	2704	2719	2623	2681	3089	3186	3350	3374	3451
University of Minnesota - Twin Cities	3969	1461	1519	1559	1626	1669	1677	1710	2041	1933	1834	1846	1851
"University of Mississippi, Main Campus"	2440	485	512	575	587	591	622	647	674	725	729	735	779
"University of Missouri, Columbia"	2516	930	1006	1230	1111	1553	1251	1283	1305	1307	1297	1349	1380
"University of Missouri, Kansas City"	2518	484	524	593	563	609	668	672	700	712	716	724	751
"University of Missouri, Rolla"	2517	272	271	309	300	321	320	328	332	346	335	333	344
"University of Missouri, St Louis"	2519	330	328	422	421	444	467	499	504	507	497	495	480
University of Montana	2536	456	525	491	503	522	540	550	547	556	548	564	567
University of Nebraska at Lincoln	2565	1172	1135	1104	1049	1056	1156	1162	1187	1186	1214	1206	1144
University of Nevada-Las Vegas	2569	676	721	755	776	810	851	950	960	904	897	842	780
University of Nevada-Reno	2568	434	460	750	712	639	639	656	658	660	645	631	606
University of New Hampshire	2589	592	605	610	651	665	634	638	621	619	618	621	621
"University of New Mexico, All Campuses"	2663	962	978	971	988	976	1004	992	1031	1043	1076	1049	1054
University of New Orleans	2015	504	499	481	484	546	549	464	456	464	446	418	368
University of North Carolina at Chapel Hill	2974	1285	1203	1356	1296	1318	1382	1490	1514	1600	1628	1671	1686
University of North Carolina at Greensboro	2976	601	647	629	686	695	727	736	784	796	788	839	806
University of North TX	3594	729	775	808	786	824	866	868	902	938	1021	1060	1073
University of Notre Dame	1840	726	763	760	783	780	877	853	890	907	947	982	1013
"University of Oklahoma, Norman Campus"	3184	918	937	963	971	976	1003	1059	1113	1131	1142	1135	1160
University of Oregon	3223	668	662	704	706	703	734	713	750	761	782	836	856
University of PR Rio Piedras Campus	7108	1021	1124	1284	1136	1130	1048	956	986	980	981	862	809
University of Pennsylvania	3378	979	1010	1019	1031	1055	1051	1065	1081	1293	1297	1257	1291
University of Pittsburgh Main Campus	3379	1227	1285	1439	1460	1548	1711	1718	1741	1661	1659	1708	1744
University of Rhode Island	3414	621	603	600	592	672	679	683	697	665	662	668	690
University of Rochester	2894	475	499	506	513	556	552	569	566	567	573	588	600
University of South Carolina at Columbia	3448	1036	1006	1015	1011	1043	1169	1163	1217	1201	1152	1178	1230
University of South Florida	1537	1110	1167	1180	1004	1228	1262	1289	1255	1261	1098	1118	1077
University of Southern California	1328	1278	1351	1406	1450	1489	1495	1562	1625	1666	1638	1661	1723
University of Southern Mississippi	2441	684	624	609	637	659	691	703	717	743	727	700	671
University of Southwestern Louisiana	2031	525	530	551	558	559	548	548	592	599	609	596	584
University of Tennessee at Knoxville	3530	1251	1246	1398	1507	1486	1549	1578	1576	1580	1536	1609	1641
University of Texas at Arlington	3656	636	649	678	743	735	769	784	812	825	821	864	851
University of Texas at Austin	3658	2158	2228	2324	2265	2320	2450	2522	2448	2509	2593	2495	2462
University of Texas at Dallas	9741	256	287	315	453	410	464	462	473	480	536	590	634
University of Texas at El Paso	3661	471	559	590	577	612	645	643	632	654	675	676	678
University of Toledo	3131	559	560	662	684	695	752	754	777	916	885	903	851
University of Tulsa	3185	308	299	297	304	308	306	307	309	317	311	314	315
University of Utah	3675	886	920	927	928	1162	1175	1214	1248	1275	1259	1287	1300
University of Vermont	3696	554	528	553	545	553	564	574	585	608	601	613	597
"University of Virginia, Main Campus"	6968	1025	1052	1063	1095	1112	1121	1146	1172	1186	1183	1152	1147
University of Washington - Seattle	3798	2041	3675	2170	1929	1953	2152	2214	2060	2114	2073	2147	2119
University of Wisconsin-Madison	3895	1397	1494	1461	1474	1623	1646	1686	1650	1641	1658	1665	1650
University of Wisconsin-Milwaukee	3896	751	775	809	846	935	964	991	996	1022	1041	1075	1064
University of Wyoming	3932	606	604	612	624	643	688	666	692	715	730	740	749
Utah State University	3677	640	645	719	705	727	727	692	714	744	708	702	772
Vanderbilt University	3535	681	774	685	713	737	796	781	797	866	901	866	905
Virginia Commonwealth University	3735	813	826	807	809	834	868	899	1085	1119	1096	1106	1125
Virginia Polytechnic Institute and State Univ	3754	1253	1295	1301	1251	1265	1304	1340	1371	1369	1364	1306	1368
Wake Forest University	2978	409	427	430	434	431	450	466	468	471	476	505	516
Washington State University	3800	980	991	1013	1018	1016	1028	1049	1118	1215	1166	1182	1168
Washington University	2520	548	560	582	572	698	759	781	798	801	818	827	835
Wayne State University	2329	904	904	934	949	1001	996	986	978	1021	1055	1053	1057
West Virginia University	3827	797	810	796	778	776	785	813	802	876	968	980	1003
Western Michigan University	2330	799	916	962	962	954	890	872	867	893	862	865	868
Wichita State University	1950	459	479	480	474	470	467	480	476	472	448	434	445
Yale University	1426	814	877	893	1044	1051	1050	1100	1082	1139	1180	1168	1160
Yeshiva University	2903	235	692	264	270	279	293	309	359	351	436	463	435
