"id","fice","unitid","name","state","xsede_id","xsede_nsf_org_code","xsede_name","xsede_state","xsede_abbrev","match_type"
"1","1081","104151","Arizona State University","AZ","63","0010819","Arizona State University","AZ","Arizona State U","fice"
"2","1786","150136","Ball State University","IN","188","0017863","Ball State University","IN","Ball State U","fice"
"3","2128","164924","Boston College","MA","235","0021287","Boston College","MA","Boston College","fice"
"4","2130","164988","Boston University","MA","236","0021303","Boston University","MA","Boston U","fice"
"5","2133","165015","Brandeis University","MA","237","0021337","Brandeis University","MA","Brandeis U","fice"
"6","3401","217156","Brown University","RI","438","0034017","Brown University","RI","Brown U","fice"
"7","1131","110404","California Institute of Technology","CA","68","0011312","California Institute of Technology","CA","CALTECH","fice"
"8","1437","131283","Catholic University of America","DC","133","0014373","Catholic University of America","DC","Catholic U","fice"
"9","1169","112251","Claremont Graduate University","CA","89","0011692","Claremont Graduate School",NULL,"Claremont Graduate School","fice"
"10","2699","190044","Clarkson University","NY","317","0026997","Clarkson University","NY","Clarkson U","fice"
"11","2139","165334","Clark University","MA","238","0021394","Clark University","MA","Clark U","fice"
"12","3425","217882","Clemson University","SC","440","0034256","Clemson University","SC","Clemson U","fice"
"13","3032","202134","Cleveland State University","OH","381","0030320","Cleveland State University","OH","Cleveland State U","fice"
"14","3242","211440","Carnegie Mellon University","PA","400","0032425","Carnegie Mellon University","PA","CMU","fice"
"15","1348","126775","Colorado School of Mines","CO","115","0013482","Colorado School of Mines","CO","Colorado Sch of Mines","fice"
"16","1350","126818","Colorado State University","CO","117","0013508","Colorado State University","CO","Colorado State U","fice"
"17","2707","190150","Columbia University in the City of New York","NY","320","0027078","Columbia University in the City of New York","NY","Columbia U","fice"
"18","3024","201645","Case Western Reserve University","OH","379","0030247","Case Western Reserve University","OH","CWRU","fice"
"19","2573","182670","Dartmouth College","NH","293","0025734","Dartmouth College","NH","Dartmouth College","fice"
"20","3256","212054","Drexel University","PA","404","0032565","Drexel University","PA","Drexel U","fice"
"21","2920","198419","Duke University","NC","365","0029207","Duke University","NC","Duke U","fice"
"22","3258","212106","Duquesne University","PA","405","0032581","Duquesne University","PA","Duquesne U","fice"
"23","1564","139658","Emory University","GA","150","0015644","Emory University","GA","Emory U","fice"
"24","1481","133669","Florida Atlantic University","FL","140","0014811","Florida Atlantic University","FL","Florida Atlantic U","fice"
"25","9635","133951","Florida International University","FL","598","0096354","Florida International University","FL","Florida Intl U","fice"
"26","1489","134097","Florida State University","FL","141","0014894","Florida State University","FL","Florida State U","fice"
"27","2722","191241","Fordham University","NY","322","0027227","Fordham University","NY","Fordham U","fice"
"28","3749","232186","George Mason University","VA","494","0037499","George Mason University","VA","George Mason U","fice"
"29","1445","131496","Georgetown University","DC","136","0014456","Georgetown University","DC","Georgetown U","fice"
"30","1444","131469","George Washington University","DC","135","0014449","George Washington University","DC","George Washington U","fice"
"31","1574","139940","Georgia State University","GA","152","0015743","Georgia State University","GA","Georgia State U","fice"
"32","2155","166027","Harvard University","MA","240","0021550","Harvard University","MA","Harvard U","fice"
"33","1448","131520","Howard University","DC","137","0014480","Howard University","DC","Howard U","fice"
"34","1620","142276","Idaho State University","ID","161","0016204","Idaho State University","ID","Idaho State U","fice"
"35","1691","145725","Illinois Institute of Technology","IL","170","0016915","Illinois Institute of Technology","IL","IIT","fice"
"36","1869","153603","Iowa State University","IA","198","0018697","Iowa State University","IA","Iowa State U","fice"
"37","1813","151111","Indiana University-Purdue University-Indianapolis","IN","192","0018135","Indiana University-Purdue University, Indianapolis","IN","IUPUI","fice"
"38","2410","175856","Jackson State University","MS","273","0024109","Jackson State University","MS","Jackson State U","fice"
"39","2077","162928","Johns Hopkins University","MD","225","0020776","Johns Hopkins University","MD","Johns Hopkins U","fice"
"40","1928","155399","Kansas State University","KS","205","0019281","Kansas State University","KS","Kansas State U","fice"
"41","3289","213543","Lehigh University","PA","415","0032896","Lehigh University","PA","Lehigh U","fice"
"42","2008","159647","Louisiana Tech University","LA","212","0020081","Louisiana Tech University","LA","Louisiana Tech","fice"
"43","1710","146719","Loyola University Chicago","IL","174","0017103","Loyola University, Chicago","IL","Loyola U, Chicago","fice"
"44","3509","220862","University of Memphis","TN","448","0035097","Memphis State University",NULL,"Memphis State U","fice"
"45","2290","171100","Michigan State University","MI","262","0022905","Michigan State University","MI","Michigan State U","fice"
"46","2292","171128","Michigan Technological University","MI","263","0022921","Michigan Technological University","MI","Michigan Tech","fice"
"47","2423","176080","Mississippi State University","MS","274","0024232","Mississippi State University","MS","Mississippi State U","fice"
"48","2517","178411","Missouri University of Science and Technology","MO","281","0025171","Missouri University of Science and Technology","MO","Missouri S&T","fice"
"49","2178","166683","Massachusetts Institute of Technology","MA","243","0021782","Massachusetts Institute of Technology","MA","MIT","fice"
"50","2532","180461","Montana State University","MT","285","0025320","Montana State University","MT","Montana State U","fice"
"51","2972","199193","North Carolina State University at Raleigh","NC","371","0029728","North Carolina State University at Raleigh","NC","NC State U","fice"
"52","3530","221759","The University of Tennessee","TN","453","0035303","University of Tennessee, Knoxville","TN","NICS","fice"
"53","2621","185828","New Jersey Institute of Technology","NJ","299","0026211","New Jersey Institute of Technology","NJ","NJIT","fice"
"54","2657","188030","New Mexico State University-Main Campus","NM","309","0026575","New Mexico State University","NM","NM State U","fice"
"55","2199","167358","Northeastern University","MA","245","0021998","Northeastern University","MA","Northeastern U","fice"
"56","1082","105330","Northern Arizona University","AZ","2088","0010827","Northern Arizona University","AZ","Northern Arizona U","fice"
"57","1737","147703","Northern Illinois University","IL","177","0017376","Northern Illinois University","IL","Northern Illinois U","fice"
"58","1739","147767","Northwestern University","IL","178","0017392","Northwestern University","IL","Northwestern U","fice"
"59","2785","193900","New York University","NY","328","0027854","New York University","NY","NYU","fice"
"60","3728","232982","Old Dominion University","VA","487","0037283","Old Dominion University","VA","Old Dominion U","fice"
"61","3210","209542","Oregon State University","OR","393","0032102","Oregon State University","OR","Oregon State U","fice"
"62","2796","194541","Polytechnic Institute of New York University","NY","329","0027961","Polytechnic University",NULL,"Polytechnic U","fice"
"63","3216","209807","Portland State University","OR","394","0032169","Portland State University","OR","Portland State U","fice"
"64","2627","186131","Princeton University","NJ","301","0026278","Princeton University","NJ","Princeton U","fice"
"65","1825","243780","Purdue University-Main Campus","IN","1869","0018259","Purdue University","IN","PURDUE","fice"
"66","3604","227757","Rice University","TX","461","0036046","Rice University","TX","Rice U","fice"
"67","2807","195049","Rockefeller University","NY","333","0028076","Rockefeller University","NY","Rockefeller U","fice"
"68","2803","194824","Rensselaer Polytechnic Institute","NY","330","0028035","Rensselaer Polytechnic Institute","NY","RPI","fice"
"69","1151","122409","San Diego State University","CA","83","0011510","San Diego State University","CA","San Diego State U","fice"
"70","3471","219356","South Dakota State University","SD","446","0034710","South Dakota State University","SD","SD State U","fice"
"71","1758","149222","Southern Illinois University Carbondale","IL","180","0017582","Southern Illinois University, Carbondale","IL","SIU Carbondale","fice"
"72","3613","228246","Southern Methodist University","TX","463","0036137","Southern Methodist University","TX","Southern Methodist U","fice"
"73","1305","243744","Stanford University","CA","97","0013052","Stanford University","CA","Stanford U","fice"
"74","2639","186867","Stevens Institute of Technology","NJ","305","0026393","Stevens Institute of Technology","NJ","Stevens Inst of Tech","fice"
"75","2835","196060","SUNY at Albany","NY","337","0028357","SUNY at Albany","NY","SUNY at Albany","fice"
"76","2836","196079","SUNY at Binghamton","NY","338","0028365","SUNY at Binghamton","NY","SUNY at Binghamton","fice"
"77","2838","196097","Stony Brook University","NY","1924","0028381","SUNY at Stony Brook","NY","SUNY Stony Brook","fice"
"78","3658","228778","The University of Texas at Austin","TX","476","0036582","University of Texas at Austin","TX","TACC","fice"
"79","3371","216339","Temple University","PA","430","0033712","Temple University","PA","Temple U","fice"
"80","3632","228723","Texas A & M University","TX","467","0036327","Texas A&M University","TX","Texas A&M","fice"
"81","3644","229115","Texas Tech University","TX","471","0036442","Texas Tech University","TX","Texas Tech U","fice"
"82","2219","168148","Tufts University","MA","250","0022194","Tufts University","MA","Tufts U","fice"
"83","2029","160755","Tulane University of Louisiana","LA","216","0020297","Tulane University","LA","Tulane U","fice"
"84","1052","100663","University of Alabama at Birmingham","AL","59","0010520","University of Alabama, Birmingham","AL","U Alabama, Birmingham","fice"
"85","1055","100706","University of Alabama in Huntsville","AL","60","0010553","University of Alabama, Huntsville","AL","U Alabama, Huntsville","fice"
"86","1051","100751","The University of Alabama","AL","58","0010512","University of Alabama","AL","U Alabama","fice"
"87","1083","104179","University of Arizona","AZ","64","0010835","University of Arizona","AZ","U Arizona","fice"
"88","1108","106397","University of Arkansas","AR","67","0011080","University of Arkansas","AR","U Arkansas","fice"
"89","1312","110635","University of California-Berkeley","CA","100","0013128","University of California-Berkeley","CA","UC Berkeley","fice"
"90","1313","110644","University of California-Davis","CA","101","0013136","University of California-Davis","CA","UC Davis","fice"
"91","3954","132903","University of Central Florida","FL","525","0039545","University of Central Florida","FL","U Central Florida","fice"
"92","1774","144050","University of Chicago","IL","183","0017749","University of Chicago","IL","U Chicago","fice"
"93","1314","110653","University of California-Irvine","CA","102","0013144","University of California-Irvine","CA","UC Irvine","fice"
"94","1315","110662","University of California-Los Angeles","CA","103","0013151","University of California-Los Angeles","CA","UCLA","fice"
"95","6740","126562","University of Colorado Denver","CO","535","0067405","University of Colorado, Denver","CO","U Colorado, Denver","fice"
"96","1316","110671","University of California-Riverside","CA","104","0013169","University of California-Riverside","CA","UC Riverside","fice"
"97","1317","110680","University of California-San Diego","CA","105","0013177","University of California-San Diego","CA","UC San Diego","fice"
"98","1320","110705","University of California-Santa Barbara","CA","107","0013201","University of California-Santa Barbara","CA","UC Santa Barbara","fice"
"99","1321","110714","University of California-Santa Cruz","CA","108","0013219","University of California-Santa Cruz","CA","UC Santa Cruz","fice"
"100","3127","202480","University of Dayton","OH","388","0031278","University of Dayton","OH","U Dayton","fice"
"101","1431","130943","University of Delaware","DE","131","0014316","University of Delaware","DE","U Delaware","fice"
"102","1371","127060","University of Denver","CO","122","0013714","University of Denver","CO","U Denver","fice"
"103","1535","134130","University of Florida","FL","143","0015354","University of Florida","FL","U Florida","fice"
"104","1598","139959","University of Georgia","GA","157","0015982","University of Georgia","GA","U Georgia","fice"
"105","1610","141574","University of Hawaii at Manoa","HI","159","0016105","University of Hawaii, Manoa","HI","U Hawaii, Manoa","fice"
"106","3652","225511","University of Houston","TX","473","0036525","University of Houston","TX","U Houston","fice"
"107","1626","142285","University of Idaho","ID","162","0016261","University of Idaho","ID","U Idaho","fice"
"108","1776","145600","University of Illinois at Chicago","IL","185","0017764","University of Illinois at Chicago","IL","U Illinois, Chicago","fice"
"109","1892","153658","University of Iowa","IA","202","0018929","University of Iowa","IA","U Iowa","fice"
"110","1775","145637","University of Illinois at Urbana-Champaign","IL","184","0017756","University of Illinois at Urbana-Champaign","IL","UIUC","fice"
"111","1999","157289","University of Louisville","KY","209","0019992","University of Louisville","KY","U Louisville","fice"
"112","2053","161253","University of Maine","ME","221","0020537","University of Maine","ME","U Maine","fice"
"113","2105","163268","University of Maryland-Baltimore County","MD","231","0021055","University of Maryland, Baltimore County","MD","U Maryland, Baltimore Co","fice"
"114","2103","163286","University of Maryland-College Park","MD","229","0021030","University of Maryland, College Park","MD","U Maryland, College Park","fice"
"115","2161","166513","University of Massachusetts-Lowell","MA","241","0021618","University of Maryland","MD","U Maryland","fice"
"116","2221","166629","University of Massachusetts Amherst","MA","251","0022210","University of Massachusetts, Amherst","MA","U Mass, Amherst","fice"
"117","1536","135726","University of Miami","FL","144","0015362","University of Miami","FL","U Miami","fice"
"118","2516","178396","University of Missouri-Columbia","MO","280","0025163","University of Missouri, Columbia","MO","U Missouri, Columbia","fice"
"119","2518","178402","University of Missouri-Kansas City","MO","282","0025189","University of Missouri, Kansas City","MO","U Missouri, Kansas City","fice"
"120","2519","178420","University of Missouri-St Louis","MO","283","0025197","University of Missouri, Saint Louis","MO","U Missouri, St Louis","fice"
"121","2976","199148","University of North Carolina at Greensboro","NC","374","0029769","University of North Carolina, Greensboro","NC","UNC Greensboro","fice"
"122","2974","199120","University of North Carolina at Chapel Hill","NC","372","0029744","University of North Carolina, Chapel Hill","NC","UNC","fice"
"123","2565","181464","University of Nebraska-Lincoln","NE","290","0025650","University of Nebraska at Lincoln","NE","U Nebraska, Lincoln","fice"
"124","2568","182290","University of Nevada-Reno","NV","291","0025684","University of Nevada-Reno","NV","U Nevada-Reno","fice"
"125","2589","183044","University of New Hampshire-Main Campus","NH","294","0025890","University of New Hampshire","NH","U New Hampshire","fice"
"126","2663","187985","University of New Mexico-Main Campus","NM","310","0026633","University of New Mexico","NM","U New Mexico","fice"
"127","2015","159939","University of New Orleans","LA","213","0020156","University of New Orleans","LA","U New Orleans","fice"
"128","1057","102094","University of South Alabama","AL","61","0010579","University of South Alabama",NULL,"University of South Alabama","fice"
"129","2441","176372","University of Southern Mississippi","MS","275","0024414","University of Southern Mississippi",NULL,"University of Southern Mississippi","fice"
"130","2569","182281","University of Nevada-Las Vegas","NV","292","0025692","University of Nevada-Las Vegas","NV","UNLV","fice"
"131","3594","227216","University of North Texas","TX","459","0035949","University of North Texas","TX","U North Texas","fice"
"132","1840","152080","University of Notre Dame","IN","194","0018408","University of Notre Dame","IN","U Notre Dame","fice"
"133","3223","209551","University of Oregon","OR","396","0032235","University of Oregon","OR","U Oregon","fice"
"134","3378","215062","University of Pennsylvania","PA","431","0033787","University of Pennsylvania","PA","U Pennsylvania","fice"
"135","7108","243221","University of Puerto Rico-Rio Piedras Campus","PR","545","0071084","University of Puerto Rico, Rio Piedras","PR","U Puerto Rico, Rio Piedras","fice"
"136","3414","217484","University of Rhode Island","RI","439","0034140","University of Rhode Island","RI","U Rhode Island","fice"
"137","2894","195030","University of Rochester","NY","357","0028944","University of Rochester","NY","U Rochester","fice"
"138","1328","123961","University of Southern California","CA","111","0013284","University of Southern California","CA","USC","fice"
"139","1537","137351","University of South Florida-Tampa","FL","145","0015370","University of South Florida","FL","U South Florida","fice"
"140","3677","230728","Utah State University","UT","480","0036772","Utah State University","UT","Utah State U","fice"
"141","3656","228769","The University of Texas at Arlington","TX","474","0036566","University of Texas at Arlington","TX","UT Arlington","fice"
"142","3661","228796","The University of Texas at El Paso","TX","477","0036616","University of Texas at El Paso","TX","UT El Paso","fice"
"143","3131","206084","University of Toledo","OH","389","0031310","University of Toledo","OH","U Toledo","fice"
"144","3675","230764","University of Utah","UT","479","0036756","University of Utah","UT","U Utah","fice"
"145","3696","231174","University of Vermont","VT","483","0036962","University of Vermont","VT","U Vermont","fice"
"146","3745","234076","University of Virginia-Main Campus","VA","492","0037457","University of Virginia","VA","U Virginia","fice"
"147","3798","236948","University of Washington-Seattle Campus","WA","500","0037986","University of Washington","WA","U Washington","fice"
"148","3895","240444","University of Wisconsin-Madison","WI","514","0038950","University of Wisconsin-Madison","WI","U Wisconsin-Madison","fice"
"149","3896","240453","University of Wisconsin-Milwaukee","WI","515","0038968","University of Wisconsin-Milwaukee","WI","U Wisconsin-Milwaukee","fice"
"150","3932","240727","University of Wyoming","WY","522","0039321","University of Wyoming","WY","U Wyoming","fice"
"151","3535","221999","Vanderbilt University","TN","455","0035352","Vanderbilt University","TN","Vanderbilt U","fice"
"152","3735","234030","Virginia Commonwealth University","VA","489","0037358","Virginia Commonwealth University","VA","Virginia Commonwealth U","fice"
"153","3754","233921","Virginia Polytechnic Institute and State University","VA","495","0037549","Virginia Polytechnic Institute and State University","VA","Virginia Tech","fice"
"154","2978","199847","Wake Forest University","NC","375","0029785","Wake Forest University","NC","Wake Forest U","fice"
"155","3800","236939","Washington State University","WA","501","0038000","Washington State University","WA","Washington State U","fice"
"156","2520","179867","Washington University in St Louis","MO","284","0025205","Washington University in St. Louis","MO","Washington U","fice"
"157","2329","172644","Wayne State University","MI","267","0023291","Wayne State University","MI","Wayne State U","fice"
"158","2330","172699","Western Michigan University","MI","268","0023309","Western Michigan University","MI","Western Michigan U","fice"
"159","3827","238032","West Virginia University","WV","506","0038273","West Virginia University","WV","West Virginia U","fice"
"160","1950","156125","Wichita State University","KS","206","0019505","Wichita State University","KS","Wichita State U","fice"
"161","1426","130794","Yale University","CT","130","0014266","Yale University","CT","Yale U","fice"
"162","2903","197708","Yeshiva University","NY","360","0029033","Yeshiva University","NY","Yeshiva U","fice"
"256","3545","223232","Baylor University","TX","541","0069674","Baylor University","TX","Baylor U","exact"
"257","3670","230038","Brigham Young University","UT","615","0123059","Brigham Young University","UT","BYU","exact"
"258","3705","231624","College of William and Mary","VA","588","0088286","College of William and Mary","VA","College of Wm & Mary","exact"
"259","2711","190415","Cornell University","NY","571","0087791","Cornell University","NY","Cornell U","exact"
"260","2882","196413","Syracuse University","NY","574","0087890","Syracuse University","NY","Syracuse U","exact"
"261","1063","102614","University of Alaska Fairbanks","AK","619","0290940","University of Alaska, Fairbanks","AK","U Alaska, Fairbanks","exact"
"262","1417","129020","University of Connecticut","CT","559","0087189","University of Connecticut","CT","U Connecticut","exact"
"263","1948","155317","University of Kansas","KS","618","0290015","University of Kansas","KS","U Kansas","exact"
"264","1989","157085","University of Kentucky","KY","563","0087445","University of Kentucky","KY","U Kentucky","exact"
"265","2222","166638","University of Massachusetts-Boston","MA","22","0002222","University of Massachusetts, Boston","MA","U Mass, Boston","exact"
"266","3969","174066","University of Minnesota-Twin Cities","MN","1711","6121107","University of Minnesota, Twin Cities","MN","U Minn, Twin Cities","exact"
"267","3005","200280","University of North Dakota","ND","575","0087940","University of North Dakota","ND","U North Dakota","exact"
"268","3474","219471","University of South Dakota","SD","2038","T101687","University of South Dakota","SD","U South Dakota","exact"
"271","1009","100858","Auburn University Main Campus","AL","557","0086959","Auburn University","AL","Auburn U","partial"
"272","3018","201441","Bowling Green State University-Main Campus","OH","576","0087965","Bowling Green State University","OH","Bowling Green State U","partial"
"273","4765","190576","CUNY Graduate School and University Center","NY",NULL,NULL,NULL,NULL,NULL,"none"
"274","1569","139755","Georgia Institute of Technology-Main Campus","GA","560","0087239","Georgia Institute of Technology","GA","Georgia Tech","partial"
"275","1809","151351","Indiana University-Bloomington","IN","561","0087312","Indiana University","IN","IU","partial"
"276","3051","203517","Kent State University Kent Campus","OH","577","0087999","Kent State University","OH","Kent State U","partial"
"277","2010","159391","Louisiana State University and Agricultural & Mechanical College","LA","564","0087452","Louisiana State University","LA","Louisiana State U","partial"
"278","3077","204024","Miami University-Oxford","OH","578","0088005","Miami University","OH","Miami U","partial"
"279","2997","200332","North Dakota State University-Main Campus","ND","593","0092668","North Dakota State University","ND","ND State U","partial"
"280","1509","136215","Nova Southeastern University","FL","1453","6108169","Nova Southeastern University",NULL,"Nova Southeastern University","partial"
"281","3090","204796","Ohio State University-Main Campus","OH","579","0088021","Ohio State University","OH","Ohio State U","partial"
"282","3100","204857","Ohio University-Main Campus","OH","580","0088039","Ohio University","OH","Ohio U","partial"
"283","3170","207388","Oklahoma State University-Main Campus","OK","582","0088062","Oklahoma State University","OK","Oklahoma State U","partial"
"284","3329","214777","Pennsylvania State University-Main Campus","PA","585","0088138","Pennsylvania State University","PA","Penn State U","partial"
"287","2506","179159","Saint Louis University-Main Campus","MO","567","0087668","Saint Louis University","MO","St Louis U","partial"
"289","3979","196468","Teachers College at Columbia University","NY",NULL,NULL,NULL,NULL,NULL,"none"
"290","3123","200800","University of Akron Main Campus","OH","616","0123109","University of Akron","OH","U Akron","partial"
"291","3125","201885","University of Cincinnati-Main Campus","OH","581","0088054","University of Cincinnati","OH","U Cincinnati","partial"
"292","1370","126614","University of Colorado at Boulder","CO","558","0087171","University of Colorado","CO","U Colorado","partial"
"294","2325","170976","University of Michigan-Ann Arbor","MI","591","0090910","University of Michigan","MI","U Michigan","partial"
"295","2440","176017","University of Mississippi Main Campus","MS","566","0087643","University of Mississippi",NULL,"U Mississippi","partial"
"296","2536","180489","The University of Montana","MT","28","0002536","University of Montana","MT","U Montana","partial"
"297","3184","207500","University of Oklahoma Norman Campus","OK","583","0088070","University of Oklahoma","OK","U Oklahoma","partial"
"298","3379","215293","University of Pittsburgh-Pittsburgh Campus","PA","586","0088153","University of Pittsburgh","PA","U Pittsburgh","partial"
"299","3448","218663","University of South Carolina-Columbia","SC","587","0088195","University of South Carolina","SC","U South Carolina","partial"
"300","9741","228787","The University of Texas at Dallas","TX","457","0035691","University of Texas at Dallas","TX","UT Dallas","partial"
"301","10115","229027","The University of Texas at San Antonio","TX","604","0101154","University of Texas at San Antonio","TX","UT San Antonio","partial"
"302","3078","206604","Wright State University-Main Campus","OH","592","0091678","Wright State University","OH","Wright State U","partial"
"334","2031","160658","University of Louisiana at Lafayette","LA","2124",NULL,"University of Louisiana, Lafayette","LA","U Louisiana, Lafayette","manual"
"335","2837","196088","University at Buffalo","NY","35",NULL,"SUNY at Buffalo","NY","SUNY at Buffalo","manual"
"336","2837","196088","University at Buffalo","NY","596",NULL,"SUNY at Buffalo (a)","NY","SUNY at Buffalo (a)","manual"
"337","2837","196088","University at Buffalo","NY","1765",NULL,"University of Buffalo",NULL,"U Buffalo","manual"
"338","6964","186380","Rutgers University-New Brunswick","NJ","569",NULL,"Rutgers, the State University of New Jersey","NJ","Rutgers U","manual"
"339","2631","186399","Rutgers University-Newark","NJ","569",NULL,"Rutgers, the State University of New Jersey","NJ","Rutgers U","manual"
