Research Group	Control	Institution	2010	2009	2008	2007	2006	2005	2004	2003	2002	2001	2000	1999	1998	1997	1996	1995	1994
Under $1M	Private	A.T. Still University of Health Sciences	59006	54727.405	62800				46308	41210									
Under $1M	Private	Abilene Christian University	262396	238187	284269	279735	228354	189270	166771	143455	139522	145610	137050	115018	103683	73085	66580	60318	55719
Under $1M	Private	Adelphi University	100573	85829	102939	106507	86805	74996	64132	53246									
Under $1M	Private	Agnes Scott College	234973	230612	307427	328684	298505	282327	300363	283000	338509	346894	408141	432233	521071	427556	328698	251564	192862
$5-$20M	Public	Air Force Institute of Technology																	
$5-$20M	Public	Alabama A&M University																	
$5-$20M	Public	Alabama State University																	
Under $1M	Private	Alaska Pacific University																	
Under $1M	Private	Albany College of Pharmacy and Health Sciences																	
$5-$20M	Private	Albany Medical College																	
Under $1M	Public	Albany State University	1543	1400	1400														
$5-$20M	Public	Alcorn State University																	
$1-$5M	Private	Alfred University	79795	74771	109090	114349	96439	84496	71872	68717	69626	79886	84464	55685	49655	46457	39911	36505	29747
Under $1M	Private	Allegheny College (PA)	134558	124970	157007	158414	135552	119904	113221	103673	105025	113871	120449	121265	113764	87228	77006	67396	61261
$5-$20M	Private	American University	338000	312406	393794	396844	319238	271243	215268	169115	159042	170784	172909	133054	105466	82815	71000	38896	35938
$1-$5M	Private	Amherst College	1385745	1305944	1705917	1662377	1337158	1154570	993417	877151	860189	890511	912399	634517	539800	474058	413635	362407	331636
Under $1M	Private	Andrews University	32216.765	26269	29496	31051	23502	19980	16388	14274	14847	16168	17639						
Under $1M	Public	Angelo State University	99315.586	85813.173	90386	85566													
$1-$5M	Public	Appalachian State University	56138	50392	61954	62245	53123	47520	43755	36073	34296	31166	34765	31334	29239	24105	19422	15027	13828
Under $1M	Private	Arcadia University	46779		49157	51637	42424	38340	31823	26990	25610	27142	30122						
Over $40M	Public	Arizona State University	441258	407889	493015	478385	394796	277335	247892	221179	205660	207062	216823	183440	153995	118804	90731	66705	54838
$5-$20M	Public	Arkansas State University - Jonesboro	36153	30881	40827	43562	36264	33585	29846	25396	22073	25823.968							
Under $1M	Public	Arkansas Tech University																	
Under $1M	Public	Armstrong Atlantic State University	7120.63	6516.183	7916.906	7997.8													
Over $40M	Public	Auburn University	363241	311394	388269	384113	335225	294327	269029	224287	232884	258965	238170	233049	216640	184986	153923	136138	125383
Under $1M	Private	Augsburg College	28641	24734	31831	32439	29307	28663	25449	23306	22762.074								
Under $1M	Private	Augustana College (IL)	99310	88245	110991	118485	101180	93012	87417	74967	71560	82476	84187	75650	66869	54270	44655	38454	31439
Under $1M	Private	Augustana College (SD)	49947	43000	49805.249	52979.616	46300.557	40328.924	34418.491	26146.601	24053.581	27228.587							
$1-$5M	Public	Ball State University	141018	134341	189652	198062	169655	141924	124820	91157	82719	83535	89765	83763	79954	67355	58885	50099	41289
Under $1M	Private	Bard College (NY)																	
$1-$5M	Private	Barnard College	186810	168059	215744	207301	173362	154774	144152	129424	125998	139744	157852	153662	139356	118924	90439	77639	68706
Under $1M	Private	Barry University	25087	25088	27809	23026.813	20883.517	26630	26120	24113	18819	15801	21556	18701	16376	14008	10989	9235	8105
$1-$5M	Private	Bastyr University																	
Under $1M	Private	Bates College	198548	183848	267232	275557	234386	207512	185527	158602	156696	173137	198274	162418	144398	132275	114051	100473	91539
Over $40M	Private	Baylor College of Medicine	799231	731320	1091814	1278011	1059393	1008261	972351	833644	885915	984150	1044685	1029156	892770	659003	500000	400000	300000
$1-$5M	Private	Baylor University	871966	880256	1059646	1018012	870364	750237	672341	556785	584333	614480	645095	587183	539792	468321	380916	340764	318914
$1-$5M	Private	Benedict College																	
Under $1M	Private	Berry College	592306	558220	656543	683253	542465	516135	581725	547040	654180	194519	200519	193060	213442	176913	139556	115909	96746
$5-$20M	Public	Binghamton University	65205	59978	67060	68971	56200	51968	46140	38363	35831	37532	37573	31914	27514	20726	16765	14119	12736
Under $1M	Private	Birmingham-Southern College	58886	72998	100563	113090	114358	114398	112165	98887	106054	114529	116741	109463	112797	93524	80497	77042	71604
$1-$5M	Public	Black Hills State University																	
Under $1M	Public	Bluefield State College																	
$5-$20M	Public	Boise State University	61142	53933	72259	74008	61091	51313	44199.572	34563	34344	37292	39786	28203	24963	20290	17379		
$20-$40M	Private	Boston College	1479700	1340700	1630626	1670092	1447887	1270303	1150148	968511	964313	1003832	1044542	908000	784500	663500	587000	500163	447302
Over $40M	Private	Boston University	992280	892139	1144996	1101386	916017	776900	694051	620300	578473	664581	913207	652161	560661	484728	433717	380974	339291
$1-$5M	Private	Bowdoin College	753525	688384	831469	827714	673346	578206	514243	452436	430623	433244	465274	406853	373300	337942	276486	222618	193962
Under $1M	Public	Bowie State University	4642.985	3710.11	4949.741	5071.387	4024.278	2400	2400		2566.84								
$1-$5M	Public	Bowling Green State University - Bowling Green	118712	102513	134515	140766	124020	113825	104341	92542	89586	88277	83489	79140	69472	60324	55206	50374	45193
Under $1M	Private	Bradley University	198524	178669	226992	241135	205800	184294	163996	135299	133459	154815	160987	134989	120011	96389	72959	52894	43838
Over $40M	Private	Brandeis University	620204	558516	712446	691370	579654	519538	467727	407824	384335	397046	406722	355012	321001	264399	235077	210665	194566
Under $1M	Public	Bridgewater State University		14413	17541	17089	14324	12778	11177	8704	7575	6914	6332						
$5-$20M	Private	Brigham Young University - Provo																	
Over $40M	Private	Brown University	2155330	2017006	2746832	2780798	2166633	1843904	1647295	1461327	1412364	1434212	1416052	1181514	1111760	949574	789254	680392	608091
$1-$5M	Private	Bryn Mawr College	573674	521878	668439	663626	579747	505861	478452	418502	400332	433854	466960	426499	387486	343974	294343	244262	218440
$1-$5M	Private	Bucknell University	491495	442826	554593	599399	522059	472070	429402	355905	364634	428878	464870	392372	339380	266954	204442	167113	137608
Over $40M	Private	California Institute of Technology	1545429	1398039	1891523	1860052	1580922	1417931	1261122	1151148	1145551	1365798	1471645	1333229	1164183	978192	823225	688822	600597
$5-$20M	Public	California Polytechnic State Univ - San Luis Obispo	146773	130947	166179	181723	164822	3604	123807	99205	81184	68185	59198	52197	43611	38313	26992	21756	10873
$1-$5M	Public	California State Polytechnic University - Pomona	32699	27636	33201	33717	27403.799	23606.561	20516.786	17241.435	14410.455	14333.008							
Under $1M	Public	California State University - Bakersfield	14543	13013	16415	16460	10318.028	7292.861	6659.314	5341.499	5047.76	5524.063							
$1-$5M	Public	California State University - Chico	38958	28634.866	34656	35741	30840	17400	40948.659	17857	17400	18205	18234						
$1-$5M	Public	California State University - Dominguez Hills	7871	6033	6567	6730	5959.629	5060.371	4372.964	3188.675	3192.337	2758.635							
$1-$5M	Public	California State University - East Bay	8518	7745.375	9179	9762	6133	5690.139	6127	5495	3959.091	4883.447							
$1-$5M	Public	California State University - Fresno	111566	91426	104645	112901	100391	94485	86492	73742	69151	68454	59100	60308	50947	48560	34413	27797	22710
$1-$5M	Public	California State University - Fullerton	23987	18960	20022	17592	13377.264	9828.444	8329.631	6468.545	6230.182	7160.478							
$5-$20M	Public	California State University - Long Beach	36564	31070	36616	36072	31513	27881	26408	19081	19738	21845	20143	21296	20422	17382	14746	11391	9396
$5-$20M	Public	California State University - Los Angeles	15665	13224	15091	18899	15613.315	10836.406	10890.18	9287.787	8913.456	10734.751							
$1-$5M	Public	California State University - Monterey Bay	9554	7676	7014	4801	3832.51	3240.222	1490.346	1204.263	2149.611	857.957							
$5-$20M	Public	California State University - Northridge	54882	48920	55379	60227	52663	47364.888	36850.287	30179.989	36565.206	38810.985							
$1-$5M	Public	California State University - Sacramento	25540	19712	21412	19155	15912.67	15415.623	13775.83	12693.475	9928.869	9860.25							
$5-$20M	Public	California State University - San Bernardino	16427	13401	14190	12651	11143.074	10288.284	9125.615	7917.43	7505.058	8920.302							
$1-$5M	Public	California State University - San Marcos	14610	12992	16222	15158	11727	9084	9054	8195	7954	7197.808							
$1-$5M	Private	Calvin College	86129	80763	101387	97596	82556	69174	60711	50553	47664	51798	55990	48533	44217	37414	28179	21331	16299
Under $1M	Private	Canisius College	72939	63535	77715	81830	66556	53839	48439	40227	41709	51945	63058	60068	59876	50006	40590	34409	31081
$1-$5M	Private	Carleton College	563439	517310	647822	663500	571955	540039	511200	451883	457488	543456	680586	551019	461648	356208	292688	252556	218577
Under $1M	Private	Carlos Albizu University - San Juan																	
Over $40M	Private	Carnegie Mellon University	815099	754131	1067728	1115740	939581	837459	768990	654678	667807	756930	829121	719320	653919	608300	524305	453539	414700
Over $40M	Private	Case Western Reserve University	1462027	1401799	1766478	1841234	1598566	1516481	1441819	1289274	1347054	1434000	1550600	1434200	1328800	1157600	995700	877554	557100
$5-$20M	Private	Catholic University of America	191913	153827	229876.449	219862	191893	160449	155875	110883	108699	115590	116084						
Under $1M	Public	Central Connecticut State University	26660.486	21813	24500	25700	22000	9377	17600	15109	9377	8390	7051						
$1-$5M	Public	Central Michigan University	66653	58025	77009	82304	68042	58894	52466	43025	40523	41236	42356	36083	33260	23666	14321	12321	10499
$1-$5M	Public	Central State University																	
$1-$5M	Public	Central Washington University				19777													
Under $1M	Private	Chapman University	150698	134677	202059	205260	152962	124931	113979	106339	99423	88618	72162	55866	56325	48167	45051	36005	35912
Over $40M	Private	Charles R. Drew University of Medicine and Science	41405					2200	26000		2200	2200	2200						
Under $1M	Public	Cheyney University of Pennsylvania	3084.23	3120.222	3767.987	4213.118	3489.822	3720.83	3349.776	2878.054	2920.139	3926.319							
$5-$20M	Public	Chicago State University																	
Under $1M	Public	Christopher Newport University	11919.675	9044.412	10399.007			6320.252			3722.235	3623.567							
Under $1M	Public	City University of NY - Bernard M. Baruch College	131881.065	125190.852	150308.937	116182.474	110662.904	86437.152	79227.837	75839.589	68210.044	68972.252							
$1-$5M	Public	City University of NY - Brooklyn College	33518.128	40389.161	42743.552	37409.844	35805.255	33190.134	31428.791	24482.618	22814.277	14696.461							
$20-$40M	Public	City University of NY - City College	158538.45		144117.569	105933.602	53709.921			62122.355	59002.331	28316.024							
Under $1M	Public	City University of NY - College of Staten Island	3814.934	1575.107	1577.483	5818.337	4704.65	4182.948	3824.228	3424.793	3303.244	3396.755							
$1-$5M	Public	City University of NY - Graduate Sch and University Ctr						13060	12001.025	16153	13060	11619	8784						
$5-$20M	Public	City University of NY - Hunter College	51596.816	49035.396	51747.403	52220	53299	38582	43258.469	39072	38582	37785.653	42327	57548	50784				
$1-$5M	Public	City University of NY - John Jay College Criminal Justice																	
$1-$5M	Public	City University of NY - Lehman College	6023.619	6243.827	7201.637														
Under $1M	Public	City University of NY - Medgar Evers College								57									
Under $1M	Public	City University of NY - New York City Technical College	12741.786	18213.242	13971.17	13095.179	11039	10125	10187	9914.246	12231	12084							
$5-$20M	Public	City University of NY - Queens College				16671.405	15259.991	14828.376	10720.807	11008.727	8308.603								
Under $1M	Public	City University of NY - York College																	
$1-$5M	Private	Claflin University																	
Under $1M	Private	Claremont Graduate University	153157	161712	187694	203457	174154	153868	143573	99715	93036	99493	120021	104092	93383	84149	80391	70071	64936
Under $1M	Private	Claremont McKenna College	466447	399711	527854	474022	373380	336012	315771	285916	292155	367185	487120	392833	322835	264144	249217	211849	189749
$5-$20M	Private	Clark Atlanta University	42168.703	35742.483	44282.78	47384.208		30655	33000	31199	30655								
$1-$5M	Private	Clark University (MA)	275242	226189	282038	290020	233795	205955	188672	148208	154709	153383	152712	122450	111822	98072	87485	71960	66759
$5-$20M	Private	Clarkson University	140216	128329	169894	177962	154478	128501	94050	84360	79206	93411	110887	105814	103368	90338	77298	72559	61193
Over $40M	Public	Clemson University	382189	331082	421299	430020	343726	306163	264868	213448	200989	214398	236348	214566	194040	155807	131409	106906	81092
$1-$5M	Public	Cleveland State University	43713	37335	41770	34126	32601	28990	25893	17100									
Under $1M	Public	Coastal Carolina University																	
Under $1M	Private	Coe College	75164	69478	78785	78571	74921	44308	44909	44211	42188	40661	40604	43066	40058	35231	30408	25453	21889
Under $1M	Private	Colby College	502076	452990	600248	598729	482019	424205	357171	321584	322559	353383	373535	290420	242495	203099	162280	138565	114769
$1-$5M	Private	Colgate University	614363	560907	703968	709047	557121	508665	463436	423406	439437	464535	439115	383018	343836	285223	247208	214338	194423
$1-$5M	Public	College of Charleston			65641	62912	54430	50545	32204	27052									
Under $1M	Public	College of New Jersey	14743	12413	10220	9145		7300.417		4843.36									
$1-$5M	Private	College of the Holy Cross	522494	489680	629259	658855	544347	465304	419222	358093	336614	362305	368119	338310	301715	261369	225839	179894	150345
$20-$40M	Public	College of William and Mary	539547	494802	580037	585904	491629	437724	409872	354906	357012	367510	398936	354616	354472	295621	244453	139562	124845
Under $1M	Private	College of Wooster	223831	226472	272693	270148	228462	208072	194866	187340	189646	201459	216301	192845	175484	147258	121195	107927	94548
Under $1M	Private	Colorado College	459570	400515	492411	523228	458853	438711	423569	372073	351404	390129	405641	367090	317120	279058	233830	205177	176631
$20-$40M	Public	Colorado School of Mines	165939	148089	164999	175022	155072	139361	129404	106697	106129	114585	125679	104844	82437	67246	49068	45689	34718
Over $40M	Public	Colorado State University	176634	148144	183442	186464	152225	135304	123524	103797	97274	103130	104777	84342	70436	60264	41680	30844	31401
Under $1M	Public	Colorado State University - Pueblo																	
Over $40M	Private	Columbia University	6516512	5892798	7345226	7149803	5937814	5190564	4493085	4343151	4238162	4292793	4263972	3636621	3425992	3038907	2558090	2200886	1918148
Under $1M	Private	Concordia College at Moorhead	69678	60265	77033	80862	75051	67098	65752	58589	69055	74321	75885						
Under $1M	Private	Connecticut College	179250	165045	215536	225045	192481	164799	151927	133716	131806	146900	163945	142867	124841	105025	87145	74437	61589
Over $40M	Private	Cornell University	3393405	3073682	4416095	4448281	3541869	3095892	2654312	2340912	2340068	2584135	2775220	2352664	2072854	1742557	1499932	1209973	1024164
$5-$20M	Private	Creighton University	317824	284674	379207	408311	351841	239517	216379	187521	182575	201874	212639	210332	192477	169058	136451	101194	78748
Under $1M	Private	Daemen College																	
Over $40M	Private	Dartmouth College	2998302	2824894	3660159	3760234	3092100	2714300	2454293	2121183	2186610	2414231	2490376	1710585	1519708	1277753	1082934	902234	788007
$1-$5M	Private	Davidson College	427775	369376	500573	489461	421672	382159	333224	283935	292338	318218	336426	274579	251711	209184	172456	148626	122595
$5-$20M	Public	Delaware State University	19359.673	15767.318	19017.654	19632.53													
Under $1M	Private	Denison University	564435	522414	686595	642791	528121	475466	441365	415895	399317	430467	496301	355116	314814	237471	201470	170995	142624
$1-$5M	Private	DePaul University	284017	245574	314743	344727	285203	251898	230461	192276	192260	198288	179841	157115	133706	104901	86241	58407	56359
Under $1M	Private	DePauw University	435054	425364	539851	554051	489188	451576	410001	376030	378910	449509	482251	418314	358301	273567	212610	173686	124157
Under $1M	Private	Des Moines University-Osteopathic Medical Center																	
$20-$40M	Public	Desert Research Institute																	
Under $1M	Private	Dickinson College	277993	244579	307760	287731	241981	206240	158896	137862	145670	158255	163035	151890	142587	121369	102763	87112	80929
$1-$5M	Private	Dillard University					40309	45104	46573	44407	45324		50833			44185	38324	32461	28614
Under $1M	Private	Dowling College																	
Under $1M	Private	Drake University	135009	115926	141175	152148	131549	119020	107847	100228	105156	114323	118665	103485	86258	69293	55987	47821	41546
Over $40M	Private	Drexel University	427023	408227	547922	628467	526792	497918	424346	349948	293738	237413	244576	225412	156182	130370	105315	94329	87965
Over $40M	Private	Duke University	4823572	4440745	6123743	5910280	4497718	3826153	3313859	3017261	2927478	3131375	3232049	1678728	1359992	1134290	966669	747939	699003
$1-$5M	Private	Duquesne University	140824	121049	161299	174670	143625	123276	109756	95459	96096	105196	99833						
$5-$20M	Public	East Carolina University	103562	89032	95041	90425	79002	69842	65729	58103	55309	51135	48245	35057	31072	26873	21581	18938	16723
$5-$20M	Public	East Tennessee State University	79186	73245	85908	87860	74341	66274	52096	47042	41836	43443	43860	38243	35163	29757	25300	22164	18561
Under $1M	Public	Eastern Illinois University	43870	33309	47421	44318	35779	33297	27990	25394	23663	25239	24262	18721	18529	15697	13800	12753	10143
Under $1M	Public	Eastern Kentucky University	41424	44394	55092	55455	41905.776	38126.307	31162.395	24711.219	20176.756	26889.695							
$1-$5M	Public	Eastern Michigan University	39676	35374	45247	48988	43285	38239	34414	29478	29512	32575	38555	31494	30663	25459	20313	15112	11982
Under $1M	Public	Eastern Oregon University			3260.919														
$20-$40M	Private	Eastern Virginia Medical School	38723	32132	37053	34989	31398	27851	26908	27275	26291	31439	36374	35863	33822	30163	26856	25796	22589
Under $1M	Public	Eastern Washington University	18050.156	15916.98	19425.78	20102.755	18958.943	15938.02	14729.11	12816.793									
Under $1M	Private	Eckerd College			26488.835		20441.088	18319.062	17721.402	14993.944	16871.429	19284.532							
$1-$5M	Public	Elizabeth City State University	3524.155	3253.643	3878.418	5099.233	5208.731	3821.838	2267.262	1911.83	1486.017	1843.231							
Under $1M	Private	Elizabethtown College	48220	41925	51711	52200	44762	42240	39696	34220	33478	35555	35067	36177	33784	29564	25015	20953	19324
$5-$20M	Private	Embry Riddle Aeronautical University - Daytona Beach	63856	53822	62346	60025	52499	46438	42095	35915	27897	34811	38905						
Over $40M	Private	Emory University	4694260	4328436	5472528	5561743	4870019	4376272	4535587	4019766	4551873	4315872	5028407	4475755	5104801	4273543	3013112	2232188	1691166
Under $1M	Public	Evergreen State College																	
Under $1M	Private	Fairfield University	218699	200490	262934	268758	214759	179679	137909	117437	112857	109252	97118	75859	56454	47582	40278	35052	31299
Under $1M	Public	Fairmont State University																	
$1-$5M	Public	Fayetteville State University	13556	12112	12497	11350	6808	6361	5890	4812	5515.71	6647.944							
$5-$20M	Private	Fisk University		12141.741	14756.129	14906.186			10000										
Under $1M	Public	Fitchburg State University	12699	7698		7556.872	6652.483	6514.963											
$20-$40M	Public	Florida A&M University	96154	87770															
$5-$20M	Public	Florida Atlantic University	156417	142274	182306	190212	168605	145326	117407	94085	95310	98488	101737	81647	73726	57698	43963	36645	34847
$1-$5M	Public	Florida Gulf Coast University				39289.385	30005.431	25784.577											
$5-$20M	Private	Florida Institute of Technology	44525	32834	42289	42916	41104	35509	35160	27961	28137	25335	22306						
Over $40M	Public	Florida International University	95259	82555	97064	91876	80283	74396	71879	52880	48246	47683							
Over $40M	Public	Florida State University	452544	409666	570730	548994	500637	459959	412020	333750	325098	328988	288500	247471	178340	125118	84664	65167	50151
$1-$5M	Private	Fordham University	371544	330166	437176	455374	357342	300877	271435	217136	210793	242474	237756	222896	198423	166419	136280	115466	98901
Under $1M	Public	Fort Lewis College				4700													
$1-$5M	Public	Fort Valley State University	4178.385	3668.808	3496.78														
$1-$5M	Private	Franklin & Marshall College	266339	248592	335449	362871	321074	298583	283536	255881	246450	259119	274855	258180	253894	213189	163085	133903	120937
Under $1M	Public	Frostburg State University	12248.471	10304.45	14534.063	14194.888	10201.312	8466.459	6943.398	6191.859	6313.402	6565.515							
Under $1M	Private	Fuller Theological Seminary in California	407206	299559	102354	96228	83627	81000			81000	77958	76008						
$1-$5M	Private	Furman University	498282	444223	560044	544610	478834	429766	384540	231516	229999	247691	261041	216137	203602	179588	156358	138595	127342
$1-$5M	Private	Gallaudet University	141042	136368	167558.595	192286	175241.416	165047.446	146234.009	121657.091	102853.345	126644.849							
Over $40M	Public	George Mason University	44983	41873	53327	54724	46781.583	41185.212	37500	31882.023	29719.074								
Over $40M	Private	George Washington University	1143582	1011193	1256433	1147451	963697	823129	733801	634100	621110	713060	737647	673589	609387	534306	462738	397388	362903
Over $40M	Private	Georgetown University	1009736	883182	1059075	1059343	834497	741063	680611	591042	606718	685473	745398	684193	624980	535000	444872	413264	340564
Over $40M	Public	Georgia Institute of Technology	1386634	1235688	1663654	1608682	1324420	1206852	1117634	1021481	1073443	1093622	1141666	948600	1034110	843400	421778	335516	272685
Under $1M	Public	Georgia Southern University	33703	31689	38419	37046	31552.733	18321		18946	18321	16953	15007						
$20-$40M	Public	Georgia State University	87459	75755	98634	97648	82386	71221	61512	51131	46195	57074	52350	43696	34040	26479	22020	19422	17164
Under $1M	Private	Gettysburg College	207835	192692	258118	274194	233808	219991	203067	177796	165567	187258	197514	147316	131888	115915	104052	81319	72925
Under $1M	Private	Gonzaga University	119309.455	109494.145	151727.428	151648.435	128881.822	112124.466	104450.049	93401.4	97207.82	107366							
Under $1M	Private	Goucher College	158375	149443	200137	203895	173932	155834	140849	122692	129947	150430	165693	145382	132048	116853	93522	80084	70931
$1-$5M	Public	Governors State University																	
Under $1M	Public	Grambling State University		5408.225	6310.542	3649.99	2447.584	2551.254	2628.481	2680.788									
Under $1M	Public	Grand Valley State University	60718	53549	62895	61745	51917	46023	42332	36394	36009	38372	39791	35588	31478	26463	25790	19854	17212
Under $1M	Private	Grinnell College	1264834	1076250	1472448	1718313	1471804	1390545	1291781	1111615	1075153	1024671	862487	1020372	1019048	754598	571512	478438	413513
Under $1M	Private	Gustavus Adolphus College	90292	83892	108977	114042	96376	86678	79879	67169	72660	80068	87138	74773	68538	56112	49094	35754	32337
Under $1M	Private	Hamilton College (NY)	552768	488817	670321	701670	587582	529708	486477	405890	400374	431037	432225	355726	306222	260392	222702	175421	145705
Under $1M	Private	Hampshire College	25044	23428.147	34632					28135.866	21184.734								
$5-$20M	Private	Hampton University	212712	193427	235872	256990	217529	199030	185834	167337	165314	174559	175832	169026	149375	133906	113046	97441	86199
Over $40M	Private	Harvard University	27557404	26138239	36556284	34634906	28915706	25473721	22143649	18849491	17169757	17950843	18844338	14255996	13019736	10919670	8811785	7045863	6201220
$1-$5M	Private	Harvey Mudd College	208454	193907	249256	260809	229721	199559	179125	163235	160223	168157	159773	163592	160956	139963	115703	100952	89842
$1-$5M	Public	Haskell Indian Nations University																	
$1-$5M	Private	Haverford College	355500	336086	521308	539589	452933	394715	348522	278404	285173	311200	329571	269290	240388	209213	174625	149047	126120
Under $1M	Private	Hendrix College	146378	115391	177273	192182	159678	149394	137137	115016	112312	133162	134988	123540	116923	108248	85641	79011	65312
Under $1M	Private	Heritage University (WA)																	
$1-$5M	Private	Hobart and William Smith Colleges	151304	138036	174825	174319	148560	140007	129973	120663	122365	115612	115231	102252	89412	73533	62589	52676	48344
Under $1M	Private	Hofstra University	227404	186330	222731	226304	187867	165996	151895	107919.097									
$1-$5M	Private	Hope College	134172	122480	156185	168795	143115	126503	118097	103500	104202	110735	121187	105201	96530	86408	71962	60072	51415
$20-$40M	Private	Howard University	399678	404081	497680	523690	423898	397657	371160	317110	312739	324019	308972	291468	254008	218087	176186	152191	132130
$1-$5M	Public	Humboldt State University	18512	15700	18447	18797	16083.445	12663.531	11588.553	12228.715	10174.133	11817.244							
$5-$20M	Public	Idaho State University			32051.962	31824.115	28306.055	25110.824	24121.325										
$5-$20M	Private	Illinois Institute of Technology	180039	174911	258487	338100	269925	263000	225596	173546	182324	204441	204586	175549	156123	125093	112813	96161	85183
$1-$5M	Public	Illinois State University	74137	60611	77575	78966	70077	59361	48478	38882	37391	39302	37953	33320	27737	18329	15996	14308	12452
Under $1M	Private	Illinois Wesleyan University	160071	151141	182476	190471	171101	158729	153260	138468	136603	175863	213397	185431	166228	150154	117913	108478	95131
Under $1M	Public	Indiana State University	40806	37819	49933	57557	51032	46678	44081	38080	34401	35748	39607	37185	33960	25922	21334		
Over $40M	Public	Indiana University - Bloomington	769145	728544	918603	924420	663603	575899	526608	489355	497115	479918	499105	400000	359009	302625	264688	224471	187784
Under $1M	Public	Indiana University of Pennsylvania	36870	34142	44348	44216	38608	35583	32903.148	28476	26994	27466	27885	24965	22414	19585	16071	11985	9951
Over $40M	Public	Indiana University-Purdue University - Indianapolis	553894	436636	550543	554240	612557	531599	486099	423481	430196	415314	381134	350000	323109	272360	238220	202025	169004
Under $1M	Private	Inter American University of Puerto Rico - Central Office	121927	107493	136897	149121		120089	113926										
Over $40M	Public	Iowa State University	508875	452209	560617	592368	496018	456627	400621	339330	335927	338505	410704	266348	234642	174159	160980	132876	106222
Under $1M	Private	Ithaca College	171659	160596	235283	233802	203216	182213	162708	142261	153570	168907	172708	169987	167799	141058	116089	98208	95293
$20-$40M	Public	Jackson State University		12000															
Under $1M	Public	Jacksonville State University						26436.882											
Under $1M	Private	Jacksonville University	25665	23269	60068	60865	54286	32970	31704	26459	24311	24815.61							
$1-$5M	Public	James Madison University	48515	39649	47371	50726	39073	33581	29562	23811	23201	24129	21097	23285	18582			17138	16699
Under $1M	Private	Jarvis Christian College																	
Under $1M	Private	John Carroll University	147101	131424	177145	179534	156231	142390	135802	122445	132441	139792	139386	131513	118022	97974	73481	59635	51711
Over $40M	Private	Johns Hopkins University	2219925	1976899	2524575	2800377	2350749	2176909	2055542	1714541	1695150	1822713	1825212	1520793	1373155	1156598	982618	838220	740864
Under $1M	Private	Johnson C. Smith University	45190			53129	44193	40891	39496										
Under $1M	Private	Juniata College	62749	57086	70533	71127	63102	58202	57814	52192	55187	63904	80450	77704	66958	57377	45059	38730	32793
Under $1M	Private	Kalamazoo College	131557	122589	156927	172198	152340	144035	135451	116773	115373	115206	117396	104430	97900	80436	68802	61949	56456
Under $1M	Private	Kansas City University of Medicine and Biosciences																	
Over $40M	Public	Kansas State University	277584	259809	337187	346360	294542	251310	206095	168206	172307	184774	188054	152366	148368	132110	115112	102132	94482
Under $1M	Public	Kennesaw State University	25512.388	22465.348	23463.388	22639.992	19099.295												
$5-$20M	Public	Kent State University at Kent	76700	68500	80565.336	87820.444	79288.66	42240	64498	47852	42240	43307	42766	39063	33121	24041	19028	15751	13831
$1-$5M	Public	Kentucky State University	8797.977	8047.712	9456.737		7551.573	6197.083	4781.867	3336.722									
Under $1M	Private	Kenyon College	158752	151056	188696	192934	164597	158053	143823	125460	126771	136522	144047	110521	93369	77899	64271	55215	47026
$1-$5M	Private	Kettering University	54845	48315	61030	64998	55458	51310	46602	39984	39034	43331	39604	34366	31162	22652	19635	15439	13113
Under $1M	Private	King's College (PA)	48379	44187	60794	60743	51840	47240	44709	38426	38343	39362	42094	37643	37052	29308	24629	20916	18208
$1-$5M	Private	La Salle University	59567	55194	65169	65669	61611	44785	47901	43220	44785	43249	41481	42164	39595	39671	34384	30522	28451
Under $1M	Private	Lafayette College	580740	535585	682673	734421	648292	587418	544317	496410	479989	485482	451160	468003	431509	388677	325029	284625	261669
Under $1M	Private	Lake Forest College	60158	53728	76801	73272	61207	60535	60424	56234	60699	62586	59383	61015	58528	53404	52795	45718	44750
$1-$5M	Public	Lamar University	68186	67699	63157	33526			27229			16427	16792						
$1-$5M	Public	Langston University																	
$1-$5M	Private	Lawrence Technological University	23427	22536.615	27167.155	28068.073	21338.141	19106.897	16291.833	15154.868	17049.741	13659.682							
Under $1M	Private	Lawrence University	180258	168497	216466	231740	200436	188051	182267	164396	162794	176244	185353	147426	130306	115779	100437	89502	83392
Under $1M	Private	Le Moyne-Owen College																	
$5-$20M	Private	Lehigh University	940430	886234	1126942	1085639	939473	844672	796946	705426	677761	739024	791190	675595	611498	513403	438721	380154	329855
Under $1M	Private	LeTourneau University	6677	5041				6400	4400.934										
Under $1M	Private	Lewis & Clark College	175873	164606	231217	224491	197291	180520	156433	119922	136851	145867	159509	136775	116913	89514	75081	57973	46820
$5-$20M	Public	Lincoln University (MO)																	
Under $1M	Public	Lincoln University of Pennsylvania																	
$20-$40M	Private	Loma Linda University	460861	436726	234603	245301	209924	174971		124771	121888	127324	129836						
$1-$5M	Private	Long Island University (Multiple campuses)	74679	69655	86819	91049	45792	43357	42858	40000	41667	41994	38218	35263	34137	30063	25520	22596	19623
Over $40M	Public	Louisiana State University - Baton Rouge	311656	275000	332800	350459	332194	282711	257804	227232	202000	184000	189813	176925	130700	101300	80800	67800	60000
Under $1M	Public	Louisiana State University - Shreveport				11702	8305	7068	6445	5837									
Over $40M	Public	Louisiana State University Health Sciences Ctr - New Orleans	66538	63813	79316	79242	75930	64620	58927	58788	52716	42319	21840	10303	13536	28430	25000	22000	18979
$5-$20M	Public	Louisiana State University Health Sciences Ctr- Shreveport				46281	1186	1010	9207	7088									
$5-$20M	Public	Louisiana Tech University	49624.82	43741.835	51343.427	53118.004	45609.009	40950.077	39175.267	35603.687	37797.39	39106.174							
$1-$5M	Private	Loyola Marymount University	326213	292558	373212	371395	305774	274046	250451	221714	225374	248614	272138	233816	218979	193727	164020	152802	139766
$20-$40M	Private	Loyola University Chicago	315305	278873	372526	373211	305664	259118	228130	188545	192500	282900	341700	302930	314544	301782	313185	363206	378072
Under $1M	Private	Loyola University Maryland	135858	122605	169362	181530	157757	143610	133332	118935	135278	155310	145207	151801	131667	111605	86862	72735	61699
Under $1M	Private	Loyola University New Orleans	231509	238598	306558	351917	325657	264791	304244	273178	264791	308436	315698	293476	283334	271569	227176	212796	192373
Under $1M	Private	Luther College	99844	93372	115273	113807	97648	83853	73594	60176	56562	58640	57841	45771	42256	37434	30271	26433	24172
Under $1M	Private	Macalester College	586581	545932	664672	675987	577060	524067	487010	435732	442395	500372	564439	517180	460163	459193	509496	499643	468483
Under $1M	Private	Maharishi University of Management																	
Under $1M	Private	Manhattan College	46871	41662	48172	48497		36028	30771	27382									
Under $1M	Private	Marist College	35521	18659	21473.407	25644.885	18893.779	16770.861	15525.756	13166.78	13209.362	15275.889							
$5-$20M	Private	Marquette University	326003	285500	357300	360250	301186	266772	245950	203428	207202	228974	247803	224940	205196	180113	159992	142188	127428
$5-$20M	Public	Marshall University	71387	70175	85065			59657.085	53026.014	47438.017		43285.883							
Under $1M	Private	Massachusetts College of Pharmacy and Health Sciences																	
Over $40M	Private	Massachusetts Institute of Technology	8317321	7880321	10068800	9980410	8368066	6712436	5865212	5133613	5359423	6134712	6475506	4287701	3678127	3045756	2476630	2078414	1777777
Under $1M	Public	Mayville State University																	
Under $1M	Public	McNeese State University			50594	50086		41877	37350	31036									
Over $40M	Public	Medical College of Georgia	101750	90548	121333	133971	113767	103939	96618	80022	76244	82657	91225	79754	61036	38756	28022	24709	20141
Under $1M	Public	Medical College of Ohio																	
Over $40M	Private	Medical College of Wisconsin	411135	376708	474956	507065	442173	404110	372535	55963	54627	59141	65307	57859	54869	48821	41136	36721	31635
Over $40M	Public	Medical University of South Carolina	181554	145667	160917	150311	114718	98955	82173	69950	69829	75880	81408	82696	65973	52973	30535	23605	20000
$20-$40M	Private	Meharry Medical College	90659	75242	77955	78421	65627	55390	46311	30907	29863	20185	20312	20996	18492				
$5-$20M	Private	Mercer University	160222	147598	191396	201688		171626	169557	156662	172836	178198	195066	200000	208753	167278	141310	133675	116162
Under $1M	Private	Mercy College (NY)	23522																
Under $1M	Private	Mercyhurst College	20851	18236	24792	26880	22303	20269	18621	14216	10908	10272	9941	8775	7928	7600	4489	5088	4503
Under $1M	Public	Mesa State College																	
$5-$20M	Public	Miami University - Oxford	348201	315945	404674	409271	320188	281026	250534	208730	208210	223129	248837	201080	177004	143204	117756	97808	81144
Over $40M	Public	Michigan State University	1449408	1341414	1282073	1247713	1047792	906342	749365	592004	523284	448570	310289	265238	231548	179400	150051	128065	102799
$20-$40M	Public	Michigan Technological University	68796	63617	79390	78991	66005	58894	54000	41422	40236	42515	46478	39537	31604	26787	23865	17937.006	15880
$1-$5M	Public	Middle Tennessee State University	52442	48165	57866	34835	29786	24411	21328	19712	18507	18441	16969						
$1-$5M	Private	Middlebury College	783225	699684	885389	936354	782115	721839	664781	536386	563124	627332	666783	604841	599992	533721	417482	357133	312693
Under $1M	Public	Midwestern State University	48046.361	44631.647	40892.596	4431.986	4427.144	4460.874	4820.166		5249.32	6086.815							
Under $1M	Private	Midwestern University (IL)																	
Under $1M	Private	Miles College																	
Under $1M	Public	Millersville University of Pennsylvania	18338.849	15547.268	18006.511	17384.275	15174.072	13802.14	13220.26	11163.155	10626.899	10983.137							
Under $1M	Private	Mills College	165377	156571	210556	233739	198734	144548	155464	139473	144548	164797	176611	177900	170800	144387	129761	111075	100873
Under $1M	Private	Millsaps College	80281	71536	89169	98676	93101	88081	83717	75451	78367	82024	90297	90109	87702	78786	67303	62505	56050
$1-$5M	Private	Milwaukee School of Engineering			33738	51745		61280	53439	47725									
Under $1M	Public	Minnesota State University - Mankato	33732	24434	31089.118	21629.447	13083.149	11961.218	10155.938	9159.214	8928.689	9819.76							
Under $1M	Public	Minot State University																	
Over $40M	Public	Mississippi State University	291434	254329	280711	280350	237534	211485	171903	154396	147536	144582	153750	160399	151222	127033	87749	76633	63212
$1-$5M	Public	Mississippi Valley State University																	
$5-$20M	Public	Missouri State University	48374	42909	54101	55803	46790.891	40216	35866	29627	28638	28935	29648	27414	21068	16562	13650	11334	9101
$20-$40M	Public	Missouri University of Science and Technology	107239	113758	118729	117001	110454	99288	98804	66177	65354	70223	75697	68690	59040	43677	34731	32670	28842
$1-$5M	Private	Monmouth University	53309	41918	54240	49209	39896	36388	33302	28116		32896.365							
Under $1M	Public	Montana State University - Billings																	
Over $40M	Public	Montana State University - Bozeman	98505	86742	107368	110358	92852	81478	67409	52089	42753	43228	42606						
$1-$5M	Public	Montana Tech of the University of Montana	22561	20823		23769													
$1-$5M	Public	Montclair State University	42012.476			42120	30035.919	26536.394	23079.405	21923.973	17894.329	7193.811							
$1-$5M	Public	Morehead State University		22556.843	27914.707	29855.45	29659.312	28003.047	21543.743	16796.123	14693.14	13284.875							
$5-$20M	Private	Morehouse College	114580.254	106878.03		134553	121000	112215	107240	95417	93506	100822	102071			91639	79641		
$20-$40M	Private	Morehouse School of Medicine	62991	56117	60352	56385	46105	38491	32154	25577	19492.478								
$5-$20M	Public	Morgan State University	14307																
Under $1M	Private	Morris Brown College																	
$1-$5M	Private	Mount Holyoke College	519891	488036	662904	615376	510032	449108	397464	357704	355915	388472	425296	355473	327124	292818	265820	240982	222899
Over $40M	Private	Mount Sinai School of Medicine	534631	443156	631458														
Under $1M	Private	Mount St. Mary's College (CA)	79628	65363															
Under $1M	Private	Mountain State University																	
Under $1M	Private	Muhlenberg College	126482	115693	138267	135425	114243	99315	88236	72630	70604	80698	87052	82549	71617	60663	49820	44898	38230
Under $1M	Public	Murray State University	32797	27881	50716	40671	39724	39376	37233	30630	27792.503	25067.95							
Under $1M	Private	National University of Health Sciences																	
Over $40M	Public	Naval Postgraduate School	3360	2178															
Under $1M	Public	New College of Florida	25234	25005	33314	33550													
Under $1M	Private	New England College of Optometry																	
Under $1M	Public	New Jersey City University	28486.483	22244.328	19875.707														
Over $40M	Public	New Jersey Institute of Technology	63740	57016	70638	70644	58530	53620	49927	42548	37827	37809	40932	33719	27067	19821	13551	9459	6060
$1-$5M	Public	New Mexico Highlands University																	
Over $40M	Public	New Mexico Institute of Mining and Technology	25800	23102	26147														
Over $40M	Public	New Mexico State University - Las Cruces	154039	139484	170931	175683	144680	126329	110020	93410	88972	97438	87813	47000	41965	33434	28368	23957	21600
Under $1M	Private	New School	187346	176078	213986	232239	199087	150944	129158	114876	105561	93847	90350	86330	80566	72337	59297	53363	45657
Under $1M	Private	New York Institute of Technology (Multiple campuses)																	
$20-$40M	Private	New York Medical College	52436	47460	60606		56331	54325	56459	52403	52520	57195	56963	57059	50657	44577	40021	39331	38937
Over $40M	Private	New York University	2370000	2094300	2475200	2161800	1774700	1548000	1449500	1244600	1177600	1118300	1030800	1035900	950900	853838	793085	741062	692461
Under $1M	Private	Niagara University	64504	52796	70917	75249	62229	52592	42801	37865	38891	37899	37009	38464	38704	33262	27847	24044	21772
Under $1M	Public	Nicholls State University																	
$5-$20M	Public	Norfolk State University					11811	10665	9258	4803	4644								
$5-$20M	Public	North Carolina A&T State University	19755	20732.17	19873.654	18247.734	16038.262	14571.67		11400	11400	11200							
$5-$20M	Public	North Carolina Central University	26492.89	22773.875	29078.128	28761.252	24072.709	21770.662	13042.161	11739.377	12921.656	21230.26							
Over $40M	Public	North Carolina State University	503110	463866	544551	535003	412298	380541	324189	289060	297566	310616	312840	275532	259594	210706	178357	156124	118792
Over $40M	Public	North Dakota State University	88533	75808	97036				12601										
Under $1M	Public	North Georgia College & State University	32423.079	25434.722	26149.309	24947.315	17265.108	15743.214	18732.076	15791.629	14168.214	12571.862							
Under $1M	Public	Northeastern Illinois University																	
$1-$5M	Public	Northeastern Ohio Universities Colls of Med and Pharm						6684.885	5054.906	4366.544									
Under $1M	Public	Northeastern State University				11405	9773	10045	9478										
$20-$40M	Private	Northeastern University	508689	486870	657866	679926	595859	543174	498481	410691	422920	493926	518536	396205	373358	323799	273676	238508	213383
$5-$20M	Public	Northern Arizona University	63236	46369	62347	47968	42248	45112	44341.586	39943	37208		28038	25164	20979	17978	15379	10772	10873
$5-$20M	Public	Northern Illinois University	38530	32504		40287	34522	31047	27356.979	21765.965	21135.94	19901.267							
$1-$5M	Public	Northern Kentucky University	55546	46291	50445	52477	41546	36811	32470	23979	22997	24111	23886	18763	14975	12160	9836	7793	5475
Under $1M	Public	Northern Michigan University	11562	11733	33836	35613	33304	30657	29312	12080	12422	13854	15816						
$1-$5M	Public	Northwest Indian College																	
$1-$5M	Private	Northwestern Health Sciences University																	
Under $1M	Public	Northwestern State University of Louisiana																	
Over $40M	Private	Northwestern University	5945277	5445260	7243948	6503292	5140668	4215275	3668405	3051167	3022733	3256282	3368233	2634850	2397715	2083000	1460661	1437000	1275412
$1-$5M	Private	Nova Southeastern University			52226.015							33483.866							
$5-$20M	Public	Oakland University	46256	39001	50509	41721	31101	29623	27732	24133	24233	25601	26728	24759	22613	20046	17952	15616	13564
Under $1M	Private	Oakwood University																	
Under $1M	Private	Oberlin College	618104	550263	760735	816135	694565	704329	593742	537772	535735	595495	631688	508490	453279	386328	326632	288458	265665
Under $1M	Private	Occidental College	298891	281609	359954	378040	315638	279828	258006	230021	230092	255090	280613	255434	224613	216787	168225	158305	152864
Under $1M	Public	Oglala Lakota College																	
Under $1M	Private	Ohio Northern University	119948	112948	174623	181041	149335	136761	114845	95524	96592	113627	126953	104573	85992	65503	62778	39745	32956
Over $40M	Public	Ohio State University - Columbus	1869312	1651561	2075853	2338103	1996839	1726007	1541175	1216574	1079473	1111823	1294923	1086350	928530	767716	649585	555720	485996
$5-$20M	Public	Ohio University - Athens	277232	253259	311880	242812	207666	195726	176281	159470	162363	195828	221291	205960	173918	145218	118917	99984	89539
Under $1M	Private	Ohio Wesleyan University	159948	142527	182917	189836	158418	144627	133576	113921	116127	123487	121628	105352	98061	81926	64896	55398	47909
$20-$40M	Public	Oklahoma State University - Stillwater	495071	454849	617028	468735	382097	320136	169127	149279	153179	167670	166885	156074	136764	108882	78353	66309	49596
$20-$40M	Public	Old Dominion University	140280	134586	177885	177844	153009	133174	117793	104923	70049	73309	75515	68875	59578		34667	29465	26259
Over $40M	Public	Oregon Health & Science University	380008	346549	453541	446634	366575	316457	287014	249603	248362	230369	237446	216530	216530	194174	163510	109694	96448
Under $1M	Public	Oregon Institute of Technology	14218.668	13293.324	16156.129	16977.311	15388.406	14452.46	14284.657	12896.509	13174.996								
Over $40M	Public	Oregon State University	351843	329165	428382	441230	383354	308999	277670	235863	235572	266748	266324	241973	208566	158035	125787	96598	80389
Under $1M	Private	Pace University (Multiple campuses)	102528	92990	118836	121931	101815	92964	84612	71548	70712	90138.079							
Under $1M	Private	Pacific Lutheran University	67144	61827	70674	69197	61662	57360	52888	45928	45085	45635	43620						
Under $1M	Private	Pacific University	46111	39982	46431.489	44530.998	41947.848	39986.199	31701.304	31700.304	28780.463	33433.717							
$1-$5M	Private	Palmer College of Chiropractic		23193.049	12109.689	11517.08	11284.041	11164.223	10919.565	9720.272	9099.982	8941.494							
Over $40M	Public	Pennsylvania State University - Hershey Medical Ctr	205205	183902	231797	238500	198959	176224	158412	128719	124767	93761	97630	79219	63185	49956	40802	33847	29075
Over $40M	Public	Pennsylvania State University - University Park	1012343	907248	1140442	1173420	978611	866788	779174	689567	695128	750090	781038	633748	505478	399645	326414	270778	232597
Under $1M	Private	Pepperdine University	564591	512812	700004	734924	538233	475841	434457	393838	399400	437051	402264	337049	313520	281234	187938	161978	125064
Under $1M	Private	Philadelphia College of Osteopathic Medicine	134490	90523	114953	119781	96341	88627	80071	70410	67853	81342	85534	77387	69094	77009	68716	63238	
Under $1M	Private	Philadelphia University	20004	18620	25236	26858	23191	21823	18531	17398	17817	19544	21449	20153	18820	16364	13996	10821	9067
Under $1M	Public	Pittsburg State University	48101	39903	55106	59216	49799	44086	38102	31614	29892	31101	26202	26339	24319	21573	20726	17463	16201
Under $1M	Private	Pitzer College	94544	77414	100131	106364	86336	60304	52728	43379	45111	47102	45313	44220	38493	35179	32231	29297	26694
Under $1M	Public	Plymouth State University	7021.538	6378.795	6661	6156	5099	10153	9250	7846	7563	8236	8668	7549					
Under $1M	Private	Point Loma Nazarene University	29801.353	23625.752	32160.415	37360.493	25719.46	26769.07	32103.778	26605.203	30009.221	29129.581							
$5-$20M	Private	Polytechnic Institute of New York University	105923	98799		145263	132494.735	128421	126133.952	117954	128421	167881	163363	171030	41719	22797	21591	20032	18695
Under $1M	Private	Pomona College	1458974	1344542	1794453	1760902	1457213	1298629	1149720	994476	1018179	1099930	1104847	759519	675137	587944	488296	438901	388539
$1-$5M	Private	Ponce School of Medicine and Health Sciences																	
$20-$40M	Public	Portland State University	32018	28161	36507.099	37090.459	30951.498	27737.671	24677.857		16760.831	17621.566							
$5-$20M	Public	Prairie View A&M University	47307.327	45823.229	66594	68707	46067	54106	47666	36506	29948	28216	29440	22480	17658	17709	12290	11030	10279
Under $1M	Private	Prescott College																	
Over $40M	Private	Princeton University	14391450	12614313	16349329	15787200	13044900	11206500	9928200	8730100	8319600	8359000	8398100	6469200	5582800	4940900	4467000	3882400	3446818
Under $1M	Private	Providence College	136040	122110	154244	158385	136129	117057	107765	97919	95831	106311	117305						
Over $40M	Public	Purdue University - West Lafayette	1633034	1457543	1735660	1786592	1493554	1340536	1207131	1017667	1098939	1217118	1301976	1222411	1052614	856693	752334	603686	500259
Under $1M	Public	Radford University	28850	27389	38760	38886	42995.259	41656.148	29780	28258.143	24684.873	25839.575							
Under $1M	Private	Reed College	358664	311162	427323	455705	385294	350347	335265	296525	290959	321382	346392	267827	247560	213553	176474	151717	128671
Under $1M	Private	Regis University	41018.157	31000	41151.369	39446	36259.93	29591.191	28085.282	23189.469	25796.443	25181.313							
Over $40M	Private	Rensselaer Polytechnic Institute	629728	612841	793323	812996	682894	624279	570175	510883	530850	618912	729973	516238	460602	415714	357754	311630	279586
Under $1M	Private	Rhodes College (TN)	252462	229523	281512	288906	246374	222809	211811	190588	200119	215019	202257	213764	225327	175599	148249	120730	105834
Over $40M	Private	Rice University	3786548	3612884	4610164	4669544	3986664	3611127	3302455	2937649	2939804	3243033	3372458	2936622	2790627	2321757	1850312	1529982	1278524
Under $1M	Private	Rider University	46802	44019	56826	61600	56047	53747	51730	46013	44554	45980	45776	50065	46163	44370	43863	42469	40379
Under $1M	Private	Roanoke College	98484	95619	115895.856	116416	103654	97449	88719	79827	77637	83801	87857	78579	75093	62539	52410	41922	38403
$5-$20M	Private	Rochester Institute of Technology	557699	528463	667917	656218	568945	498990	472363	412907	358671	451523	524714	437111	379302	335160	291198	244538	221645
Over $40M	Private	Rockefeller University	1561470	1527678	2018855	2145203	1771954	1556945	1394736	1278100	1288100	1361200	1372200	1007600	911100	803061	708353	606496	570689
Under $1M	Private	Roger Williams University	64518	62747	103608	114565	90451	84297	68421	48406	37907	42467							
$5-$20M	Private	Rosalind Franklin University of Medicine and Science																	
Under $1M	Private	Rose-Hulman Institute of Technology	159704	149221	193727	198995	176797	156626	153658	153979	137834	158905	177927	153614	146408	123541	104616	71220	65498
$1-$5M	Public	Rowan University	122034	118034	153898	168020	147458	136893	129334	101048	83607	79964	80968	83467	67250	58400	45858	36558	28080
Over $40M	Private	Rush University	377856	339803	409484	443497	387580	354354	340186	293326	284310	328962	387590	347611	341193	303432	265522	240295	214565
$1-$5M	Public	Rutgers the State University of NJ - Camden			6397	6542	5499	4963	4499	3982	3867	4054	4351	7794	7218	6262	5265	4746	3903
Over $40M	Public	Rutgers the State University of NJ - New Brunswick	554836	501393	588558	601849	505869	456589	413898	366324	355799	372973	400259	350741	324791	281807	236924	213552	175634
$5-$20M	Public	Rutgers the State University of NJ - Newark			44782	45793	38490	34740	31492	27872	27072	28378	30454	31177	28870	25050	21060	18982	15612
Under $1M	Public	Saginaw Valley State University	42310	37003	41422	39821	31326	27263	24606	21334	18807	20898	18190	13971	11267				
Under $1M	Private	Saint Bonaventure University	39441	36820	44223	46411	37661	32479	33575	30489	32302	35690	34944	27955	20667	16977	14292	11837	7648
Under $1M	Public	Saint Cloud State University	17147	21187	18285	18373	16541.941	15248.906	11372.866	9086.196	8007.351								
$1-$5M	Private	Saint Francis University (PA)	26221	19823	23547	24902	21667	17528	16525	14248	13224	12528							
Under $1M	Private	Saint Joseph's College of Maine	9764.499	9103.034	10996.478			4095.49	3759.611	3330.338	3983.753	4176.054							
$1-$5M	Private	Saint Joseph's University	145051	124740	152024	142508	109065	71873	81492	73874	71873	71475	66540	58334	51733	42890	25764	25612	21171
$20-$40M	Private	Saint Louis University - St. Louis	708345	645800	879908	959486	824851	692126	702064	645382	692126	819115	925955	907822	868534	513323	448993	388013	285180
Under $1M	Private	Saint Michael's College	58519	55196	73125	77168	63878	58499	56897	48897	58621	64341	68053	58417	58417	40000	35822	27751	24097
Under $1M	Private	Salish Kootenai College																	
$1-$5M	Private	Salus University								15617.466	11241.285	10886.925							
$1-$5M	Public	Sam Houston State University	47839.956	43078.083	41877.581	37819.078	32090.059	20629.643	23139.748	21055.405	20264.041	22126.61							
Over $40M	Public	San Diego State University	109401	98559	115090	117385	97988	83425	77305	62342	59133	59165	57146	51282	45231	36871	31160	28850	24167
$5-$20M	Public	San Francisco State University	49019	43731	47179	41202	31543	28756	21992	20275	21083.053	21228.462							
$20-$40M	Public	San Jose State University	55110	40517	50108	50020	39157	35126	30993	27324	27985	27752	23985	26527	25451				
$1-$5M	Private	Santa Clara University	603618	528892	676072	697881	598657	509149	449543	401411	400577	434071	420078	373580	321797	287981	225731	180935	154340
Under $1M	Private	Sarah Lawrence College	65903	59071	77939	72209	62582	51968	49109	42204	43688	46507	46452	40448	35500	29959	26705	24763	23070
$1-$5M	Public	Savannah State University	3389.225	3366.176			2900												
Over $40M	Private	Scripps Research Institute																	
Under $1M	Private	Seattle Pacific University	42381	37753	50954	47407	40317	34095	26549	23951	24243	29703	34408	30229	24566	20784	17596	14746	13220
Under $1M	Private	Seattle University	155429	157948	216101	214771	184657	157845	147488	123358	122832	136809	151828	121395	105033	84261	70561	55062	56972
$1-$5M	Private	Seton Hall University	162889	147800	203254	230105	195698	181673	175594	162160	153091	172631	157959	128692	115019	76079	68474	53694	46960
Under $1M	Private	Sewanee-The University of the South	272487	246098	313206	314885	270457	252914	239879	211860	219450	232928	245304	245258	239744	206308	175276	159141	144144
$1-$5M	Private	Shaw University																	
$1-$5M	Private	Siena College	112600	104126.73	134375	139910	122033	112526	104555	96438	94555	101430	102702	103839	99711	83534	27892	26147	23303
Under $1M	Private	Simmons College	144115	143842	182186	193556	169065	152907	141749	126694	125004	144026	158449	158000	143289	126520	104476	91823	79169
Under $1M	Private	Sinte Gleska University																	
Under $1M	Private	Skidmore College	271019	240046	296330	287319	222050	196614	174898	155981	157965	156256	136047	127618	117583	95791	80417	66125	53186
$1-$5M	Private	Smith College	1243561	1096322	1365792	1360966	1156350	1035542	924464	823915	851253	917254	906942	884782	793214	683424	583163	502216	442071
Under $1M	Public	Sonoma State University	27974	26037	35602	37417	30466.495	27516.542	41023.527	33220.099	27872.82	27074.833							
$5-$20M	Public	South Carolina State University																	
$5-$20M	Public	South Dakota School of Mines and Technology																	
$20-$40M	Public	South Dakota State University	54618	49054		71579	58556	56476	50614	42294	49152	50702	61839						
Under $1M	Public	Southeast Missouri State University					26784	27931	27213.858	22310	21220	23697	24308	23861	19876	16373	12004	10638	8536
Under $1M	Public	Southeastern Louisiana University			21475.725														
Under $1M	Public	Southeastern Oklahoma State University																	
Under $1M	Public	Southern Connecticut State University	11762	7050	10399.094	10279.683	8200	10806.166	9964.76	8260.129	7152.784	5583.072							
$5-$20M	Public	Southern Illinois University - Carbondale	76235	64888	79151	85426	71784	43071	57640	45023	43071	46433	47350	39486	34830	29601	24827	21229	17469
$1-$5M	Public	Southern Illinois University - Edwardsville	13373	11852	13953	15276	11242	10220	9274	8366	7215								
$5-$20M	Private	Southern Methodist University	1069399	1035364	1367744	1327816	1122477	1013703	914527	810071	831116	872388	911121	790065	770681	645542	562838	482981	434497
Under $1M	Public	Southern Oregon University	14701.258	12666.074	14605	16833	15684		12464.35										
Under $1M	Public	Southern Polytechnic State University	6046.103	6316.356	6702.832	4134.671	3026.306												
$5-$20M	Public	Southern University and A&M College																	
Under $1M	Public	Southern University at New Orleans																	
Under $1M	Public	Southwestern Oklahoma State University																	
$1-$5M	Private	Spelman College	295220	284706	351706	340261	291605	258054	244079	219369	215032	228992	219754	181022	174597	156376	140692	124405	110050
$1-$5M	Private	St. John's University (NY)	303057	267650	363802	366660	304896	264966	236313	196750	114397	117533	105864		93340	84101	61480		
Under $1M	Public	St. Mary's College of Maryland			26334														
Under $1M	Private	St. Marys University (TX)	124769	116475	147054	154340	135887	80744	94126	84096	80744	83019	79905	72893	63762	51706	44318	39096	31717
$1-$5M	Private	St. Olaf College	274304	247922	325020	321063	261633	231781	190844	152512	156331	161748	154155	130101	116938	98675	87124	67893	63466
Over $40M	Private	Stanford University	13851115	12629094	17214373	17164836	14084676	12205000	9922000	8614000	7613000	8249551	8649475	6005211	4559066	4473825	3779420	3088291	2750774
$1-$5M	Public	State Univ. of New York - Buffalo State	16776	14759	18862.147	16948	14373.258	13797.126	13074.589	11210.33	10879.16	10129.423							
$5-$20M	Public	State Univ. of New York - Coll of Enviro Sci and Forestry	21651.685	20979.138	24321.1	25504.911	21835.356	20591.106	18789.156	15486.413	13602.705	18464.672							
Under $1M	Public	State Univ. of New York - College at Brockport	4575	4361	4674	4890	4069.126	3467.986	3189.419	2721.552	2581.198	2826.079							
Under $1M	Public	State Univ. of New York - College at Cortland	17573	11704	13565	13650	11397	10488	8548	7456	7223.319	7813.654							
Under $1M	Public	State Univ. of New York - College at Old Westbury	680.607	670.844	768.592	789.335	193.237	181.641	132.577	123.108	149.263								
Under $1M	Public	State Univ. of New York - College at Oneonta	30926	26425	28483	29529	24831	22286	20026	16747	15992	18161	17437						
Under $1M	Public	State Univ. of New York - College at Oswego	9299	7936	8753	8667	6537	6030	5210	4023	3992.136	4311.797							
$1-$5M	Public	State Univ. of New York - College at Plattsburgh	11056	10331	13456	13031	11076	10259	9716	8774	8917	9306	10389	10118	8946	7842	6754	4994	4365
Under $1M	Public	State Univ. of New York - College at Potsdam	14976	14128	17482	17141	14586	13352	12230	10456	10111	10691	10895	9951	9019	7731	6673	5709	4848
$1-$5M	Public	State Univ. of New York - College of Optometry	8060.876	8121.035	7609.994	7533.78	6431.736	2890.754	2975.16	2881.652	2329.523	2400.764							
Under $1M	Public	State Univ. of New York - Fredonia	17691	12668.099	16908.667	16173	14170	13461	12612	10726	9908	9808.312							
Under $1M	Public	State Univ. of New York - Geneseo	12445.631	8950.165	10337.14	9431	7672	5174	5566	5293	5174	5290	6189						
Under $1M	Public	State Univ. of New York - New Paltz	10704.65	9257.683	10004.792	9667	7552.292	7777.99	6343.617	5320.97	4362.957	4255.552							
$20-$40M	Public	State Univ. of New York - Upstate Medical University	50881	40237	52439	20777	47869	45071	16139	14563	15099	16410	17291	16985	15530	12763	10234	8855	8085
$20-$40M	Public	State Univ. of New York Health Science Ctr at Brooklyn	40500	35018.421	51520	55286	47332	43697	39122	33958	34303	36744	37710	36254	32070	26308	20472	17714	15952
$1-$5M	Public	Stephen F. Austin State University	15993	13192	44142.396	59122.374	51502.775	39175.343	34723.09	27367.603									
$5-$20M	Private	Stevens Institute of Technology	133397	136289		161250	142414	130237	122437	113042	119062	136382	150033	130463	120819	109528	91550	81694	70188
Over $40M	Public	Stony Brook University	125757	95689	113204	104574	76543	63888	57849	43699	40419	40450	38145	22383	19379	17158	14155	12536	10797
$1-$5M	Public	Sul Ross State University																	
Under $1M	Private	Swarthmore College	1249254	1128675	1412609	1441232	1245281	1164069	1080026	930373	894236	949923	963676	905680	833659	748194	623981	536430	458052
Under $1M	Private	Sweet Briar College	81878	74904	95439	103136	93685	91762	92944	79523	87635	103914	111212	115663	108825	97207	77769	71200	59598
$20-$40M	Private	Syracuse University	849157	658248	984779	1086143	908371	818258	770167	656893	657769	735484	825250	641466	478102	385385	321543	272554	238511
$5-$20M	Public	Tarleton State University	36062.426	34298.587	46615	50786	32165	28294	24926	21675	18717	24185	25235	18733	14126	11806	9832	6600	6167
$5-$20M	Private	Teachers College at Columbia University			213713	219670	182037	168174	157518	144076	138313	146716	170817	149523	123885	113348	92974	79842	71155
Over $40M	Public	Temple University	235531	210043	237012	236712	204178	196165	166128	158111	141164	140286	156762	141527	122759	102838	89834	84528	84961
$5-$20M	Public	Tennessee State University	31212	27786	31465.353	30957.473				2766.071									
$5-$20M	Public	Tennessee Technological University	49955	44794	55132	58812	50628	45286	38778	32007	29385	28841	26830	24654	24161				
$20-$40M	Public	Texas A&M Health Science Center		56419.635	73253	89008	82387	72473	63846	57421	52408	56432	58882						
$1-$5M	Public	Texas A&M International University	27368.246	25318.575	33297	28163	11286	9928	8746	7605	7487	8062	8412	3747	3532	2951	2458		
Over $40M	Public	Texas A&M University	5224062	4572757	6259791	6149804	5192104	4567265	4023641	3525114	3503862	3764843	3932469	3596759	3390256	2803890	2384302	2173546	2012637
Under $1M	Public	Texas A&M University - Commerce	13042.503	12385.21	19978	18143	28215	24819	21865	16732	14974	8062	8412	7493	7063	5903	4916	4440	4112
$5-$20M	Public	Texas A&M University - Corpus Christi	36702.203	31522.319	46615	43017	5079	4467	3936	23682	25381	29330	37853	33720	21189	11806	14748	11100	10279
$5-$20M	Public	Texas A&M University - Kingsville		41948.416	66594	70543	18058	15884	13994	8746	7487	8062	8412	3747	24721	20660	14748	2200	2055
$1-$5M	Private	Texas Christian University	1048241	974696	1260145	1187057	1016353	941798	868907	796676	829516	913072	1007653	835547	786461	697288	547831	440842	403695
$1-$5M	Public	Texas Southern University	29767																
$5-$20M	Public	Texas State University - San Marcos	94709	80862	93314	82539	42264.312	33723	37041	32642	33723	30939	41730	40198	28983	24569	17969	19095	19344
$20-$40M	Public	Texas Tech University	604716	505109	589037	409600	340358	290999	247335	199189	332456	316483	293407	197532	174386	160000	130430	119361	96936
$5-$20M	Public	Texas Tech University Health Sciences Center	170508	235065.087	202952	232040	199893	170904	145260	89409									
Under $1M	Public	Texas Woman's University																	
Over $40M	Private	Thomas Jefferson University	425431	443039	568726	614338		178569			178569	400000	400000	384973	361686	318752	280770	245326	214325
$1-$5M	Private	Tougaloo College																	
Under $1M	Private	Touro University (CA)																	
$1-$5M	Public	Towson University	33243	27775	33165	30091	22601	18752	13029	11180	12018.736	12869.39							
Under $1M	Private	Trinity College (CT)	356756	319390	413611	440195	382407.71	379277	363654	340832	336232	343242	361745	341930	318370	287081	246396	208306	183995
Under $1M	Private	Trinity University	854895	850739	1034659	991112	814672	733261	673572	593973	599347	649936	656978	584445	540131	476554	412543	367389	343490
Under $1M	Public	Troy University	24760	21434	27135	27178	21105		16759										
Under $1M	Public	Truman State University	20833.912	18260.063	27358.847	26358.524	29358.682	23259	27732.451	25959	23259	12839	13089						
Over $40M	Private	Tufts University	1213585	1103440	1445662	1452058	1215413	845389	752428	669286	650230	548998	523520	464107	439228	355416	291705	251886	217298
Over $40M	Private	Tulane University	888667	807859	1052881	1009129	858323	780200	692665	606488	600964	638871	636350	548305	502948	446355	332646	333168	285000
$5-$20M	Private	Tuskegee University	86117																
$20-$40M	Public	U.S. Air Force Academy																	
Under $1M	Public	U.S. Coast Guard Academy	14552.987	13528.778	17153.434														
$5-$20M	Public	U.S. Military Academy	113589.207	92826.345	125963.995	108827.767	93609.907												
$5-$20M	Public	U.S. Naval Academy	140300.831	124924.022	153278.269	158404.556	130735.738	115635	105092.027	87246	48049.095								
Over $40M	Public	Uniformed Services University of the Health Sciences																	
Under $1M	Private	Union College (NY)	290543	283984	391260	369921	315569	291799	270181	239629	238923	262667	269258	266727	238683	204333	170695	151278	137141
$5-$20M	Private	Universidad Central Del Caribe																	
Under $1M	Private	Universidad Del Este																	
Under $1M	Private	Universidad Del Turabo																	
Under $1M	Private	Universidad Metropolitana																	
Under $1M	Private	Universidad Politecnica de Puerto Rico																	
Over $40M	Public	University at Albany	29523	24764	26782	26728	20093	17247	16387	14770	13438	11043	10337	9369	7132	5784	4123	3505	2717
Over $40M	Public	University at Buffalo	428851	408730	535578	566362	499632	463214	428072	138594	388216	428085	447322	438002	410687	302117	245207	214120	187243
$5-$20M	Public	University of Akron - Akron	143950	133332	178278	192755	168088	157821	145306	128001	131034	154878	198498	146535	117829	95146	80300	64635	52248
Over $40M	Public	University of Alabama - Birmingham	270839	282754	353276	382360	346330	312072	285274	242125	240773	247638	228740	204680	199948	172539	133940	106002	95141
Over $40M	Public	University of Alabama - Huntsville	44428	46196	62871	57297	27163	24476	22374	18069	17968	18480	20456	16596	16212	13990	10860	8595	7714
$20-$40M	Public	University of Alabama - Tuscaloosa	539969	467540	581808	560158	475355	428334	391552	342107	340197	349897	370695	331913	324240	279793	217200	171895	154283
$5-$20M	Public	University of Alaska - Anchorage	83926		83910	310802	38626	33959	30070										
Over $40M	Public	University of Alaska - Fairbanks	142320	133689	171329	205129	175817	154571	136872	41717	34837	33402	34264	31133	27770	24056	22925	12982	19871
$1-$5M	Public	University of Alaska - Southeast	7204		10558	11811	10123	8900	7881										
Over $40M	Public	University of Arizona	480239	436603	518709	532351	466652	393400	348343	297745	292380	310174	285356	272950	221779	173652	92057	81405	71590
$20-$40M	Public	University of Arkansas - Fayetteville	673120	623686	856049	876839	763069	691524	566544	546267	569859	233858	244125	222838	145507	119436	100917	85380	75615
$1-$5M	Public	University of Arkansas - Little Rock	39581.535	38727.664			46763	31765.095	22333	17517	22260.836	24201.688							
$1-$5M	Public	University of Arkansas - Pine Bluff		8390.383	10000				2688	2339									
Over $40M	Public	University of Arkansas for Medical Sciences	23121	22246	29674	31000			70103	40291		59401	64079						
$1-$5M	Public	University of Baltimore							28237	22599	20289.029	17672.835							
Over $40M	Public	University of California - Berkeley	2599983	2386841	2885352	2894932	2464109	2232306	2037297	1793647	1774200	1953443	2168671	1654557	1443172	1190229	967592	822628	658169
Over $40M	Public	University of California - Davis	597650	538777	651998	650691	552003	487456	76040	58838	400837	58336	395346	300828	218662	210040	142293	145170	116148
Over $40M	Public	University of California - Irvine	245529	213457	250557	226738	189401	162152	147083	123706	117884	82274	128738	100276	87465	70013	56917	48390	38716
Over $40M	Public	University of California - Los Angeles	2161411	1881050	2320333	2683872	1912071	1667319	586839	499139	1224018	471438	1447371	1103038	1005847	770148	626089	508094	406516
$5-$20M	Public	University of California - Merced	22776.9	20612	24705	23963	19160	15914	12873	9737	2361								
Over $40M	Public	University of California - Riverside	110032	99633	122590	120541	95652	83944	76691	63886	65881	70203	63047	50138	43732	35007	28459	24195	19358
Over $40M	Public	University of California - San Diego	477754	431717	525555	522842	422454	351678	184187	158989	259241	154546	292730	200552	174930	140027	113834	96780	77432
Over $40M	Public	University of California - San Francisco	1253441	1110642	1306438	1362656	1157829	1055199	310519	259465	797414	239910	912258	701933	612255	490094	369962	314534	232295
Over $40M	Public	University of California - Santa Barbara	178095	154438	191056	190038	151836	125093	106340	88346	80830	87152	85866	100276	43732	35007	28459	24195	19358
Over $40M	Public	University of California - Santa Cruz	101955	94522	115752	117774	97450	89991	80068	74643	68762	76352	85285	50138	43732	35007	28459	24195	19358
Under $1M	Public	University of California System Admin Central Office																	
$1-$5M	Public	University of Central Arkansas																	
Over $40M	Public	University of Central Florida	102739	91951	114990	116291	96417	79737	71317	54423	52536	55747	60852	51877	44982	40615	33057	28046	21698
Under $1M	Public	University of Central Oklahoma																	
Over $40M	Private	University of Chicago	5638040	5094087	6632311	6204189	4867003	4137494	3620728	3221851	3255368	3516238	3828664	2762686	2366841	2031131	1675559	1377990	1223980
Over $40M	Public	University of Cincinnati - Cincinnati	886262	832924	1099127	1185400	1101100	1032124	987785	873327	894031	909268	963907	898976	807965	680827	563432	496052	383743
Over $40M	Public	University of Colorado - Boulder	379302	335217	407201	404648	295153	256186	249897	193468	196852	204598	238960	195585	163882	136658	109625	89564	74804
$1-$5M	Public	University of Colorado - Colorado Springs			20012	16648	23612	20495	19992	15477	15142	15738	19914	16298	13657	11388	9136	7463	6233
Over $40M	Public	University of Colorado - Denver	272831	244441	296933	295360	200704	174206	169930	131558	121139	125906	139393	114092	95598	79717	63947	52246	43636
Over $40M	Public	University of Connecticut - Health Center	72033	67491	86945	111522	97360	86370	65000	55395	51802	54530	53845	42865	32488	23134	17032	14208	12218
Over $40M	Public	University of Connecticut - Storrs	199789	187193	241187	226423	197671	175356	131971	112468	105174	110713	125638	100019	75804	53981	39741	33153	28510
Over $40M	Private	University of Dayton	346582	319997	391101	410355	353424	324359	304670	258064	254752	274449	297297	247463	216008	177453	140205	118587	92213
Over $40M	Public	University of Delaware	1085136	1008444	1340145	1397492	1223203	1077102	995889	868065	868225	928398	911521	777349	749613	663926	576638	503053	447428
$5-$20M	Private	University of Denver	289030	269917	300414	277465	223189	194427	177010	156925	144746	165926	184028	137221	122584	99921	81232	72079	63286
Under $1M	Private	University of Detroit Mercy	20576	17344	22115	24275	21395	19450.648	18276.443	15949.805	16671.81	21597.725							
Over $40M	Public	University of Florida	1104573	1010590	1250603	1219026	996245	835698	738299	585695	583407	635143	681370	601813	502141	400582	392458	334801	283656
Over $40M	Public	University of Georgia	625823	572504	697155	705316	518823	517170	474596	397082	390639	396765	388422	334534	293594	249413	175495	154274	142938
$1-$5M	Public	University of Guam			15368	15960	14104		11804			10093	13996	14830					
Under $1M	Private	University of Hartford	91180	88259	101481	109295	94674	87577	65100	69166	66858	79546	80289	72539	62165	41339	36988	34762	29539
$5-$20M	Public	University of Hawaii - Hilo			2461	2458	2073	1870	1768	1521	1524	3448	3761	3255	2969	2372	2001	1658	1531
Over $40M	Public	University of Hawaii - Manoa	175987	149154	231321	231065	194886	175763	166198	141463	144790	158611	172985	146459	133623	106732	90054	74591	68894
Under $1M	Public	University of Houston - Clear Lake	18392.507	20694.007	25613	13060	11350	10501	10063	9104	9551	11016	11097	10328	10138	8771	7082	5911	5094
Under $1M	Public	University of Houston - Downtown	29036.783	25486.444	33702	20896	18160	16801	16101	14566	15281	17625	17755	16524	16221	14034	11332	9458	8150
Over $40M	Public	University of Houston - University Park	491765	441725	596925	402244	349587	323421	309944	280399	294158	339277	390617	363529	356862	308740	249294	208080	179291
Over $40M	Public	University of Idaho	166738	149190	176145	188675	169602	159920	144671	130253	126395	120361	108217	110000	95707	82431	60580	56668	50496
Over $40M	Public	University of Illinois - Chicago	164047	150156	188078	194700	162798	149177	137561	117645	105834	107811	119007	106154	86565	72439	60722	49785	40078
Under $1M	Public	University of Illinois - Springfield	8825.985	7747.74	9089	9600	12523	11475	10582	9050	8819	8984	27463	24497	19977	16717	14013	11489	9249
Over $40M	Public	University of Illinois - Urbana-Champaign	929327	858789	1043892	1100000	864080	791787	730135	615373	608545	601944	585879	522607	426168	356622	298937	245093	197307
Over $40M	Public	University of Iowa	791554	675705	935453	982428	832869	786100	737704	638996	657682	635507	537061	476800	464580	357142	292363	195001	166897
Over $40M	Public	University of Kansas - Lawrence	829025	750926	957284	966182	818506	744856	662419	572938	585749	665412	684362	613338	579734	496350	380333	308164	266289
Over $40M	Public	University of Kansas Medical Center	225714	204450	260635	260126	220367	200538	178344	161598	146437	166353	171090	153335	144934	124087	95083	77041	66572
Over $40M	Public	University of Kentucky	778890	696851	908654	957608	785196	576721	488827	412308	397763	419211	369372	327644	217394	189008	155529	136129	109575
$5-$20M	Public	University of Louisiana - Lafayette	94820.321	92242.955	100522.929					68242.464	65455.364	56256							
$1-$5M	Public	University of Louisiana - Monroe	37423.201	35022.136	41832.376	42459.222	38123.058	36487.435	35055.215	31805.049	31242.507	30715.89							
Over $40M	Public	University of Louisville	669043	599712	783345	796812	680251	607636	554840	475193	478917	503207	454521	381821	317073	258362	226431	182987	157477
Over $40M	Public	University of Maine - Orono	193064	172158	224381	231227	187672	117829	100588	83114	117829	135043	109117	134270	110507	106836	105283	88377	76887
Over $40M	Public	University of Maryland - Baltimore	163307	143408	197044	197731	172770	153311	133655	135757	135944	152023	149560	154598	119816	90646	69600	55797	42495
Over $40M	Public	University of Maryland - Baltimore County	49020	43472	63874	55835	43465	32918	26464	13576	13594	15202	14956	14961	11233	5665	4218	3382	1288
Over $40M	Public	University of Maryland - College Park	357651	325439	448881	446648	375992	332483	295816	289615	290013	324316	319061	314183	232144	178459	130764	104830	81126
$5-$20M	Public	University of Maryland - Eastern Shore	15834	14162.28	18946	19089	16101	13781	11356	9050	9063	10135	9971	9974	7489	5665	4218	3382	2575
$5-$20M	Public	University of Maryland Biotechnology Institute																	
$5-$20M	Public	University of Maryland Center for Environmental Science																	
Over $40M	Public	University of Massachusetts - Amherst	181498	160196	178584	143589	106693	91279	80469	66746	70994	70787	65247	60579	48498	46490	37185	33260	31349
$5-$20M	Public	University of Massachusetts - Boston	42037	37008.335	35851	35022	26023	22263	19627	20537	20976	20914	19277	17898	14329	13736	10987	9827	9262
$5-$20M	Public	University of Massachusetts - Dartmouth			25172	24515	18216	15584	13739	11980	11295	11262	10380	9638	7716	7395	5916	5289	4988
$20-$40M	Public	University of Massachusetts - Lowell	41096	31112	30893	31519	23421	20037	17664	17114	12908	12870	11863	11014	8818	8453	6761	6047	5700
Over $40M	Public	University of Massachusetts Medical Sch - Worcester	140567	114030	115182	66541	49443	42300	37291	37652	45178	45046	41521	38550	30862	29585	23663	21166	19949
Over $40M	Public	University of Medicine & Dentistry of New Jersey	42538	41895	44437			224620	198464	174443	156368	162131	140341	120000	110878	93458	80000	72563	53382
$5-$20M	Public	University of Memphis	183172	180116	213503	206976	179984	175755	151833.616	130439	129277	152678	153080				24763	21017	20748
Over $40M	Private	University of Miami	618236	538606	736239	741382	620435	523706	472262	411618	426955	457843	465212	428571	417809	347702	310481	264928	239691
Over $40M	Public	University of Michigan - Ann Arbor	6564144	6000827	7571904	7089830	5652262	4931338	4163382	3395225	3240661	3469536	3329637	2424588	2210932	1909282	1559375	1268575	964990
Over $40M	Public	University of Minnesota - Twin Cities	2195740	2085550	2734926	2804466	2224308	1968930	1730063	1336020	1320078	1650969	1808812	1509769	1336045	1135542	856227	733583	655971
$20-$40M	Public	University of Mississippi - Oxford	415219	332508	426553	416105	354370	334615	308888	273477	284069	240368	218320	173236	153373	131719	102756	56498	49080
$20-$40M	Public	University of Mississippi Medical Center	42919	36986	45820	78669	66998	63262	58398	60032	62357	80122	72773	57745	51124	43906	34252	18832	16360
Over $40M	Public	University of Missouri - Columbia	487450	440923	527123	643122	638181	573662	570866	433936	381177	353645	379095	350319	307008	257209	212245	182952	165186
$5-$20M	Public	University of Missouri - Kansas City	204729	196652	163433	278733	135000	121352	120760	81977	81208	85896	93629	89297	76752	63089	50167	39204	26220
$5-$20M	Public	University of Missouri - St. Louis	38996	37038	45571	58990	60419	54311	54047	35192	35127	35852	39319	34345	23616	19412	7718	6534	2622
$20-$40M	Public	University of Montana - Missoula	114172	107991	119955	123528	105588	78558	86001	79370	78154	82505	71121		53059				
Under $1M	Public	University of Nebraska - Kearney			61067	63858	57678	52115	47993	15514	15381	17993	13355	13650	12863	11122	7696	6624	5414
Over $40M	Public	University of Nebraska - Lincoln	742983	627203	793865	830160	749813	677489	623910	581789	576798	629855	590875	429991	405180	350354	242428	208658	170553
$1-$5M	Public	University of Nebraska - Omaha			36640	191575	173034	156344	143979	38786	38453	39617	81168	68253	64314	55612	38480	33120	27072
Over $40M	Public	University of Nebraska Medical Center	171458	144739	183200	191575	173034	156344	143979	139629	138432	149599	225466	170631	160786	139030	96202	82801	67680
$20-$40M	Public	University of Nevada - Las Vegas	146766	114734	129647	134324	121177	39595	51341	42301	39595	44123	46078	82895	75100	63738	49526	37672	30222
Over $40M	Public	University of Nevada - Reno	200646	185684	237198	240328	79796	66088	56828	44450	119242	128147	128789	117139	105723	90636	78006	67478	59233
$1-$5M	Private	University of New England	23889.106	21019.742	28412	28476	24424	22474	20606	18580	17798		20026	21812	19768				
Over $40M	Public	University of New Hampshire - Durham	206402	182254	237339	268245	211214	182756	166496	141236	136134	148256	156016	135880	88596	76077	64733	56078	48715
Under $1M	Private	University of New Haven	17586.087	12363.55	12104.493	12286.845	10649.433	9273.332	8583.7	6407.418	5753.093	6009.075							
Over $40M	Public	University of New Mexico - Albuquerque	295792	279690	342648	320200	276141	245234	228680	201486	170830	186655	202558	193377	183210	155499	133385	119014	103765
$5-$20M	Public	University of New Orleans				50893			28543	28352									
$1-$5M	Public	University of North Carolina - Asheville	23212	21119	24762	22720	18769	15939	14909	13108	13575	14693	15190	13310	11848	10046	8264	6377	5413
Over $40M	Public	University of North Carolina - Chapel Hill	1979222	1905081	2353191	2164444	1149222	1486147	1317211	1097418	1070772	1045750	1105254	925746	847420	719900	596841	264571	231789
$5-$20M	Public	University of North Carolina - Charlotte	105536	105915	147753	147174	105306	99530	86999	73236	69866	80444	81953	78205	72821	60400	50159	42191	33580
$5-$20M	Public	University of North Carolina - Greensboro	170797	152256	184017	183751	155642	131505	118932	102201	98766	106825	107936	102199	94379	75628	60031	52425	40819
Under $1M	Public	University of North Carolina - Pembroke	11803.086	11752.229	10595.073	10102.662	8173.67	6012.336	4811.598	5426	3612.924	3759.158							
$5-$20M	Public	University of North Carolina - Wilmington	51967	48931.253	55083	50794	42807	33544	29654	23380	22881	23419	22860	20528	18539	14247	10802	8778	7676
Over $40M	Public	University of North Dakota	100972	94018	10582														
$1-$5M	Public	University of North Florida	69228	66385	95209	88785	76126.891	63807	52803	43779	35869	35133	32828	32688	26724	18082	14073	7152	8605
$5-$20M	Public	University of North Texas	82513	80976	89967	92584	66708	57850	50836	45866	36349	41730	46369	39110	29740	27881	20416	18394	13225
$20-$40M	Public	University of North Texas Health Science Center				54938.276	52170.611	55701.632	51574.042										
$1-$5M	Public	University of Northern Colorado	66143	61482	80169	82964	76580.451	72193.965	67220.272	69931.5	69175.358	73480.14							
Under $1M	Public	University of Northern Iowa	56988.386	49964.453	72471.992	65780	57543	51640	46243	41014	31267	34255	36076						
Over $40M	Private	University of Notre Dame	5234841	4795303	6225688	5976973	4436624	3650224	3095703	2573346	2554004	2829914	3089007	1984256	1766176	1467808	1191956	996895	878928
Over $40M	Public	University of Oklahoma - Norman	688590	602855	749107	792420	662617	536485	435649	412068	398805	384432	417909	338762	296040	243195	194732	160730	140000
Over $40M	Public	University of Oklahoma Health Sciences Center	279891	245042	304489	322006	297698	241029	195727	176601	170917	164757	131971	145184	126874	104227	83456	68884	60000
Over $40M	Public	University of Oregon	409881	386509	470515	455583	365859	304024	267903	234823	227990	246528	251359	214503	180825	140181	114653	88630	70653
Over $40M	Private	University of Pennsylvania	5668937	5170538	6211622	6635187	5313268	4369782	4018660	3547473	3393297	3381848	3200812	3281342	3059401	2535312	2108961	1675740	1464455
Over $40M	Public	University of Pittsburgh - Pittsburgh	2032798	1837216	2333602	2254379	1802859	1529884	1364882	1156618	1146642	1103082	1018015	854840	776932	651738	542756	461002	386967
Under $1M	Private	University of Portland	79989	70983	94511	96315	81212	71823	66296	64065	68942	64952	56445	55315	52668	42386	38996	33724	30361
$1-$5M	Public	University of Puerto Rico - Cayey																	
$1-$5M	Public	University of Puerto Rico - Humacao																	
$5-$20M	Public	University of Puerto Rico - Mayaguez																	
$20-$40M	Public	University of Puerto Rico - Medical Sciences																	
$5-$20M	Public	University of Puerto Rico - Rio Piedras																	
Under $1M	Private	University of Puget Sound	217691	195505	244480	259302	222688	201767	190219	167594	168702	188427	208890	190425	165715	138497	115991	98136	77123
$1-$5M	Private	University of Redlands	94237	89621	122971	125950	110929	95875	80300	61176	55314	59990	60896	54231	50883	46468	40239	35955	32463
Over $40M	Public	University of Rhode Island	84932	72589	88028	95069	79795	71661	63865	49354	53147	61118	64881	58740	47991	39590	30191	22744	17948
$1-$5M	Private	University of Richmond	1614871	1417214	1704350	1654988	1387834	1207573	1103465	996710	998201	1122055	1068708	803252	752309	672672	551542	443885	402620
Over $40M	Private	University of Rochester	1367878	1314603	1730772	1726318	1491275	1369969	1261562	1127350	1141722	1245406	1278774	1119027	1069641	947648	808381	719541	624407
Under $1M	Private	University of San Diego	259994	220840	268155	256472	204703	172023	157117	96995	87953	96620	107926	95289	73924	66398	50998	45445	37812
Under $1M	Private	University of San Francisco	181959	165354	215584	216171	190117	170578	159219	138570	132462	143896	148825	141211	126203	106224	79652	67049	60356
Under $1M	Private	University of Scranton	106344	94596	112165	120073	104039	95198	89160	78748	82397	88549	93775	82796	72121	57053	49048	40798	35968
$5-$20M	Public	University of South Alabama - Mobile	263634	345207	290948	318769	290502	249494	265603	241000	249494	277929	306193			313819	247502	224357	194291
Over $40M	Public	University of South Carolina - Columbia	414002	391468	425150	438514	385300	329791	329791	312548	292562	302678	267740	253775	219279	146038	102209	88438	78317
$5-$20M	Public	University of South Dakota	125979	114722	119000	118829	101680	78452	71662	58185	58309	59513	54118	47042	42935	37358	31467	28212	24673
Over $40M	Public	University of South Florida - Tampa	295921	275398	360035	388516	329832	298241	270906	234184	245803	253897	237027	202784	189459	146501	108787	79320	65465
Over $40M	Private	University of Southern California	2947978	2671426	3589225	3715272	3065935	2746051	2399960	2113666	2130977	2086245	2152589	1589833	1432786	1204672	1022339	883798	791355
$5-$20M	Public	University of Southern Maine		22904.974	26723.233	15864	21231.22	7989	16720.404	9049	7989	13430	13576	12763	11151	9582	7931	5584	5514
Over $40M	Public	University of Southern Mississippi	60865	56754	62319														
Under $1M	Private	University of St. Thomas (MN)	294008	252132	350965	359350	300404	271316	264969	226989	212669	221123	233977	218769	208241	176389	135456	122804	111198
$1-$5M	Public	University of Tennessee - Chattanooga	100926	77340	109786	167957	147577	100850	133217	130283	86611	127386	81806	74733	66692			59629	54093
Over $40M	Public	University of Tennessee - Knoxville	509441	522838	688768	742541	627515	547352	506225	444146	446948	385850	384617	151240	134076	112490	93550	78580	65944
Under $1M	Public	University of Tennessee - Martin	18846	24844.433	31995	33967	28675	17642	26643	17765	17642	22452	15309	18905	16759	14061	11694	9822	8243
Over $40M	Public	University of Tennessee Health Science Center						123499			123499	139048	156209	129000	113964	95616	79518	66973	56053
$20-$40M	Public	University of Texas - Arlington	68206.358	53464.752	60955	57646	50750	45635	38512	34735	28859	31366	35214	29822	24834	23200	17352	12627	15668
Over $40M	Public	University of Texas - Austin	6436007	5798329	6895038	7190136	6268407	5594393	2038938	1640724	1351158	1463114	1611050	1355016	1030876	1020735	831674	763845	674546
$20-$40M	Public	University of Texas - Dallas	229176.295	195053.618	250605	263975	236111	222424	195714	181753	171653	190257	187273	136778	121056	48857	48251	46850	43885
$20-$40M	Public	University of Texas - El Paso	153145.848	134231.088	151201	157974	141534	132056	117563	107008	96135	105946	112029	97445	59791	60919	49253	27343	26033
$5-$20M	Public	University of Texas - Pan American	52150.712	53686.369	62063	67204	58568	54310	50748	35493	32032	35193	35188	30072	25856	23487	16517	14998	16529
Under $1M	Public	University of Texas - Permian Basin	16839.931	15254.934	17848	18814	16747	15250	13147	10582	9653	10818	12043	10170	8420	8339	6402	5588	3930
$20-$40M	Public	University of Texas - San Antonio	60305.084	46665.08	54084	53765	44430	36386	30218	25148	21780	23071	24379	20675	17100	17116	10510	9124	7961
$1-$5M	Public	University of Texas - Tyler	62745.467	57904.862	66887	65582	58149	53508	45152	40349	37432	42104	47822	39490	33385	17545	17296	16598	16321
Over $40M	Public	University of Texas Health Science Center - Houston	171024	154525	182119	187444	157148	141070	113459	99139	87927	88680	96519	77088	39200	34751	25558	21381	19015
Over $40M	Public	University of Texas Health Science Ctr - San Antonio	372299	343931	409307	405177	346235	319886	278385	246573	226799	252520	293090	252852	44530	24057	21374	19457	18291
Over $40M	Public	University of Texas MD Anderson Cancer Center	1059791	547314	630293	564505	457727	421936	357890	205089	263643	278151	300480	256739	130168	85798	82917	79164	77292
Over $40M	Public	University of Texas Medical Branch - Galveston	427157	394171	474018	496876	432172	397054	352268	306674	295898	316291	342602	302115	231201	143385	129135	153589	122952
Over $40M	Public	University of Texas SW Medical Center - Dallas	1310241	1145445	1368760	1434560	1143426	980022	804305	656221	724188	644909	713253	593224	501905	350419	278217	239895	207659
$1-$5M	Public	University of the District of Columbia																	
$1-$5M	Private	University of the Pacific	181077	164525	208852	220500	195744	178295	163422	136693	128686	130922	118725	111400	95098	77800	73322	63010	54338
Under $1M	Private	University of the Sciences	134953	113443	145652	149174	127333	115674	97189	77429	77886	85217	93208	91124	85131	77009	68717	63239	51413
$5-$20M	Public	University of the Virgin Islands																	
$20-$40M	Public	University of Toledo	162008	136767	175578	183920	137989	127715	111511	96614	99629	110426	116401	107523	97786	80347	66928	56704	47512
$5-$20M	Private	University of Tulsa	691917	646672	836790	915320	816980	769551	701948	640119	679691	730949	725470	684138	613948	547624	477001	396333	361825
Over $40M	Public	University of Utah	567814	513400	594545	610469	509095	458531	394461	333253	324624	340947	317268	269430	238434	192201	149692	127721	115124
Over $40M	Public	University of Vermont	291182	271536	329776	336363	282594	243633	224259	192786	191833	202029	201781	180423	165985	144798	126958	111270	95946
Over $40M	Public	University of Virginia	3906823	3577266	4526211	4370209	3618172	3219098	2793225	1800882	1686625	1708199	1738984	1398068	1227880	1098539	937206	823935	724750
Over $40M	Public	University of Washington - Seattle	1829868	1649159	2161438	2184374	1689528	1489924	1315894	1103197	1111726	927806	911804	745217	634872	527621	436300	359508	297692
$1-$5M	Public	University of West Florida	50356	47437	61353	64239	55035	53393	50203	44094	46075	51213	57810	54319	52355	45439	40225	33090	25327
Under $1M	Public	University of West Georgia	13487.214	12385.522	16086.809	20368.618	17699.942	13267.213	11900.824	9550.672	8090.894								
Under $1M	Private	University of Western States																	
$1-$5M	Public	University of Wisconsin - Eau Claire	26783	24002	28609	29747	24997	23465	22542	19635	18683.925	20442.245							
Under $1M	Public	University of Wisconsin - Green Bay																	
$1-$5M	Public	University of Wisconsin - La Crosse																	
Over $40M	Public	University of Wisconsin - Madison	1852580	1566882	2119513	1916701	1639015	1327023	1046722	850335	1000857	1075354	1080363	909834	783245	651330	520133	407668	378991
$5-$20M	Public	University of Wisconsin - Milwaukee	72636.258	65362.243	71977	68066	59570	35167				21907	23701	3745	3512	3600	3814	2371	2641
Under $1M	Public	University of Wisconsin - Oshkosh	11064				12647.557			458.469	7661.888								
Under $1M	Public	University of Wisconsin - Parkside																	
Under $1M	Public	University of Wisconsin - Platteville																	
Under $1M	Public	University of Wisconsin - River Falls	9514.009																
$1-$5M	Public	University of Wisconsin - Stevens Point																	
Under $1M	Public	University of Wisconsin - Stout	26770.055	20922.167	26952	25073	23033	20153	18226.073	16163	16596	18369	20316						
$1-$5M	Public	University of Wisconsin - Superior	7284																
Under $1M	Public	University of Wisconsin - Whitewater											8365	7193	5167	3125	2418	1821	1297
$20-$40M	Public	University of Wyoming	285143	249362	298527	304170	259773	219097	194730	149807	129473	135445	141132	136140	121499	104687	91034	87261	78046
Under $1M	Private	Ursinus College	91822	84340	104348	116005	103268	94991	92183	77595	81617	93059	102468	97921	96578	84070	70427	55205	46835
Over $40M	Public	Utah State University	172332	151184	145599	130544	110319	89155	81333	73372	74171	79213	76878	64821	53249	44408	34761	28106	25084
Under $1M	Private	Valparaiso University	140406	140753	199045	192973	166852	143096	130427	115307	118295	132924	145423	135635	121923	103473	81065	70688	62480
Over $40M	Private	Vanderbilt University	3044000	2867541	3459439	3487500	2946392	2628437	2296262	2019139	2019612	2159614	2314935	1831766	1539242	1339788	1135014	952820	838386
Under $1M	Private	Vanguard University of Southern California																	
$1-$5M	Private	Vassar College	699492	658239	848717	869122	741655	672010	608261	546854	554199	616174	675113	578423	554974	472973	403287	350690	316223
$5-$20M	Private	Villanova University	297684	266701	355255	335734	278606	238765	207198	174700	173997	175473	175512	156092	134856	109779	87414	69025	57210
Over $40M	Public	Virginia Commonwealth University	280704	252903	330482	329199	265653	235279	219530	184017	185127	218321	225674	200793	183101	152181	121836	103857	88146
Under $1M	Public	Virginia Military Institute	302683	234654	343516	394848		303213	271889	230212	231202	262319	260708	263853	248828	208785	171683	141576	123841
Over $40M	Public	Virginia Polytechnic Institute and State University	502380	451744	527629	524731	447405	408560	370811	331311	328680	359528	368197	340244	331013	285704	244538	201101	165100
$5-$20M	Public	Virginia State University	16992	13821	22296	20860													
Under $1M	Private	Voorhees College	4200																
Under $1M	Private	Wabash College	303560	272154	367656	413212	363466	334142	316377	298264	271562	303038	321103	320868	270401	234089	192925	167849	148798
Over $40M	Private	Wake Forest University	937639	886761	1148297	1248695	1042558	906803	812192	725155	732570	812389	969618	857938	752923	614661	499798	421712	402415
$1-$5M	Private	Washington & Jefferson College	81947	75605.633	98631	101567	92024	75164	77495	71648	75164	85508	95693	96949	100819	89183	74425	64062	55985
Under $1M	Private	Washington and Lee University	1008161	897141	718907	692797	586968	531992	477504	416855	435561	438392	399567	683123	768376	640891	501295	376237	292249
Over $40M	Public	Washington State University - Pullman	668865	619766	678553	650903	579861	553287	515571	495623	473225	468849	437093	421402	382807	330959	292512	262833	225419
Over $40M	Private	Washington University in St. Louis	4473180	4080554	5350470	5567843	4684737	4268415	4000823	3470072	3517104	3951509	4234599	3761686	3445743	2798221	2305686	2060963	1737957
Over $40M	Public	Wayne State University	223740	204529	241427	236659	202000	185380	173623	147845	148679	159506	158841	146275	134275	108529	86403	70000	63149
Under $1M	Public	Weber State University	62155	52103			63665.193	63665.169	55953.812	48550.057	45222.593	46085.081							
Over $40M	Private	Weill Cornell Medical College	985182	892359	969387	976452	779330	681200	584038	513859	513674	567249	609195	516439	455017	382513	329253	265604	224816
$1-$5M	Private	Wellesley College	1306796	1266437	1611319	1656565	1412410	1275529	1179988	1043476	1031991	1135925	1253385	887489	780872	691088	605509	525487	484126
$1-$5M	Private	Wesleyan University	504406	476481	652208	710800	619761	564879	517631	472251	484289	520674	572542	530323	484654	433720	372131	334568	315368
$1-$5M	Public	West Chester University of Pennsylvania	17556	12338	14417	14908	12733	11882	10870	9544	8742	8683	8598	7695	6580				
Under $1M	Public	West Liberty University																	
$1-$5M	Public	West Texas A&M University	48581.948	46610.783	66594	68298	45000	48646	42856	22056	14974	36278	29440	26226	17658	14757	12290	11100	10279
Under $1M	Public	West Virginia School of Osteopathic Medicine																	
$1-$5M	Public	West Virginia State University	3692	3218		4079.77	3111.826	2766.085											
Over $40M	Public	West Virginia University	337127	315121	432697	436931	380785	327997	303532	275058	271970	274140	283688	254576	218720	178497	144103	123186	104245
$1-$5M	Public	Western Carolina University	40845	33858	35189	32700	28504	24509	23053	19820	18835	21059	21151						
Under $1M	Public	Western Connecticut State University	10744	8105.633	9691.772	10779.449	8054.371	6777.202		4961.686		4551.031							
Under $1M	Public	Western Illinois University	22776	19605	30924	29876	24717	21951	20202	17718	17025	17562	16350	15307	12508	9285	7814	6857	5784
$5-$20M	Public	Western Kentucky University	102730	95424	104579	102155	85723	75394	69800	56400	48544	41758	36179		23958	19317	17371		
$5-$20M	Public	Western Michigan University	168668	141355	187997	197742	168398	150242	136786	110543	109755	107941	106111	92590	79527	65431	54949	38810	31441
Under $1M	Public	Western Oregon University																	
$1-$5M	Public	Western Washington University	31323	26813	29183	29275.932	25389	12580	19500	15525	12580	13963	13962	13705	11699	9708	6706	5076	3970
Under $1M	Private	Western University of Health Sciences	7913					6751.15	5951.103	5471.976	5614.674								
$5-$20M	Private	Wheeling Jesuit University		13020.053	17225.411	21176.546	17455.715	13559	14235.187		13559	19515	20798	18339	15550	13252	10533		
Under $1M	Private	Whitman College	334814	296723	387566	391366	340803	311821	295764	261787	257601	282156	313244	253063	230265	201471	172709	148909	130383
Under $1M	Private	Whittier College	65037	60841	77857	79966	68990	64283	60699	51326	51214	55034	54628						
$5-$20M	Public	Wichita State University	177017	147339	196393	189337	161301	138868	128548	122836	125061	135804	125444	122098	113288	93796	81886	66789	60734
Under $1M	Private	Widener University - Chester	61068	58224	81933	85790	68622	46426	42202	37421	32808	36164	38952	34909	27160	22510	18673	14863	11623
Under $1M	Private	Wilberforce University																	
Under $1M	Private	Wiley College																	
Under $1M	Private	Wilkes University	38016	29943.319	43545	44550	39823	35845	32434	27374	25579			24274	23605	22489	20602	18492	17138
Under $1M	Private	Willamette University	207834	187605	267261	268448	233966	214376	199629	179911	189252	203637	212363	193186	176567	146834	129245	108989	97822
Under $1M	Public	William Paterson University of New Jersey																	
$1-$5M	Private	Williams College	1526571	1409056	1808280	1892055	1462131	1348374	1229516	1082336	1060043	1207408	1357589	923243	724354	617415	510006	426445	385865
Under $1M	Public	Winona State University	14667.493	13035.691	18783	21194	14516.278	18465	5887	4332		10351.33							
Under $1M	Public	Winston-Salem State University	21721	19624	24763	21759	18264.528	16830.869	15482.487	14078.232	13991.681	13678.266							
Over $40M	Private	Woods Hole Oceanographic Institution		264541		383400		234600		269300	234600	268200	278829	270500	230700	208444	173798	158482	135665
$5-$20M	Private	Worcester Polytechnic Institute	307680	291603	384754	404745	353720	285842	281582	254570	262198	299489	343967	251120	227773	192532	162888	142248	126524
$20-$40M	Public	Wright State University - Dayton	63871	58758	80265	89075	77485	73825	41314	33999	31101	33931	44219	34054	28328	22462	18416	16702	14506
$1-$5M	Private	Xavier University of Louisiana							48472	39814.68	33277.081	30521.284							
Over $40M	Private	Yale University	16652000	16327000	22869700	22530200	18030600	15224900	12747150	11034600	10523600	10725100	10084900	7197900	6624449	5742000	4853010	3959080	3529000
Over $40M	Private	Yeshiva University	1027662	979433	1344701	1409576	1273327	1148687	1003024	914130	864020	831438	775262	674833	638911	532581	441365	353387	313978
$1-$5M	Public	Youngstown State University	164718	150783	164859	172960		144942	144476	134771	128620	137533	143676	136591	123070	106553	85975	72547	60495
