UNITID	NAME	Enhanced Name	CITY	STABBR	BASIC2010	IPUG2010	IPGRAD2010	UGPROFILE2010	ENRPROFILE2010	SIZESET2010	ENG2010	CCBASIC	CCIPUG	CCIPGRAD	CCUGPROF	CCENRPRF	CCSIZSET	CC2000	ENROLLMENT	OBEREG	ICLEVEL	CONTROL	LOCALE	ACCRED	HBCU	TRIBAL	WOMENS	HSI	MSI	LANDGRNT	COPLAC	URBAN	AATOT	BATOT	MATOT	DOCTOT	DOCTOTX2	FPTOT	UGCIP	MACIP	NDOCCIP	DOCCIP	GPCIP	CIP4U	CIP4GP	COEXIST	PCARTSCI	PC_AS_ND	PCEDU_ND	PCBUS_ND	PCPF_ND	MEDICAL	PCEDU_D	PCHMSC_D	PCSTEM_D	PCPROF_D	HUM_D	SOC_D	STEM_D	PROF_D	SATPCT	ACTPCT	SATVR25	SATMT25	ACTCM25	PCPT2	PCDGPT4	PCGPFTE	UGFTE	ENRFTEDS	UGENTERN	STEM_EXP	NONSTEM	RESSTAFF	FACFTTOT	UGCIP1X	UGPCT1X	UGCIP2X	UGPCT2X	GPCIP1X	GPPCT1X	GPCIP2X	GPPCT2X	DATA_Rev
106245	University of Arkansas at Little Rock	University of Arkansas Little Rock	Little Rock	AR	17	10	18	6	4	12	3	17	10	18	6	4	12	16	13132	5	1	1	12	5	0	0	0	0	0	0	0	1	244	1084	509	22	22	121	20	15	16	3	16	46	30	28.3	45.6	10.6	24.1	16.5	48.7	2	54.5	0.0	45.5	54.5	0	0	10	12						44.4	38.5	20.3	7179	8572	2056	6511	3355	6	512	52	16.6	51	15.4	13	25.2	22	18.6	0
109785	Azusa Pacific University		Azusa	CA	17	10	18	11	5	14	3	17	7	16	11	5	14	21	8539	8	1	2	21	8	0	0	0	0	0	0	0	0	0	1215	1220	36	36	55	19	8	8	2	8	30	12	20.0	53.7	20.0	59.4	10.0	10.6	2	37.5	0.0	0.0	100.0	0	0	0	8	86	38	490	490	21	14.6	14.6	36.2	4400	6898	1385					52	20.9	51	17.5	13	59.1	45	11.4	2
110097	Biola University	Biola University	La Mirada	CA	17	10	18	11	4	14	0	17	10	18	11	4	14	16	5942	8	1	2	21	8	0	0	0	0	0	0	0	0	0	849	264	34	16	39	18	7	7	2	7	31	14	19.4	44.5	22.8	13.9	11.2	52.1	2	0.0	0.0	0.0	100.0	0	0	0	16	90	34	500	480	21	8.8	8.2	24.5	3704	4847	1095					52	19.4	39	15.7	39	46.6	38	19.0	2
110316	California Institute of Integral Studies		San Francisco	CA	17	5	18	9	6	9	0	17	3	16	9	6	6	59	1279	8	1	2	11	8	0	0	0	0	0	0	0	0	0	59	212	42	27	0	1	7	7	5	8	1	10	100.0	100.0	36.8	0.0	4.2	59.0	2	0.0	23.8	0.0	76.2	8	2	0	17						12.9	12.9	94.5	64	1160										42	57.9	38	15.0	0
110468	Alliant International University	Alliant International University	San Diego	CA	17	10	18	6	6	13	0	17	13	18	9	6	10	59	4157	8	1	2	11	8	0	0	0	0	0	0	0	0	0	80	607	376	97	0	6	6	6	4	6	9	19	44.4	50.0	33.6	14.2	20.3	32.0	2	5.6	7.4	0.0	92.6	0	28	0	69						33.3	31.8	96.1	121	3031						52	50.0	42	30.0	42	64.9	52	14.1	0
114549	Fielding Graduate University		Santa Barbara	CA	17	-1	18	-1	6	18	3	17	-1	18	-1	7	18	59	1695	8	1	2	13	8	0	0	0	0	0	0	0	0	0	0	181	128	92	0	0	4	4	4	4	0	5	0.0	-1.0	6.1	21.5	46.4	26.0	2	28.9	3.1	0.0	96.9	0	4	0	88								100.0	0	1506										52	42.1	42	28.5	0
115746	Pacifica Graduate Institute		Carpinteria	CA	17	-1	18	-1	7	18	0	17	-1	16	-1	7	18	59	663	8	1	3	22	8	0	0	0	0	0	0	0	0	0	0	144	70	31	0	0	2	2	2	2	0	4	0.0	-1.0	41.7	0.0	0.0	58.3	2	0.0	44.3	0.0	55.7	15	16	0	0								100.0	0	634										42	72.4			0
117140	University of La Verne	University of La Verne	La Verne	CA	17	10	18	7	5	13	0	17	13	18	8	5	13	16	7482	8	1	2	21	8	0	0	0	1	0	0	0	0	0	1040	974	74	74	74	19	7	8	3	8	37	17	16.2	44.2	2.1	39.6	40.8	17.5	2	78.4	5.4	0.0	94.6	0	4	0	70	88	25	440	440	18	38.5	37.3	47.0	2855	5138	868					52	36.2	19	11.3	13	42.2	52	38.1	0
120883	University of the Pacific	University of the Pacific	Stockton	CA	17	10	18	13	5	14	0	17	10	18	13	5	14	16	6401	8	1	2	11	8	0	0	0	0	0	0	0	0	0	743	212	59	27	622	22	9	9	3	9	47	19	19.1	51.3	4.0	6.5	2.3	87.3	1	28.8	3.4	0.0	96.6	0	2	0	25	93	37	510	540	23	3.3	3.2	41.2	3423	5811	1130	5934	2617	0	440	52	18.3	26	14.4	51	50.7	22	34.4	0
121150	Pepperdine University	Pepperdine University	Malibu	CA	17	10	12	12	5	14	0	17	10	18	12	6	14	16	7733	8	1	2	21	8	0	0	0	0	0	0	0	0	0	829	1226	66	66	221	18	8	8	1	8	38	13	13.2	45.0	7.9	10.3	47.5	34.3	2	100.0	0.0	0.0	100.0	0	0	0	66	81	0	550	560		11.3	11.1	48.8	3181	6193	880	422	135	0	365	52	29.5	9	24.9	52	44.9	42	20.9	0
122436	University of San Diego	University of San Diego	San Diego	CA	17	10	18	13	5	13	3	17	7	18	13	5	13	16	7868	8	1	2	11	8	0	0	0	0	0	0	0	0	0	1264	633	25	25	327	18	10	10	2	10	34	23	20.6	56.6	4.7	14.3	25.8	55.2	2	60.0	0.0	0.0	100.0	0	0	0	25	82	50	550	565	25	4.2	3.8	28.5	4968	6907	1526	621	863	0	381	52	39.7	45	13.9	22	39.2	52	25.2	0
122612	University of San Francisco	University of San Francisco	San Francisco	CA	17	10	18	11	5	13	3	17	10	18	11	5	13	16	9008	8	1	2	11	8	0	0	0	0	0	0	0	0	0	1297	1031	61	61	196	20	15	15	2	15	39	28	35.9	48.9	12.4	12.1	26.4	49.1	2	82.0	0.0	0.0	100.0	0	0	0	61	84	43	500	510	22	3.8	3.1	36.8	5380	8435	1570	1086	650	0	386	52	33.4	45	14.3	52	25.2	22	17.5	0
125231	Walden University	Walden University	Minneapolis	MN	17	17	18	5	6	15	0	17	17	18	5	6	15	16	40714	4	1	3	11	5	0	0	0	0	0	0	0	0	0	272	7007	344	321	0	1	10	10	7	11	5	41	100.0	0.0	7.2	66.9	10.0	15.9	2	55.2	11.0	3.2	85.8	0	38	11	272						88.4	88.1	93.5	2297	33258						52	100.0			13	66.4	51	12.6	0
126827	Colorado Technical University	University of Colorado at Colorado Springs	Colorado Springs	CO	17	17	17	5	5	9	0	18	11	18	5	5	9	21	2690	7	1	3	11	5	0	0	0	0	0	0	0	0	53	151	140	25	25	0	6	4	4	2	4	11	11	72.7	14.6	2.1	0.0	65.7	32.1	2	0.0	0.0	52.0	48.0	0	0	13	12						54.9	54.4	28.6	1251	1733	498					52	45.6	11	20.1	52	63.0	11	19.4	0
127741	University of Northern Colorado	University of Northern Colorado	Greeley	CO	17	10	15	11	4	16	0	17	8	15	11	4	16	16	12711	7	1	1	13	5	0	0	0	0	0	0	0	0	0	2012	475	74	68	0	18	15	15	7	15	35	30	48.6	57.1	23.8	36.8	0.0	39.4	2	35.1	9.5	8.1	82.4	5	2	6	55	19	94	470	470	20	12.4	8.1	13.6	9442	10681	3406	1666	628	0	488	52	14.3	51	10.7	13	36.6	51	15.7	0
131113	Wilmington University		New Castle	DE	17	13	9	5	5	12	0	17	13	12	5	5	12	16	9650	2	1	2	21	3	0	0	0	0	0	0	0	0	51	963	1275	0		44	14	7	7	0	7	25	21	44.0	29.5	0.0	61.3	21.7		2														45.7	45.7	32.5	4098	6069	1781					52	29.7	51	10.7	13	61.3	52	21.7	0
131159	American University	American University	Washington	DC	17	8	15	12	5	17	0	17	8	15	13	5	14	15	12241	2	1	2	11	3	0	0	0	0	0	0	0	0	1	1384	1359	54	47	444	20	19	19	7	19	38	42	60.5	70.5	33.7	10.6	9.2	46.5	2	9.3	61.1	3.7	35.2	1	32	2	12	88	50	590	580	26	3.7	2.7	38.1	6485	10208	2034	1010	4424	0	646	45	42.0	52	14.8	22	31.1	45	19.4	0
132471	Barry University		Miami	FL	17	13	18	9	5	13	0	17	13	18	8	5	12	21	8846	5	1	2	21	7	0	0	0	1	0	0	0	0	0	1386	839	27	27	224	21	12	13	2	13	40	33	40.0	34.5	10.3	14.7	10.2	64.7	2	59.3	0.0	0.0	100.0	0	0	0	27	75	0	420	410		18.5	17.0	37.1	4470	7029	1079	697	0	0	341	52	20.2	51	19.6	51	25.8	13	15.8	0
132657	Lynn University		Boca Raton	FL	17	13	18	9	4	10	0	20	13	18	9	3	11	21	2224	5	1	2	13	7	0	0	0	0	0	0	0	0	0	442	140	25	25	0	11	5	5	2	5	16	6	25.0	36.9	17.1	17.9	65.0	0.0	2	52.0	0.0	0.0	100.0	0	0	0	25	79	35	410	410	17	11.5	9.2	15.7	1649	1934	469					52	43.4	9	16.1	52	62.4	13	23.0	0
133650	Florida Agricultural and Mechanical University	Florida A&M University	Tallahassee	FL	17	13	18	9	4	17	0	17	13	18	10	4	16	21	12274	5	1	1	12	7	1	0	0	0	1	1	0	0	47	1435	271	28	17	276	24	13	14	4	14	47	27	36.2	24.6	11.0	6.8	16.5	65.8	2	17.9	0.0	17.9	82.1	0	0	5	12	70	72	410	410	17	9.5	8.3	16.0	9593	11354	3037					52	19.9	51	16.4	51	31.0	22	27.8	2
133881	Florida Institute of Technology	Florida Institute of Technology	Melbourne	FL	17	14	17	12	5	14	0	16	14	17	13	5	14	16	8227	5	1	2	13	7	0	0	0	0	0	0	0	0	1	449	881	40	25	0	13	12	12	7	12	31	35	71.0	33.0	19.5	0.3	55.7	24.4	2	2.5	7.5	52.5	40.0	0	3	21	1	71	39	500	540	23	21.8	18.6	27.6	4293	5791	732	8481	751	5	240	14	41.6	49	17.7	52	53.3	14	15.1	0
137148	Argosy University-Sarasota		Sarasota	FL	17	5	18	5	6	9	0	17	10	18	5	6	9	16	1815	5	1	3	21	5	0	0	0	0	0	0	0	0	0	5	194	218	218	0	2	4	4	4	5	2	10	50.0	80.0	0.0	72.2	6.7		2	62.8	0.0	0.0	100.0	0	0	0	218						75.0	75.0	97.6	32	1333	18					42	80.0	52	20.0	13	67.2	52	12.4	0
138354	The University of West Florida	University of West Florida	Pensacola	FL	17	10	12	8	4	12	0	17	10	12	8	4	12	21	11143	5	1	1	13	7	0	0	0	0	0	0	0	0	122	1799	410	26	26	0	23	14	14	1	14	45	22	37.8	41.3	25.6	36.3	27.6	10.5	2	100.0	0.0	0.0	100.0	0	0	0	26	30	70	490	470	20	28.4	26.1	12.1	7397	8191	2873	3681	10456	0	318	52	17.8	13	17.3	13	40.1	52	25.9	0
138947	Clark Atlanta University	Clark Atlanta University	Atlanta	GA	17	13	15	9	4	13	0	16	10	18	9	4	13	16	3873	5	1	2	11	7	1	0	0	0	1	0	0	0	0	493	152	28	28	0	18	9	9	7	11	27	19	37.0	30.8	5.3	16.4	31.6	46.7	2	57.1	17.9	21.4	60.7	2	3	6	17	70	30	410	400	18	4.2	4.2	12.4	3112	3551	876	7373	113	8	178	9	26.4	52	22.1	44	34.4	52	26.7	0
139931	Georgia Southern University	Georgia Southern University	Statesboro	GA	17	13	12	11	3	16	0	17	13	12	11	3	15	21	19086	5	1	1	42	7	0	0	0	0	0	0	0	0	0	2378	497	55	55	0	21	13	13	1	13	56	25	28.6	29.2	12.3	39.8	26.0	21.9	2	100.0	0.0	0.0	100.0	0	0	0	55	82	42	510	510	21	10.2	6.2	9.2	15361	16498	5311	1019	3185	0	754	52	24.8	13	12.9	13	45.8	52	23.4	0
144740	DePaul University	DePaul University	Chicago	IL	17	11	15	11	5	15	3	17	11	15	8	5	15	16	25072	3	1	2	11	5	0	0	0	0	0	0	0	1	0	3131	2672	30	21	320	21	19	19	4	19	52	56	69.2	51.3	25.0	18.0	28.4	28.5	2	16.7	36.7	16.7	46.7	3	8	5	5	24	89	510	500	21	18.4	16.7	32.2	14208	20730	2531	1293	2031	0	919	52	33.1	45	10.2	52	28.1	11	18.8	0
145619	Benedictine University		Lisle	IL	17	13	18	8	5	13	0	18	10	13	8	4	9	21	5836	3	1	2	21	5	0	0	0	0	0	0	0	0	90	723	637	28	28	0	19	6	6	2	6	38	11	7.9	26.8	1.9	41.4	41.8	14.9	2	46.4	0.0	0.0	100.0	0	0	0	28	5	96	440	450	20	32.6	30.7	33.6	2626	3885	538					52	50.5	51	15.4	52	42.3	13	41.7	0
145770	Argosy University-Chicago		Chicago	IL	17	5	18	5	6	9	0	26	-2	-2	-2	6	-2	59	1348	3	1	3	11	5	0	0	0	0	0	0	0	0	0	81	197	25	25	75	2	3	3	2	3	2	5	50.0	93.8	0.0	18.8	12.5		2	92.0	0.0	0.0	100.0	0	0	0	25						40.2	40.2	89.3	120	1120	22					42	93.8	52	6.2	42	63.0	13	24.9	0
145813	Illinois State University	Illinois State University	Normal	IL	17	14	18	13	3	16	0	17	14	18	13	3	16	16	21184	3	1	1	13	5	0	0	0	0	0	0	0	0	0	4117	713	45	45	0	22	20	20	4	20	54	37	51.9	35.4	33.9	22.6	17.8	25.7	2	55.6	24.4	11.1	64.4	11	0	5	29	0	99			22	6.0	5.8	9.0	17656	19345	5011	5722	1388	9	876	52	19.4	13	18.2	13	24.5	52	16.8	0
147536	National-Louis University	National-Louis University	Chicago	IL	17	13	18	7	6	12	0	18	13	18	6	6	12	16	6385	3	1	2	11	5	0	0	0	0	0	0	0	0	0	704	2174	40	40	0	11	6	6	2	6	15	16	26.7	33.4	6.4	80.8	6.9	5.9	2	90.0	5.0	0.0	95.0	0	2	0	38	0	40				30.5	29.5	65.8	1173	3404	59					52	40.5	13	13.8	13	80.9	42	10.9	0
149514	Trinity International University		Deerfield	IL	17	13	13	10	6	11	0	17	13	13	11	5	11	51	2730	3	1	2	21	5	0	0	0	0	0	0	0	0	0	215	146	45	45	61	16	6	6	1	6	21	11	19.0	31.7	27.1	11.1	0.0	61.8	2	0.0	0.0	0.0	100.0	0	0	0	45	15	89	400	450	19	15.6	11.8	51.3	933	1834	326					52	20.1	39	18.8	39	55.2	38	15.9	0
151324	Indiana State University	Indiana State University	Terre Haute	IN	17	13	18	9	4	13	3	17	13	18	9	4	13	16	10534	3	1	1	13	5	0	0	0	0	0	0	0	0	100	1456	492	62	55	0	23	16	16	5	16	58	33	39.7	33.8	24.2	26.4	14.0	35.4	2	66.1	8.1	14.5	77.4	0	5	9	41	72	26	410	420	17	13.7	13.2	13.9	7687	8904	2834	1298	600	2	490	13	17.1	52	17.1	13	30.9	51	14.8	0
157757	Spalding University		Louisville	KY	17	13	18	7	5	9	0	17	13	18	6	5	9	21	2069	5	1	2	11	7	0	0	0	0	0	0	0	0	4	172	205	31	15	0	10	6	6	2	6	13	10	46.2	22.7	22.4	27.3	9.8	40.5	2	48.4	0.0	0.0	100.0	0	0	0	15	0	40			19	28.7	28.2	42.0	954	1641						51	44.3	52	24.4	13	30.1	51	22.9	2
162007	Bowie State University		Bowie	MD	17	13	12	9	4	13	0	18	10	7	9	4	13	21	5617	2	1	1	21	3	1	0	0	0	1	0	0	1	0	613	300	22	22	0	14	8	8	1	8	16	16	18.8	38.8	3.3	38.7	21.3	36.7	2	100.0	0.0	0.0	100.0	0	0	0	22	90	0	400	390		15.7	16.0	15.1	3940	4465	1154					52	24.3	45	14.8	13	42.9	52	19.9	0
163453	Morgan State University		Baltimore	MD	17	13	18	9	4	13	0	17	10	18	9	3	13	21	7226	2	1	1	11	3	1	0	0	0	1	0	0	1	0	843	188	36	36	0	18	15	15	7	16	33	21	36.4	37.0	10.6	4.8	27.1	57.4	2	27.8	19.4	25.0	55.6	7	0	9	20	89	6	410	400	16	10.1	9.8	10.8	5781	6464	1741	10352	1984	5	440	52	26.1	9	10.9	52	24.1	44	17.9	0
168421	Worcester Polytechnic Institute	Worcester Polytechnic Institute	Worcester	MA	17	14	17	12	4	14	0	17	14	17	12	4	14	16	4961	1	1	2	12	4	0	0	0	0	0	0	0	0	0	620	299	25	25	0	10	7	7	4	7	30	23	56.7	35.3	32.1	0.0	8.7	59.2	2	0.0	0.0	100.0	0.0	0	0	25	0						3.4	3.3	19.5	3357	4112	960					14	60.1	26	11.5	14	71.9	11	11.4	0
168740	Andrews University	Andrews University	Berrien Springs	MI	17	10	18	11	5	11	0	17	10	18	11	5	11	16	3589	3	1	2	31	5	0	0	0	0	0	0	0	0	2	341	138	74	41	96	25	15	15	5	15	47	24	23.4	44.8	8.1	10.7	3.0	78.2	2	14.9	8.1	0.0	91.9	6	0	0	35	49		470	460	20	12.7	6.9	36.7	1797	2738	611	195	1088	0	218	51	18.4	52	10.7	39	45.5	51	12.0	0
169248	Central Michigan University	Central Michigan University	Mount Pleasant	MI	17	13	18	10	4	16	0	17	13	18	11	4	16	16	27247	3	1	1	32	5	0	0	0	0	0	0	0	0	0	3571	1990	29	22	72	25	19	19	4	19	81	47	40.7	24.7	7.2	26.3	38.7	27.8	2	44.8	17.2	0.0	82.8	2	3	0	17	2	97	438	450	20	11.3	10.5	15.7	19030	22227	5453	3746	1182	6	787	52	26.5	13	16.7	52	38.2	13	26.5	0
171571	Oakland University	Oakland University	Rochester Hills	MI	17	10	17	8	4	15	0	17	10	17	8	4	15	16	18918	3	1	1	21	5	0	0	0	0	0	0	0	0	0	2226	1008	50	48	43	19	16	16	7	16	52	34	46.2	45.3	6.9	49.9	18.9	24.4	2	42.0	0.0	54.0	46.0	0	0	27	21	0	97			19	25.8	23.6	14.5	12646	14523	4514	9427	385	23	515	52	19.3	51	18.0	13	49.5	52	18.1	0
174817	Saint Mary's University of Minnesota		Winona	MN	17	13	12	7	5	13	0	17	13	12	11	6	11	21	5565	4	1	2	32	5	0	0	0	0	0	0	0	0	0	437	1176	27	27	0	22	11	11	1	11	44	19	15.9	22.3	3.6	57.7	13.8	25.0	2	100.0	0.0	0.0	100.0	0	0	0	27	8	90	503	463	19	31.1	30.1	48.7	1674	3187	577					52	48.4	43	7.8	13	58.5	52	13.5	0
174914	University of St Thomas		Saint Paul	MN	17	10	12	12	5	13	3	17	10	18	12	5	13	16	10851	4	1	2	11	5	0	0	0	0	0	0	0	0	0	1274	1201	21	21	144	21	11	12	1	12	48	30	31.3	40.3	9.7	22.9	41.9	25.6	2	100.0	0.0	0.0	100.0	0	0	0	21	11	97	520	540	23	5.7	3.8	29.0	5913	8226	1730	784	423	0	420	52	43.3	9	9.4	52	41.2	13	24.1	0
178059	Maryville University of Saint Louis		Saint Louis	MO	17	13	12	5	4	9	0	18	13	9	8	4	10	21	3534	4	1	2	21	5	0	0	0	0	0	0	0	0	0	653	229	45	45	0	18	3	3	1	3	36	9	16.7	23.5	0.0	26.6	31.9		2	100.0	0.0	0.0	100.0	0	0	0	45	5	96	450	490	22	43.1	40.9	12.3	2091	2344	839					51	34.7	52	29.3	13	38.7	51	34.7	0
181394	University of Nebraska at Omaha	University of Nebraska Omaha	Omaha	NE	17	10	18	8	4	15	3	18	13	18	8	4	15	21	14620	4	1	1	11	5	0	0	0	0	0	0	0	1	0	1836	678	19	19	0	24	16	16	4	16	59	31	40.7	42.9	29.2	34.1	13.7	23.0	2	63.2	0.0	15.8	84.2	0	0	3	16	0	95			20	21.6	20.3	13.7	9894	11340	3192	4288	2253	0	490	52	25.4	13	12.4	13	34.8	44	13.9	0
186584	Seton Hall University	Seton Hall University	South Orange	NJ	17	10	18	11	5	13	0	17	10	18	11	5	13	16	9616	2	1	2	21	3	0	0	0	0	0	0	0	0	0	1017	850	83	60	316	20	16	16	5	16	46	38	34.8	43.7	20.5	14.8	18.0	46.7	2	55.4	0.0	6.0	94.0	0	0	5	55	94	19	470	470	20	10.4	6.2	36.5	4852	7504	1598	2168	4644	2	460	52	19.2	51	12.1	22	25.4	13	17.4	0
188429	Adelphi University	Adelphi University	Garden City	NY	17	10	18	11	5	12	3	17	10	18	11	5	12	16	7951	2	1	2	21	3	0	0	0	0	0	0	0	0	8	1273	1134	19	7	0	22	10	10	2	10	37	23	29.7	44.5	6.9	41.3	6.9	45.0	2	0.0	0.0	0.0	100.0	0	0	0	7	76	15	480	500	20	13.2	12.8	26.9	4518	6156	1539					51	29.8	52	12.7	13	40.6	44	26.9	2
191649	Hofstra University	Hofstra University	Hempstead	NY	17	13	16	13	5	16	0	17	10	16	13	4	16	16	12068	2	1	2	21	3	0	0	0	0	0	0	0	0	0	1750	897	53	53	359	21	14	14	2	14	54	41	33.3	38.7	6.1	37.4	14.9	41.6	2	17.0	50.9	0.0	49.1	0	27	0	26	69	20	540	550	23	7.5	7.0	28.7	7524	10525	2130	510	2555	2	544	52	32.8	9	15.7	13	36.4	22	27.9	0
193654	The New School		New York	NY	17	8	16	10	5	13	0	17	11	16	11	5	13	16	10260	2	1	2	11	3	0	0	0	0	0	0	0	0	410	1118	957	57	43	0	8	13	13	4	13	15	25	60.0	61.8	71.9	1.0	11.7	15.4	2	0.0	73.7	0.0	26.3	12	30	0	1	66	20	490	480	21	13.6	13.3	31.6	6099	8911	2333	768	1935	0	370	50	63.8	52	10.5	50	23.4	45	20.7	0
194310	Pace University-New York	Pace University	New York	NY	17	13	18	11	5	13	3	17	13	16	11	5	13	16	12706	2	1	2	11	3	0	0	0	0	0	0	0	1	83	1638	1475	19	41	275	21	12	12	3	12	49	37	42.9	31.6	8.7	38.0	21.8	31.5	2	0.0	0.0	36.8	63.2	0	0	7	34	93	0	490	490		18.5	12.6	28.7	6989	9523	2336					52	38.3	51	12.1	13	37.6	52	22.1	2
195720	Saint John Fisher College		Rochester	NY	17	13	13	11	4	13	0	18	10	6	11	4	11	22	3883	2	1	2	21	3	0	0	0	0	0	0	0	0	0	764	280	25	25	0	16	5	5	1	5	27	11	22.2	28.5	4.3	73.9	13.2	8.6	2	0.0	0.0	0.0	100.0	0	0	0	25	97	51	480	510	22	7.2	6.6	21.4	2696	3420	865					52	26.3	13	22.2	13	67.9	52	20.3	0
195809	St. John's University-New York	Saint John's University	Queens	NY	17	10	18	10	4	16	3	17	10	18	10	4	15	16	20352	2	1	2	11	3	0	0	0	0	0	0	0	0	37	2180	1129	98	93	525	25	18	18	6	18	50	38	46.0	41.5	8.0	25.6	19.5	46.8	2	34.7	7.1	9.2	83.7	7	0	9	77	96	0	480	490		20.2	3.2	24.5	12819	15702	6081	848	911	0	668	52	26.2	9	10.8	13	26.1	51	21.2	0
196103	SUNY College of Environmental Science and Forestry	State University of New York (SUNY) College of Environmental Science & Forestry	Syracuse	NY	17	7	17	13	4	10	3	16	14	17	12	4	10	16	2642	2	1	1	12	3	0	0	0	0	0	0	0	0	33	311	93	20	20	0	7	5	5	4	5	13	6	38.5	66.2	53.8	0.0	0.0	46.2	2	0.0	0.0	64.7	35.3	0	0	11	6	96	39	530	540	23	27.4	2.7	20.6	1719	1941	503					26	37.5	3	34.0	3	39.1	26	26.4	2
198464	East Carolina University	East Carolina University	Greenville	NC	17	14	18	11	4	15	3	17	14	18	11	4	16	16	27654	5	1	1	13	7	0	0	0	0	0	0	0	0	0	3606	1521	70	32	65	23	21	21	4	21	57	49	59.6	25.5	11.8	30.8	11.8	45.6	1	11.4	0.0	21.4	78.6	0	0	15	17	97	17	450	470	19	14.3	11.2	16.5	19414	22800	5475	14448	2432	29	1630	51	16.6	52	16.2	13	30.0	51	27.1	0
199102	North Carolina A & T State University	North Carolina A&T State University	Greensboro	NC	17	13	18	9	4	13	0	16	13	13	9	3	13	21	10614	5	1	1	11	7	1	0	0	0	1	1	0	0	0	1372	377	33	33	0	23	11	11	2	12	51	24	33.3	38.0	6.6	60.2	2.7	30.5	2	0.0	0.0	45.5	54.5	0	0	15	18	93	22	400	410	17	10.2	8.6	11.6	8344	9245	2265	28774	262	18	522	52	13.6	14	12.5	13	55.4	14	19.5	0
199139	University of North Carolina at Charlotte	University of North Carolina Charlotte	Charlotte	NC	17	11	18	11	4	16	3	17	11	18	11	4	16	21	24701	5	1	1	11	7	0	0	0	0	0	0	0	1	0	3455	1036	68	68	0	23	22	22	9	22	55	47	52.7	43.2	23.1	23.1	26.2	27.7	2	30.9	0.0	45.6	54.4	0	0	31	37	96	16	470	490	20	15.1	14.5	14.8	17469	20424	5580	18878	6318	0	953	52	21.4	13	9.2	52	24.5	13	23.6	0
200697	Air Force Institute of Technology-Graduate School of Engineering & Management		Wright Patterson AFB	OH	17	-1	17	-1	6	18	0	-3	-3	-3	-3	-3	-3	59	719	0	1	1	21	5	0	0	0	0	0	0	0	0	0	0	306	31	31	0	0	8	8	2	8	0	19	0.0	-1.0	8.8	0.0	15.7	75.5	2	0.0	0.0	100.0	0.0	0	0	31	0								100.0	0	662		20497	30	0	132					14	66.2	52	14.2	0
201104	Ashland University	 	Ashland	OH	17	13	18	10	5	14	0	18	13	18	10	5	14	21	6300	3	1	2	31	5	0	0	0	0	0	0	0	0	11	501	922	34	34	0	22	9	9	2	9	49	18	18.4	27.8	1.4	64.3	19.5	14.8	2	50.0	0.0	0.0	100.0	0	0	0	34	27	91	460	470	20	16.7	14.7	48.5	2392	4578	810					13	27.6	52	25.4	13	63.8	52	18.8	0
206279	Union Institute & University	Union Institute	Cincinnati	OH	17	13	13	6	5	9	0	17	10	18	5	6	9	16	1523	3	1	2	11	5	0	0	0	0	0	0	0	0	0	547	180	93	93	0	12	8	8	1	8	18	17	27.8	26.7	71.1	15.6	0.0	13.3	2	0.0	0.0	0.0	100.0	0	0	0	93						31.8	31.8	34.8	758	1162	316					43	47.9	13	6.9	23	22.3	50	16.5	0
207971	University of Tulsa	University of Tulsa	Tulsa	OK	17	10	15	12	4	14	0	16	10	15	13	5	14	16	4187	6	1	2	11	5	0	0	0	0	0	0	0	0	0	619	207	22	16	165	22	14	14	5	14	50	24	38.0	50.0	20.4	1.3	17.5	60.8	2	0.0	31.8	40.9	27.3	6	1	9	0	40	63	560	570	25	5.0	3.8	23.9	2981	3874	893					52	18.9	14	13.9	22	42.4	52	16.5	2
213011	Immaculata University		Immaculata	PA	17	16	18	5	4	9	0	17	13	18	5	4	9	21	4302	2	1	2	21	3	0	0	0	0	0	0	0	0	23	607	163	46	32	0	20	4	4	2	4	34	9	8.8	19.8	0.0	47.9	9.8		2	63.0	0.0	0.0	100.0	0	0	0	32	99	0	420	410		65.4	62.5	24.3	1732	2167	680					51	39.7	52	31.7	13	51.2	42	29.7	0
213020	Indiana University of Pennsylvania-Main Campus	Indiana University of Pennsylvania	Indiana	PA	17	10	18	10	4	16	0	17	10	16	10	3	16	16	14638	2	1	1	32	3	0	0	0	0	0	0	0	0	9	2079	698	86	86	15	22	16	16	5	16	58	32	39.7	43.4	24.3	24.4	26.1	25.2	2	33.7	45.3	0.0	54.7	28	11	0	47	85	0	440	440		7.6	5.3	11.5	11671	12953	3854	644	662	0	631	52	24.2	45	15.8	13	25.4	52	23.3	0
216852	Widener University-Main Campus	Widener University	Chester	PA	17	13	18	10	5	13	3	17	13	18	10	4	14	16	4814	2	1	2	21	3	0	0	0	0	0	0	0	1	13	588	357	56	56	80	19	10	10	2	10	37	23	37.8	27.6	2.1	18.5	11.4	68.0	2	89.3	0.0	0.0	100.0	0	0	0	56	99	0	440	460		17.3	14.6	25.2	2871	3789	1003	169	97	0	226	52	26.8	51	24.0	13	26.6	44	25.4	0
218733	South Carolina State University	South Carolina State University	Orangeburg	SC	17	13	12	9	4	14	0	17	13	12	9	4	13	16	4538	5	1	1	32	7	1	0	0	0	1	1	0	0	0	521	115	29	29	0	18	4	4	1	4	33	9	15.2	34.4	0.0	55.7	3.5		2	100.0	0.0	0.0	100.0	0	0	0	29	62	38	370	370	15	7.9	6.9	10.1	3669	4065	973					52	18.0	19	9.8	13	64.6	51	27.1	0
220075	East Tennessee State University	East Tennessee State University	Johnson City	TN	17	13	18	11	4	15	3	17	11	12	11	4	15	16	14421	5	1	1	13	7	0	0	0	0	0	0	0	0	0	1878	561	75	43	62	24	18	18	3	18	43	29	46.5	39.3	17.8	33.7	8.3	40.1	1	45.3	0.0	8.0	92.0	0	0	6	37	12	83	420	430	19	15.4	13.2	17.0	10453	12412	3353	7442	1043	9	687	51	22.9	52	14.6	13	35.0	51	29.1	0
220978	Middle Tennessee State University	Middle Tennessee State University	Murfreesboro	TN	17	10	15	10	3	15	3	18	10	15	11	3	15	16	25188	5	1	1	12	7	0	0	0	0	0	0	0	0	0	3786	682	24	24	0	24	20	20	5	20	55	28	40.0	46.0	21.6	43.5	23.6	11.3	2	0.0	50.0	4.2	45.8	6	6	1	11	4	91	450	460	20	15.2	14.7	7.3	20040	21535	5913					52	20.1	50	10.6	13	42.1	52	22.8	0
221838	Tennessee State University	Tennessee State University	Nashville	TN	17	10	18	9	4	13	3	17	10	18	9	4	13	16	8824	5	1	1	11	7	1	0	0	0	1	1	0	0	112	948	401	41	41	18	22	14	14	4	14	37	22	35.1	49.7	10.7	45.6	6.2	37.5	2	65.9	19.5	7.3	73.2	0	8	3	30	11	91	390	378	16	20.1	18.3	16.4	5914	6995	2054					51	24.1	52	15.8	13	47.4	51	23.0	0
221892	Trevecca Nazarene University		Nashville	TN	17	13	12	11	5	11	0	17	13	12	10	5	11	21	2476	5	1	2	11	7	0	0	0	0	0	0	0	0	1	352	440	23	23	0	17	6	6	1	6	28	16	14.3	23.0	8.2	59.1	10.0	22.7	2	100.0	0.0	0.0	100.0	0	0	0	23	28	86	450	440	19	11.2	8.3	48.5	1201	2179	321					52	57.2	13	7.4	13	61.1	51	14.0	0
224147	Texas A & M University-Corpus Christi	Texas A&M University Corpus Christi	Corpus Christi	TX	17	10	18	6	4	12	0	18	10	12	11	4	12	21	9468	6	1	1	11	7	0	0	0	1	0	0	0	0	0	1405	456	27	27	0	18	14	14	2	14	34	21	32.4	58.1	15.6	42.1	21.3	21.1	2	96.3	0.0	3.7	96.3	0	0	1	26						23.3	23.3	13.8	6414	7441	2281	11610	679	0	328	52	18.1	51	12.8	13	45.1	52	20.1	0
224554	Texas A & M University-Commerce	Texas A&M University Commerce	Commerce	TX	17	7	18	6	5	12	0	17	10	18	8	5	13	16	9021	6	1	1	33	7	0	0	0	0	0	0	0	0	0	1208	1098	33	33	0	25	18	18	2	18	50	28	46.0	69.0	14.1	31.8	36.0	18.1	2	81.8	0.0	0.0	100.0	0	0	0	33	68	51	390	410	16	24.3	23.4	28.1	4668	6280	904	1566	230	2	273	52	10.5	50	4.7	52	34.9	13	33.2	0
226091	Lamar University	Lamar University	Beaumont	TX	17	10	18	6	4	12	0	18	10	17	6	3	12	21	13992	6	1	1	12	7	0	0	0	0	0	0	0	0	55	1221	604	40	30	0	23	17	17	3	17	52	27	28.8	49.8	7.3	33.9	6.8	52.0	2	55.0	0.0	20.0	80.0	0	0	8	22	85	31	400	420	16	28.0	24.3	20.4	7813	9610	2116	4674	254	0	418	52	19.5	51	11.4	14	37.7	13	35.2	0
227331	Our Lady of the Lake University-San Antonio		San Antonio	TX	17	13	13	6	5	10	0	18	10	18	8	5	10	21	2660	6	1	2	11	7	0	0	0	1	1	0	0	0	0	282	337	23	23	3	20	11	11	1	11	26	16	42.3	39.4	21.8	25.3	27.4	25.6	2	0.0	0.0	0.0	100.0	0	0	0	23	82	43	390	410	16	26.0	25.6	28.8	1318	1821	502					52	20.2	13	15.6	52	25.6	13	23.7	0
227881	Sam Houston State University	Sam Houston State University	Huntsville	TX	17	13	18	11	3	15	3	18	13	18	11	3	16	21	16772	6	1	1	33	7	0	0	0	0	0	0	0	0	0	3018	768	41	37	0	22	18	18	3	18	55	31	32.7	37.1	10.4	43.6	13.2	32.8	2	48.8	0.0	0.0	100.0	0	0	0	37	83	45	440	460	18	16.1	16.1	7.9	13005	14117	4088	2866	1687	2	587	52	25.9	43	17.2	13	43.9	42	13.7	0
228705	Texas A & M University-Kingsville	Texas A&M University Kingsville	Kingsville	TX	17	11	18	6	4	13	0	17	11	18	6	4	13	16	8194	6	1	1	32	7	0	0	0	1	1	0	0	0	0	940	270	22	22	0	21	17	17	3	17	40	32	52.5	52.1	24.1	27.0	4.1	44.8	2	81.8	0.0	4.5	95.5	0	0	1	21	49	51	400	410	16	26.9	26.9	18.1	5155	6293	2108	13519	976	0	340	52	14.6	14	9.4	13	31.2	14	27.7	0
228875	Texas Christian University	Texas Christian University	Fort Worth	TX	17	13	15	12	3	13	0	17	13	15	13	4	13	16	8853	6	1	2	11	7	0	0	0	0	0	0	0	0	0	1677	441	40	40	23	22	13	13	5	13	55	24	40.0	30.8	22.0	15.7	38.6	23.7	2	17.5	57.5	25.0	17.5	19	4	10	7	59	41	520	530	23	4.1	3.7	9.1	7431	8135	2240	1568	3439	0	521	52	25.3	9	19.3	52	35.5	51	19.0	0
229063	Texas Southern University	Texas Southern University	Houston	TX	17	13	18	9	4	12	0	19	13	17	9	4	15	16	9394	6	1	1	11	7	1	0	0	0	1	0	0	0	0	920	189	24	24	317	21	15	16	3	16	40	24	30.0	34.1	8.5	13.8	6.3	71.3	2	54.2	0.0	41.7	58.3	0	0	10	14	62	44	320	330	13	18.6	18.6	20.7	6357	8015	1864	4014	844	0	367	52	24.1	51	14.9	22	37.9	51	22.5	0
229179	Texas Woman's University	Texas Womans University	Denton	TX	17	11	15	8	5	12	0	17	14	18	6	5	12	16	13338	6	1	1	12	7	0	0	1	0	0	0	0	0	0	1573	1623	92	86	4	19	16	16	10	16	39	34	51.3	44.4	8.5	16.8	25.3	49.4	2	15.2	6.5	5.4	88.0	4	2	5	75	70	24	440	460	19	32.0	31.0	34.7	6164	9345	2057	2123	199	1	430	51	36.9	42	6.0	51	31.8	52	24.0	0
231651	Regent University		Virginia Beach	VA	17	11	18	5	6	9	0	17	17	18	5	6	10	21	4656	5	1	2	11	7	0	0	0	0	0	0	0	0	1	171	549	125	104	174	10	8	9	5	9	11	23	54.5	46.8	8.3	24.8	15.2	51.7	2	8.8	13.6	0.0	86.4	13	4	0	87	31	7	470	430	16	47.5	46.5	56.1	1319	2962	651					42	30.2	52	29.1	13	22.4	52	19.1	0
238430	Cardinal Stritch University		Milwaukee	WI	17	16	12	10	5	12	0	18	16	12	10	5	12	21	6276	3	1	2	21	5	0	0	0	0	0	0	0	0	190	535	686	19	19	0	13	7	7	1	7	25	12	24.0	11.3	4.4	42.3	49.3	4.1	2	100.0	0.0	0.0	100.0	0	0	0	19	8	88	453	463	20	6.2	6.2	43.1	2920	5133	622					52	74.4	51	13.6	52	47.9	13	43.8	0
238661	Edgewood College		Madison	WI	17	10	12	11	4	10	0	19	10	7	8	4	9	21	2549	3	1	2	12	5	0	0	0	0	0	0	0	0	0	436	92	21	21	0	17	4	4	1	4	33	6	9.1	42.3	8.7	31.5	38.0	21.7	2	100.0	0.0	0.0	100.0	0	0	0	21	2	98	440	430	20	19.8	16.4	15.1	1639	1867	481					52	25.2	51	17.3	13	44.2	52	31.0	0
239105	Marquette University	Marquette University	Milwaukee	WI	17	10	14	12	4	17	0	16	14	14	12	5	17	15	11689	3	1	2	11	5	0	0	0	0	0	0	0	0	0	1703	633	69	60	360	19	19	19	11	20	53	42	39.6	42.1	11.1	6.9	20.6	61.3	1	2.9	31.9	34.8	33.3	21	1	24	14	24	92	540	540	24	4.8	2.5	25.0	7822	10294	2223	10251	351	16	651	52	24.3	9	11.4	51	28.5	22	19.8	0
241410	Pontifical Catholic University of Puerto Rico-Ponce	Pontifical Catholic University of Puerto Rico	Ponce	PR	17	13	18	9	5	12	0	19	13	18	9	4	12	21	7682	9	1	2	12	3	0	0	0	1	1	0	0	0	11	624	172	68	39	143	19	10	11	3	11	40	26	40.0	33.0	12.4	17.1	11.7	58.7	2	33.8	19.1	0.0	80.9	0	13	0	26						9.6	7.9	27.0	5028	6821	1239					13	21.9	52	16.9	22	37.3	13	20.1	0
242653	Inter American University of Puerto Rico-Metro	InterAmerican University of Puerto Rico	San Juan	PR	17	14	18	8	5	12	0	17	13	12	8	5	12	21	10693	9	1	2	11	3	0	0	0	1	1	0	0	0	78	750	745	45	45	0	14	10	10	6	13	26	28	53.8	25.1	12.6	16.6	38.0	32.8	2	48.9	15.6	0.0	84.4	5	2	0	38						21.7	20.4	33.5	6122	9091	1354					52	31.8	51	18.5	52	36.1	13	18.5	0
243197	University of Puerto Rico-Mayaguez	University of Puerto Rico Mayaguez	Mayaguez	PR	17	13	17	12	3	15	0	18	13	17	0	3	15	21	13852	9	1	1	13	3	0	0	0	1	1	1	0	0	0	1523	187	26	26	0	18	11	11	4	11	47	29	44.7	33.1	30.5	7.0	5.3	57.2	2	0.0	0.0	100.0	0.0	0	0	26	0	100	0	528	551		6.7	5.3	7.7	12184	13038	2653					14	38.7	26	15.2	14	39.9	26	16.0	0
243601	Universidad Del Turabo		Gurabo	PR	17	16	18	6	4	15	0	18	16	6	10	4	15	21	16190	9	1	2	21	3	0	0	0	1	1	0	0	0	119	991	982	29	29	0	13	10	10	3	10	31	25	32.3	17.0	0.6	44.9	33.6	20.9	2	17.2	0.0	0.0	100.0	0	0	0	29	77	0	366	374		21.1	20.8	15.3	11298	13323	3050					52	38.1	13	21.8	13	44.1	52	34.8	0
365426	Mayo Graduate School	Mayo Clinic	Rochester	MN	17	-1	17	-1	6	18	0	17	-1	17	-1	7	18	16	227	4	1	2	12	-1	0	0	0	0	0	0	0	0	0	0	16	22	22	0	0	2	2	2	3	0	8	0.0	-1.0	37.5	0.0	0.0	62.5	2	0.0	0.0	100.0	0.0	0	0	22	0								100.0	0	180										26	68.4	51	26.3	0
367936	Argosy University-Atlanta		Atlanta	GA	17	5	12	6	6	9	0	32	-2	-2	-2	6	-2	59	2697	5	1	3	13	5	0	0	0	0	0	0	0	0	0	26	362	61	61	29	2	3	3	1	3	2	5	50.0	92.3	0.0	39.1	6.1		2	100.0	0.0	0.0	100.0	0	0	0	61						39.5	39.5	91.5	172	2029	44					42	92.3	52	7.7	13	47.3	42	47.3	0
372213	University of Phoenix-Online Campus		Phoenix	AZ	17	2	18	9	4	15	0	17	16	13	9	5	15	-3	380232	6	1	3	11	5	0	0	0	0	0	0	0	0	23824	14576	17246	467	467	0	12	6	6	3	6	28	18	39.3	16.8	5.3	26.3	50.8	17.7	2	33.8	0.0	0.0	100.0	0	0	0	467						0.0	0.0	17.3	314308	380232						52	52.7	51	14.6	52	50.9	13	26.5	0
413413	Capella University		Minneapolis	MN	17	14	18	5	6	15	0	17	17	18	5	6	12	59	31998	4	1	3	11	5	0	0	0	0	0	0	0	0	0	573	2502	700	687	0	2	9	9	8	9	10	37	80.0	20.1	13.3	20.3	23.3	43.0	2	42.4	10.6	0.0	89.4	0	74	0	613						83.9	83.9	79.8	2477	12236	787					52	56.9	11	43.1	52	25.7	13	25.2	0
436438	Argosy University-Orange County		Orange	CA	17	7	18	5	6	6	0	17	5	18	6	6	6	-3	935	8	1	3	12	5	0	0	0	0	0	0	0	0	6	24	84	27	27	17	4	3	3	3	3	4	6	25.0	70.8	0.0	16.8	14.9		2	59.3	0.0	0.0	100.0	0	0	0	27						51.8	51.8	88.3	91	775	43					42	56.7	52	23.3	42	55.5	13	25.8	0
444130	Northcentral University		Prescott Valley	AZ	17	14	18	5	6	12	0	17	14	18	5	6	6	-3	8376	6	1	3	41	5	0	0	0	0	0	0	0	0	0	52	234	222	222	0	2	3	3	3	3	2	3	100.0	28.8	24.4	24.4	51.3	0.0	2	40.1	14.9	0.0	85.1	0	33	0	189						92.6	92.6	95.2	160	3339						52	71.2	42	28.8	52	48.2	13	32.0	0
450979	TUI University		Cypress	CA	17	17	18	5	5	12	0	-3	-3	-3	-3	-3	-3	-3	8046	8	1	3	21	8	0	0	0	0	0	0	0	0	0	1153	1805	47	47	0	3	4	4	3	4	3	4	100.0	12.2	6.9	13.4	57.4	22.3	2	44.7	0.0	0.0	100.0	0	0	0	47						51.1	51.1	46.1	2639	4893						52	46.1	51	41.6	52	56.5	51	22.6	0
